"Resource/UI/build_menu/base_selectable.res"
{
	"MainBackground"	
	{
		"ControlName"	"CIconPanel"
		"fieldName"		"MainBackground"
		"xpos"			"3"
		"ypos"			"1"
		"zpos"			"0"
		"wide"			"98"
		"tall"			"135"
		"visible"		"1"
		"enabled"		"1"
		"scaleImage"	"1"	
		"icon"			"hud_menu_item_bg"
		"iconColor"		"128 128 128 255"
	}
	
	"ItemNameLabel"
	{	
		"ControlName"	"CExLabel"
		"fieldName"		"ItemNameLabel"
		"font"			"m0refont12"
		"xpos"			"3"
		"ypos"			"2"
		"zpos"			"1"
		"wide"			"60"
		"tall"			"15"
		"autoResize"	"0"
		"pinCorner"		"0"
		"visible"		"1"
		"enabled"		"1"
		"labelText"		"#TF_Object_Sentry"
		"labelText_lodef"		"#TF_Object_Sentry_360"
		"textAlignment"	"center"
		"dulltext"		"0"
		"brighttext"	"0"
		"fgcolor"		"Black"
	}

	"ItemBackground"
	{
		"ControlName"	"CIconPanel"
		"fieldName"		"ItemBackground"
		"xpos"			"4"
		"ypos"			"14"
		"zpos"			"0"
		"wide"			"98"
		"tall"			"105"
		"visible"		"0"
		"enabled"		"1"
		"scaleImage"	"1"	
		"icon"			"hud_menu_item_bg"
		"iconColor"		"0 0 0 255"
	}
	
	"BuildingIcon"	
	{
		"ControlName"	"CIconPanel"
		"fieldName"		"BuildingIcon"
		"xpos"			"19"
		"ypos"			"20"
		"zpos"			"2"
		"wide"			"28"
		"tall"			"28"
		"visible"		"1"
		"enabled"		"1"
		"scaleImage"	"1"	
		"icon"			"hud_menu_sentry_build"
		"iconColor"		"255 255 255 255"
	}
	
	"MetalIcon"	
	{
		"ControlName"	"CIconPanel"
		"fieldName"		"MetalIcon"
		"xpos"			"19"
		"ypos"			"50"
		"zpos"			"1"
		"wide"			"10"
		"tall"			"10"
		"visible"		"0"
		"enabled"		"0"
		"scaleImage"	"1"	
		"icon"			"ico_metal"
		"iconColor"		"TanDarker"
	}
	
	"CostLabel"
	{	
		"ControlName"	"CExLabel"
		"fieldName"		"CostLabel"
		"font"			"m0refont15"
		"fgcolor"		"0 255 0 255" 
		"xpos"			"3"
		"ypos"			"50"
		"zpos"			"1"
		"wide"			"60"
		"tall"			"13"
		"autoResize"	"0"
		"pinCorner"		"0"
		"visible"		"1"
		"enabled"		"1"
		"labelText"		"%metal%"
		"textAlignment"	"center"	
	}
}