"Resource/UI/ClassSelection.res"
{
	"class"
	{
		"ControlName"	"Frame"
		"fieldName"		"class"
		"xpos"			"0"
		"ypos"			"0"
		"wide"			"f0"
		"tall"			"480"
		"autoResize"	"0"
		"pinCorner"		"0"
		"visible"		"1"
		"enabled"		"1"
		"tabPosition"	"0"
	}
	
	"SysMenu"
	{
		"ControlName"	"Menu"
		"fieldName"		"SysMenu"
		"xpos"			"0"
		"ypos"			"0"
		"wide"			"64"
		"tall"			"24"
		"autoResize"	"0"
		"pinCorner"		"0"
		"visible"		"0"
		"enabled"		"0"
		"tabPosition"	"0"
	}
	
	"random"
	{
		"ControlName"		"CExImageButton"
		"fieldName"			"random"
		"xpos"				"c80"
		"ypos"				"c72"
		"zpos"				"6"
		"wide"				"150"
		"tall"				"12"
		"autoResize"		"0"
		"pinCorner"			"2"
		"visible"			"1"
		"enabled"			"1"
		"tabPosition"		"0"
		"labelText"			"?  Random"
		"textAlignment"		"west"
		"Command"			"select 12"
		"Default"			"1"
		"font"				"m0refont12"
		"scaleImage"		"1"
		
		"image_default"		"class_sel_sm_random_inactive"
		"image_armed"		"class_sel_sm_random_inactive"
		
		"fgcolor"			"255 255 255 255"
		"defaultFgColor_override" "255 255 255 255"
		"armedFgColor_override" "40 40 40 255"
		"depressedFgColor_override" "10 10 10 255"
		"selectedFgColor_override" "40 40 40 255"
		
		"sound_depressed"	"UI/buttonclick.wav"
		"sound_released"	"UI/buttonclickrelease.wav"
		"sound_armed"		"UI/buttonrollover.wav"
		
		"paintbackground"	"0"
		
		"image_drawcolor"		"255 255 255 180"
		"image_armedcolor"		"255 255 255 255"
		"image_selectedcolor"	"255 255 255 255"
		
		"stayselectedonclick"	"1"
		"selectonhover"			"1"
		"keyboardinputenabled"	"0"			
	}
		
	"Offense"
	{
		"ControlName"	"CExLabel"
		"fieldName"		"Offense"
		"xpos"			"c-300"
		"xpos_hidef"			"c-287"
		"xpos_lodef"	"c-260"
		"ypos"			"96"
		"ypos_hidef"			"102"
		"ypos_lodef"	"116"
		"zpos"			"2"
		"wide"			"0"
		"tall"			"12"
		"tall_lodef"			"22"
		"autoResize"	"1"
		"pinCorner"		"2"
		"visible"		"1"
		"enabled"		"1"
		"tabPosition"	"0"
		"labelText"		"#TF_Offense"
		"textAlignment"	"left"
		"font"			"MenuClassBuckets"
		"font_lodef"			"MenuMainTitle"
		"fgcolor"		"TanDark"
		"fgcolor_lodef"	"TanLight"
	}
	"scout"
	{
		"ControlName"		"CExImageButton"
		"fieldName"			"scout"
		"xpos"				"c80"
		"ypos"				"c-81"
		"zpos"				"6"
		"wide"				"150"
		"tall"				"12"
		"autoResize"		"0"
		"pinCorner"			"2"
		"visible"			"1"
		"enabled"			"1"
		"tabPosition"		"0"
		"labelText"			"&1  Scout"
		"textAlignment"		"west"
		"Command"			"select 1"
		"Default"			"0"
		"font"				"m0refont12"
		"scaleImage"		"1"
		
		"image_default"		"class_sel_sm_scout_inactive"
		"image_armed"		"class_sel_sm_scout_inactive"
		
		"fgcolor"			"255 255 255 255"
		"defaultFgColor_override" "255 255 255 255"
		"armedFgColor_override" "40 40 40 255"
		"depressedFgColor_override" "10 10 10 255"
		"selectedFgColor_override" "40 40 40 255"
			
		"sound_depressed"	"UI/buttonclick.wav"
		"sound_released"	"UI/buttonclickrelease.wav"
		"sound_armed"		"UI/buttonrollover.wav"
		
		"paintbackground"	"0"
		
		"image_drawcolor"		"255 255 255 180"
		"image_armedcolor"		"255 255 255 255"
		"image_selectedcolor"	"255 255 255 255"
		
		"stayselectedonclick"	"1"
		"selectonhover"			"1"
		"keyboardinputenabled"	"0"			
	}
	"soldier"
	{
		"ControlName"		"CExImageButton"
		"fieldName"			"soldier"
		"xpos"				"c80"
		"ypos"				"c-64"
		"zpos"				"6"
		"wide"				"150"
		"tall"				"12"
		"autoResize"		"0"
		"pinCorner"			"2"
		"visible"			"1"
		"enabled"			"1"
		"tabPosition"		"0"
		"labelText"			"&2  Soldier"
		"textAlignment"		"west"
		"Command"			"select 3"
		"Default"			"0"
		"font"				"m0refont12"
		"scaleImage"		"1"
		
		"image_default"		"class_sel_sm_soldier_inactive"
		"image_armed"		"class_sel_sm_soldier_inactive"
		
		"fgcolor"			"255 255 255 255"
		"defaultFgColor_override" "255 255 255 255"
		"armedFgColor_override" "40 40 40 255"
		"depressedFgColor_override" "10 10 10 255"
		"selectedFgColor_override" "40 40 40 255"
		
		"sound_depressed"	"UI/buttonclick.wav"
		"sound_released"	"UI/buttonclickrelease.wav"
		"sound_armed"		"UI/buttonrollover.wav"
		
		"paintbackground"	"0"
		
		"image_drawcolor"		"255 255 255 180"
		"image_armedcolor"		"255 255 255 255"
		"image_selectedcolor"	"255 255 255 255"
		
		"stayselectedonclick"	"1"
		"selectonhover"			"1"
		"keyboardinputenabled"	"0"
		
		"SubImage"
		{
			"ControlName"	"ImagePanel"
			"fieldName"		"SubImage"
			"xpos"			"0"
			"ypos"			"0"
			"zpos"			"7"
			"wide"			"0"
			"tall"			"100"
			"visible"		"1"
			"enabled"		"1"
			"image"			"class_sel_sm_soldier_inactive"
			"scaleImage"	"1"
		}				
	}
	"pyro"
	{
		"ControlName"		"CExImageButton"
		"fieldName"			"pyro"
		"xpos"				"c80"
		"ypos"				"c-47"
		"zpos"				"6"
		"wide"				"150"
		"tall"				"12"
		"autoResize"		"0"
		"pinCorner"			"2"
		"visible"			"1"
		"enabled"			"1"
		"tabPosition"		"0"
		"labelText"			"&3  Pyro"
		"textAlignment"		"west"
		"Command"			"select 7"
		"Default"			"0"
		"font"				"m0refont12"
		"scaleImage"		"1"
		
		"image_default"		"class_sel_sm_pyro_inactive"
		"image_armed"		"class_sel_sm_pyro_inactive"
		
		"fgcolor"			"255 255 255 255"
		"defaultFgColor_override" "255 255 255 255"
		"armedFgColor_override" "40 40 40 255"
		"depressedFgColor_override" "10 10 10 255"
		"selectedFgColor_override" "40 40 40 255"
		
		"sound_depressed"	"UI/buttonclick.wav"
		"sound_released"	"UI/buttonclickrelease.wav"
		"sound_armed"		"UI/buttonrollover.wav"
		
		"paintbackground"	"0"
		
		"image_drawcolor"		"255 255 255 255"
		"image_armedcolor"		"255 255 255 255"
		"image_selectedcolor"	"255 255 255 255"
		
		"stayselectedonclick"	"1"
		"selectonhover"			"1"
		"keyboardinputenabled"	"0"
		
		"SubImage"
		{
			"ControlName"	"ImagePanel"
			"fieldName"		"SubImage"
			"xpos"			"0"
			"ypos"			"0"
			"zpos"			"7"
			"wide"			"0"
			"tall"			"100"
			"visible"		"1"
			"enabled"		"1"
			"image"			"class_sel_sm_pyro_inactive"
			"scaleImage"	"1"
		}				
	}
	
	"Defense"
	{
		"ControlName"	"CExLabel"
		"fieldName"		"Defense"
		"xpos"			"c-110"
		"xpos_hidef"			"c-105"
		"xpos_lodef"	"c-95"
		"ypos"			"96"
		"ypos_hidef"			"102"
		"ypos_lodef"	"116"
		"zpos"			"2"
		"wide"			"0"
		"tall"			"12"
		"tall_lodef"			"22"
		"autoResize"	"1"
		"pinCorner"		"2"
		"visible"		"1"
		"enabled"		"1"
		"tabPosition"	"0"
		"labelText"		"#TF_Defense"
		"textAlignment"	"left"
		"font"			"MenuClassBuckets"
		"font_lodef"			"MenuMainTitle"
		"fgcolor"		"TanDark"
		"fgcolor_lodef"	"TanLight"
	}
	"demoman"
	{
		"ControlName"		"CExImageButton"
		"fieldName"			"demoman"
		"xpos"				"c80"
		"ypos"				"c-30"
		"zpos"				"6"
		"wide"				"150"
		"tall"				"12"
		"autoResize"		"0"
		"pinCorner"			"2"
		"visible"			"1"
		"enabled"			"1"
		"tabPosition"		"0"
		"labelText"			"&4  Demoman"
		"textAlignment"		"west"
		"Command"			"select 4"
		"Default"			"0"
		"font"				"m0refont12"
		"scaleImage"		"1"
		
		"image_default"		"class_sel_sm_demo_inactive"
		"image_armed"		"class_sel_sm_demo_inactive"
		
		"fgcolor"			"255 255 255 255"
		"defaultFgColor_override" "255 255 255 255"
		"armedFgColor_override" "40 40 40 255"
		"depressedFgColor_override" "10 10 10 255"
		"selectedFgColor_override" "40 40 40 255"
		
		"sound_depressed"	"UI/buttonclick.wav"
		"sound_released"	"UI/buttonclickrelease.wav"
		"sound_armed"		"UI/buttonrollover.wav"
		
		"paintbackground"	"0"
		
		"image_drawcolor"		"255 255 255 180"
		"image_armedcolor"		"255 255 255 255"
		"image_selectedcolor"	"255 255 255 255"
		
		"stayselectedonclick"	"1"
		"selectonhover"			"1"
		"keyboardinputenabled"	"0"
		
		"SubImage"
		{
			"ControlName"	"ImagePanel"
			"fieldName"		"SubImage"
			"xpos"			"0"
			"ypos"			"0"
			"zpos"			"7"
			"wide"			"0"
			"tall"			"100"
			"visible"		"1"
			"enabled"		"1"
			"image"			"class_sel_sm_demo_inactive"
			"scaleImage"	"1"
		}				
	}	
	"heavyweapons"
	{
		"ControlName"		"CExImageButton"
		"fieldName"			"heavyweapons"
		"xpos"				"c80"
		"ypos"				"c-13"
		"zpos"				"6"
		"wide"				"150"
		"tall"				"12"
		"autoResize"		"0"
		"pinCorner"			"2"
		"visible"			"1"
		"enabled"			"1"
		"tabPosition"		"0"
		"labelText"			"&5  Heavy"
		"textAlignment"		"west"
		"Command"			"select 6"
		"Default"			"0"
		"font"				"m0refont12"
		"scaleImage"		"1"
		
		"image_default"		"class_sel_sm_heavy_inactive"
		"image_armed"		"class_sel_sm_heavy_inactive"
		
		"fgcolor"			"255 255 255 255"
		"defaultFgColor_override" "255 255 255 255"
		"armedFgColor_override" "40 40 40 255"
		"depressedFgColor_override" "10 10 10 255"
		"selectedFgColor_override" "40 40 40 255"
		
		"sound_depressed"	"UI/buttonclick.wav"
		"sound_released"	"UI/buttonclickrelease.wav"
		"sound_armed"		"UI/buttonrollover.wav"
		
		"paintbackground"	"0"
		
		"image_drawcolor"		"255 255 255 180"
		"image_armedcolor"		"255 255 255 255"
		"image_selectedcolor"	"255 255 255 255"
		
		"stayselectedonclick"	"1"
		"selectonhover"			"1"
		"keyboardinputenabled"	"0"
		
		"SubImage"
		{
			"ControlName"	"ImagePanel"
			"fieldName"		"SubImage"
			"xpos"			"0"
			"ypos"			"0"
			"zpos"			"7"
			"wide"			"0"
			"tall"			"100"
			"visible"		"1"
			"enabled"		"1"
			"image"			"class_sel_sm_heavy_inactive"
			"scaleImage"	"1"
		}				
	}
	"engineer"
	{
		"ControlName"		"CExImageButton"
		"fieldName"			"engineer"
		"xpos"				"c80"
		"ypos"				"c4"
		"zpos"				"6"
		"wide"				"150"
		"tall"				"12"
		"autoResize"		"0"
		"pinCorner"			"2"
		"visible"			"1"
		"enabled"			"1"
		"tabPosition"		"0"
		"labelText"			"&6  Engineer"
		"textAlignment"		"west"
		"Command"			"select 9"
		"Default"			"0"
		"font"				"m0refont12"
		"scaleImage"		"1"
		
		"image_default"		"class_sel_sm_engineer_inactive"
		"image_armed"		"class_sel_sm_engineer_inactive"
		
		"fgcolor"			"255 255 255 255"
		"defaultFgColor_override" "255 255 255 255"
		"armedFgColor_override" "40 40 40 255"
		"depressedFgColor_override" "10 10 10 255"
		"selectedFgColor_override" "40 40 40 255"
		
		"sound_depressed"	"UI/buttonclick.wav"
		"sound_released"	"UI/buttonclickrelease.wav"
		"sound_armed"		"UI/buttonrollover.wav"
		
		"paintbackground"	"0"
		
		"image_drawcolor"		"255 255 255 180"
		"image_armedcolor"		"255 255 255 255"
		"image_selectedcolor"	"255 255 255 255"
		
		"stayselectedonclick"	"1"
		"selectonhover"			"1"
		"keyboardinputenabled"	"0"
		
		"SubImage"
		{
			"ControlName"	"ImagePanel"
			"fieldName"		"SubImage"
			"xpos"			"0"
			"ypos"			"0"
			"zpos"			"7"
			"wide"			"0"
			"tall"			"100"
			"visible"		"1"
			"enabled"		"1"
			"image"			"class_sel_sm_engineer_inactive"
			"scaleImage"	"1"
		}				
	}
	
	"Support"
	{
		"ControlName"	"CExLabel"
		"fieldName"		"Support"
		"xpos"			"c76"
		"xpos_hidef"			"c74"
		"xpos_lodef"	"c70"
		"ypos"			"96"
		"ypos_hidef"			"102"
		"ypos_lodef"	"116"
		"zpos"			"2"
		"wide"			"0"
		"tall"			"12"
		"tall_lodef"			"22"
		"autoResize"	"1"
		"pinCorner"		"2"
		"visible"		"1"
		"enabled"		"1"
		"tabPosition"	"0"
		"labelText"		"#TF_Support"
		"textAlignment"	"left"
		"font"			"MenuClassBuckets"
		"font_lodef"			"MenuMainTitle"
		"fgcolor"		"TanDark"
		"fgcolor_lodef"	"TanLight"
	}
	"medic"
	{
		"ControlName"		"CExImageButton"
		"fieldName"			"medic"
		"xpos"				"c80"
		"ypos"				"c21"
		"zpos"				"6"
		"wide"				"150"
		"tall"				"12"
		"autoResize"		"0"
		"pinCorner"			"2"
		"visible"			"1"
		"enabled"			"1"
		"tabPosition"		"0"
		"labelText"			"&7  Medic"
		"textAlignment"		"west"
		"Command"			"select 5"
		"Default"			"0"
		"font"				"m0refont12"
		"scaleImage"		"1"
		
		"image_default"		"class_sel_sm_medic_inactive"
		"image_armed"		"class_sel_sm_medic_inactive"
		
		"fgcolor"			"255 255 255 255"
		"defaultFgColor_override" "255 255 255 255"
		"armedFgColor_override" "40 40 40 255"
		"depressedFgColor_override" "10 10 10 255"
		"selectedFgColor_override" "40 40 40 255"
		
		"sound_depressed"	"UI/buttonclick.wav"
		"sound_released"	"UI/buttonclickrelease.wav"
		"sound_armed"		"UI/buttonrollover.wav"
		
		"paintbackground"	"0"
		
		"image_drawcolor"		"255 255 255 180"
		"image_armedcolor"		"255 255 255 255"
		"image_selectedcolor"	"255 255 255 255"
		
		"stayselectedonclick"	"1"
		"selectonhover"			"1"
		"keyboardinputenabled"	"0"
		
		"SubImage"
		{
			"ControlName"	"ImagePanel"
			"fieldName"		"SubImage"
			"xpos"			"0"
			"ypos"			"0"
			"zpos"			"7"
			"wide"			"0"
			"tall"			"100"
			"visible"		"1"
			"enabled"		"1"
			"image"			"class_sel_sm_medic_inactive"
			"scaleImage"	"1"
		}				
	}
	"sniper"
	{
		"ControlName"		"CExImageButton"
		"fieldName"			"sniper"
		"xpos"				"c80"
		"ypos"				"c38"
		"zpos"				"6"
		"wide"				"150"
		"tall"				"12"
		"autoResize"		"0"
		"pinCorner"			"2"
		"visible"			"1"
		"enabled"			"1"
		"tabPosition"		"0"
		"labelText"			"&8  Sniper"
		"textAlignment"		"west"
		"Command"			"select 2"
		"Default"			"0"
		"font"				"m0refont12"
		"scaleImage"		"1"
		
		"image_default"		"class_sel_sm_sniper_inactive"
		"image_armed"		"class_sel_sm_sniper_inactive"
		
		"fgcolor"			"255 255 255 255"
		"defaultFgColor_override" "255 255 255 255"
		"armedFgColor_override" "40 40 40 255"
		"depressedFgColor_override" "10 10 10 255"
		"selectedFgColor_override" "40 40 40 255"
		
		"sound_depressed"	"UI/buttonclick.wav"
		"sound_released"	"UI/buttonclickrelease.wav"
		"sound_armed"		"UI/buttonrollover.wav"
		
		"paintbackground"	"0"
		
		"image_drawcolor"		"255 255 255 180"
		"image_armedcolor"		"255 255 255 255"
		"image_selectedcolor"	"255 255 255 255"
		
		"stayselectedonclick"	"1"
		"selectonhover"			"1"
		"keyboardinputenabled"	"0"
		
		"SubImage"
		{
			"ControlName"	"ImagePanel"
			"fieldName"		"SubImage"
			"xpos"			"0"
			"ypos"			"0"
			"zpos"			"7"
			"wide"			"0"
			"tall"			"100"
			"visible"		"1"
			"enabled"		"1"
			"image"			"class_sel_sm_sniper_inactive"
			"scaleImage"	"1"
		}				
	}
	"spy"
	{
		"ControlName"		"CExImageButton"
		"fieldName"			"spy"
		"xpos"				"c80"
		"ypos"				"c55"
		"zpos"				"6"
		"wide"				"150"
		"tall"				"12"
		"autoResize"		"0"
		"pinCorner"			"2"
		"visible"			"1"
		"enabled"			"1"
		"tabPosition"		"0"
		"labelText"			"&9  Spy"
		"textAlignment"		"west"
		"Command"			"select 8"
		"Default"			"0"
		"font"				"m0refont12"
		"scaleImage"		"1"
		
		"image_default"		"class_sel_sm_spy_inactive"
		"image_armed"		"class_sel_sm_spy_inactive"
		
		"fgcolor"			"255 255 255 255"
		"defaultFgColor_override" "255 255 255 255"
		"armedFgColor_override" "40 40 40 255"
		"depressedFgColor_override" "10 10 10 255"
		"selectedFgColor_override" "40 40 40 255"
		
		"sound_depressed"	"UI/buttonclick.wav"
		"sound_released"	"UI/buttonclickrelease.wav"
		"sound_armed"		"UI/buttonrollover.wav"
		
		"paintbackground"	"0"
		
		"image_drawcolor"		"255 255 255 180"
		"image_armedcolor"		"255 255 255 255"
		"image_selectedcolor"	"255 255 255 255"
		
		"stayselectedonclick"	"1"
		"selectonhover"			"1"
		"keyboardinputenabled"	"0"
		
		"SubImage"
		{
			"ControlName"	"ImagePanel"
			"fieldName"		"SubImage"
			"xpos"			"0"
			"ypos"			"0"
			"zpos"			"7"
			"wide"			"0"
			"tall"			"100"
			"visible"		"1"
			"enabled"		"1"
			"image"			"class_sel_sm_spy_inactive"
			"scaleImage"	"1"
		}				
	}	

	"CancelButton" 
	{
		"ControlName"	"CExButton"
		"fieldName"		"CancelButton"
		"xpos"			"c-295"
		"ypos"			"r38"
		"zpos"			"6"
		"wide"			"0"
		"tall"			"25"
		"autoResize"	"0"
		"pinCorner"		"2"
		"visible"		"1"
		"enabled"		"1"
		"tabPosition"	"0"
		"labelText"		"#TF_ClassMenu_Cancel"
		"textAlignment"	"center"
		"Command"		"vguicancel"
		"font"			"HudFontSmallBold"
		"fgcolor_override" "200 80 60 255"
	}
	
	"EditLoadoutButton" 
	{
		"ControlName"	"CExButton"
		"fieldName"		"EditLoadoutButton"
		"xpos"			"r180"
		"ypos"			"r38"
		"zpos"			"6"
		"wide"			"0"
		"tall"			"25"
		"autoResize"	"0"
		"pinCorner"		"2"
		"visible"		"1"
		"enabled"		"1"
		"tabPosition"	"0"
		"labelText"		"#EditLoadout"
		"textAlignment"	"center"
		"Command"		"openloadout"
		"font"			"HudFontSmallBold"
	}

	"ResetButton" 
	{
		"ControlName"	"CExButton"
		"fieldName"		"ResetButton"
		"xpos"			"r470"
		"ypos"			"r38"
		"zpos"			"6"
		"wide"			"110"
		"tall"			"25"
		"autoResize"	"0"
		"pinCorner"		"2"
		"visible"		"0"
		"enabled"		"1"
		"tabPosition"	"0"
		"labelText"		"#TF_ClassMenu_Reset"
		"textAlignment"	"center"
		"Command"		"resetclass"
		"font"			"HudFontSmallBold"
	}

	"SelectAClass"
	{
		"ControlName"	"CExLabel"
		"fieldName"		"SelectAClass"
		"xpos"			"c80"
		"ypos"			"c-109"
		"zpos"			"3"
		"wide"			"116"
		"tall"			"24"
		"visible"		"1"
		"enabled"		"1"
		"labelText"		"#TF_SelectAClass"
		"textAlignment"	"center"
		"font"			"m0refont18"
		"fgcolor"		"255 255 255 255"
	}
	
	"MenuBG"
	{
		"ControlName"	"CModelPanel"
		"fieldName"		"MenuBG"
		"xpos"			"0"
		"ypos"			"0"
		"zpos"			"0"		
		"wide"			"0"
		"tall"			"480"
		"autoResize"	"0"
		"pinCorner"		"0"
		"visible"		"1"
		"enabled"		"1"
		"fov"			"16"
		
		"model"
		{
			"modelname"	"models/vgui/UI_class01.mdl"
			"skin"		"0"
			"angles_x" "0"
			"angles_y" "180"
			"angles_z" "0"
			"origin_x" "365"
			"origin_x_lodef" "415"
			"origin_x_hidef" "380"
			"origin_y" "0"
			"origin_z" "-40"
		}
	}	

	"Hint"
	{	
		"ControlName"	"CExLabel"
		"fieldName"		"Hint"
		"xpos"			"c-300"
		"xpos_hidef"	"c-287"
		"xpos_lodef"	"c-260"
		"ypos"			"95"
		"ypos_hidef"	"101"
		"ypos_lodef"	"115"
		"zpos"			"2"
		"wide"			"0"
		"tall"			"50"
		"tall_lodef"	"30"
		"autoResize"	"1"
		"pinCorner"		"2"
		"visible"		"0"
		"enabled"		"1"
		"tabPosition"	"0"
		"labelText"		"%hint%"
		"textAlignment"	"left"
		"wrap"			"1"
		"font"			"HudFontMediumSmallSecondary"
		"font_lodef"	"HudFontMediumSmallSecondary"
		"fgcolor"		"HudTrainingHint"
		"fgcolor_lodef"	"HudTrainingHint"
	}
	
	"ShadedBar"
	{
		"ControlName"	"ImagePanel"
		"fieldName"		"ShadedBar"
		"xpos"			"0"
		"ypos"			"r50"
		"ypos_lodef"			"r74"
		"ypos_hidef"			"r65"
		"zpos"			"4"
		"wide"			"0"
		"tall"			"50"
		"tall_lodef"			"74"
		"tall_hidef"			"65"
		"autoResize"	"0"
		"pinCorner"		"0"
		"visible"		"1"
		"enabled"		"1"
		"tabPosition"	"0"	
		"image"			"loadout_bottom_gradient"
		"tileImage"		"1"
		"PaintBackgroundType"	"0"
	}		
		
	"localPlayerImage"
	{
		"ControlName"	"CTFImagePanel"
		"fieldName"		"localPlayerImage"
		"xpos"			"c-30"
		"ypos"			"330"
		"zpos"			"9"
		"wide"			"0"
		"tall"			"90"
		"visible"		"0"
		"enabled"		"1"
		"image"			""	
		"scaleImage"	"1"	
	}
	
	"localPlayerBG"
	{
		"ControlName"	"CTFImagePanel"
		"fieldName"		"localPlayerBG"
		"xpos"			"c-35"
		"ypos"			"345"
		"zpos"			"2"
		"wide"			"0"
		"tall"			"80"
		"autoResize"	"0"
		"pinCorner"		"0"
		"visible"		"0"
		"enabled"		"1"
		"image"			"../hud/color_panel_clear"
		"scaleImage"	"1"	
		"teambg_2"		"../hud/color_panel_clear"
		"teambg_3"		"../hud/color_panel_clear"
			
		"src_corner_height"		"23"			// pixels inside the image
		"src_corner_width"		"23"
				
		"draw_corner_width"		"5"				// screen size of the corners ( and sides ), proportional
		"draw_corner_height" 	"5"	
	}
	
	"countImage0"
	{
		"ControlName"	"CTFImagePanel"
		"fieldName"		"countImage0"
		"xpos"			"c20"
		"ypos"			"345"
		"zpos"			"9"
		"wide"			"0"
		"tall"			"60"
		"visible"		"0"
		"enabled"		"1"
		"image"			""	
		"scaleImage"	"1"	
	}							
	
	"countImage1"
	{
		"ControlName"	"CTFImagePanel"
		"fieldName"		"countImage1"
		"xpos"			"c45"
		"ypos"			"345"
		"zpos"			"9"
		"wide"			"0"
		"tall"			"60"
		"visible"		"0"
		"enabled"		"1"
		"image"			""	
		"scaleImage"	"1"	
	}
	
	"countImage2"
	{
		"ControlName"	"CTFImagePanel"
		"fieldName"		"countImage2"
		"xpos"			"c70"
		"ypos"			"345"
		"zpos"			"9"
		"wide"			"0"
		"tall"			"60"
		"visible"		"0"
		"enabled"		"1"
		"image"			""	
		"scaleImage"	"1"	
	}
	
	"countImage3"
	{
		"ControlName"	"CTFImagePanel"
		"fieldName"		"countImage3"
		"xpos"			"c95"
		"ypos"			"345"
		"zpos"			"9"
		"wide"			"0"
		"tall"			"60"
		"visible"		"0"
		"enabled"		"1"
		"image"			""	
		"scaleImage"	"1"	
	}
	
	"countImage4"
	{
		"ControlName"	"CTFImagePanel"
		"fieldName"		"countImage4"
		"xpos"			"c120"
		"ypos"			"345"
		"zpos"			"9"
		"wide"			"0"
		"tall"			"60"
		"visible"		"0"
		"enabled"		"1"
		"image"			""	
		"scaleImage"	"1"	
	}
	
	"countImage5"
	{
		"ControlName"	"CTFImagePanel"
		"fieldName"		"countImage5"
		"xpos"			"c145"
		"ypos"			"345"
		"zpos"			"9"
		"wide"			"0"
		"tall"			"60"
		"visible"		"0"
		"enabled"		"1"
		"image"			""	
		"scaleImage"	"1"	
	}
	
	"countImage6"
	{
		"ControlName"	"CTFImagePanel"
		"fieldName"		"countImage6"
		"xpos"			"c170"
		"ypos"			"345"
		"zpos"			"9"
		"wide"			"0"
		"tall"			"60"
		"visible"		"0"
		"enabled"		"1"
		"image"			""	
		"scaleImage"	"1"	
	}
	
	"countImage7"
	{
		"ControlName"	"CTFImagePanel"
		"fieldName"		"countImage7"
		"xpos"			"c195"
		"ypos"			"345"
		"zpos"			"9"
		"wide"			"0"
		"tall"			"60"
		"visible"		"0"
		"enabled"		"1"
		"image"			""	
		"scaleImage"	"1"	
	}
	
	"countImage8"
	{
		"ControlName"	"CTFImagePanel"
		"fieldName"		"countImage8"
		"xpos"			"c220"
		"ypos"			"345"
		"zpos"			"9"
		"wide"			"0"
		"tall"			"60"
		"visible"		"0"
		"enabled"		"1"
		"image"			""	
		"scaleImage"	"1"	
	}
	
	"countImage9"
	{
		"ControlName"	"CTFImagePanel"
		"fieldName"		"countImage9"
		"xpos"			"c245"
		"ypos"			"345"
		"zpos"			"9"
		"wide"			"0"
		"tall"			"60"
		"visible"		"0"
		"enabled"		"1"
		"image"			""	
		"scaleImage"	"1"	
	}
	
	"countImage10"
	{
		"ControlName"	"CTFImagePanel"
		"fieldName"		"countImage10"
		"xpos"			"c270"
		"ypos"			"345"
		"zpos"			"9"
		"wide"			"0"
		"tall"			"60"
		"visible"		"0"
		"enabled"		"1"
		"image"			""	
		"scaleImage"	"1"	
	}
	
	"CountLabel"
	{
		"ControlName"	"CExLabel"
		"fieldName"		"CountLabel"
		"xpos"			"c35"
		"ypos"			"402"
		"zpos"			"10"
		"wide"			"0"
		"tall"			"18"
		"autoResize"	"1"
		"pinCorner"		"2"
		"visible"		"1"
		"enabled"		"1"
		"tabPosition"	"0"
		"labelText"		"#TF_TeamCount"
		"textAlignment"	"left"
		"font"			"HudFontMediumSmallSecondary"
		"fgcolor"		"0 0 0 0"
	}
	
	"numScout"
	{
		"ControlName"	"CExLabel"
		"fieldName"		"numScout"
		"xpos"			"c143"
		"ypos"			"c-81"
		"zpos"			"5"
		"wide"			"50"
		"tall"			"12"
		"autoResize"	"1"
		"pinCorner"		"2"
		"visible"		"1"
		"enabled"		"1"
		"tabPosition"	"0"
		"labelText"		"%numScout%"
		"textAlignment"	"east"
		"font"			"m0refont12"
		"fgcolor"		"0 230 0 255"
	}	
	
	"numSoldier"
	{
		"ControlName"	"CExLabel"
		"fieldName"		"numSoldier"
		"xpos"			"c143"
		"ypos"			"c-64"
		"zpos"			"5"
		"wide"			"50"
		"tall"			"12"
		"autoResize"	"1"
		"pinCorner"		"2"
		"visible"		"1"
		"enabled"		"1"
		"tabPosition"		"0"
		"labelText"		"%numSoldier%"
		"textAlignment"	"east"
		"font"			"m0refont12"
		"fgcolor"		"0 230 0 255"
	}		
	
	"numPyro"
	{
		"ControlName"	"CExLabel"
		"fieldName"		"numPyro"
		"xpos"			"c143"
		"ypos"			"c-47"
		"zpos"			"5"
		"wide"			"50"
		"tall"			"12"
		"autoResize"	"1"
		"pinCorner"		"2"
		"visible"		"1"
		"enabled"		"1"
		"tabPosition"		"0"
		"labelText"		"%numPyro%"
		"textAlignment"	"east"
		"font"			"m0refont12"
		"fgcolor"		"0 230 0 255"
	}			
	
	"numDemoman"
	{
		"ControlName"	"CExLabel"
		"fieldName"		"numDemoman"
		"xpos"			"c143"
		"ypos"			"c-30"
		"zpos"			"5"
		"wide"			"50"
		"tall"			"12"
		"autoResize"	"1"
		"pinCorner"		"2"
		"visible"		"1"
		"enabled"		"1"
		"tabPosition"		"0"
		"labelText"		"%numDemoman%"
		"textAlignment"	"east"
		"font"			"m0refont12"
		"fgcolor"		"0 230 0 255"
	}				
	
	"numHeavy"
	{
		"ControlName"	"CExLabel"
		"fieldName"		"numHeavy"
		"xpos"			"c143"
		"ypos"			"c-13"
		"zpos"			"5"
		"wide"			"50"
		"tall"			"12"
		"autoResize"	"1"
		"pinCorner"		"2"
		"visible"		"1"
		"enabled"		"1"
		"tabPosition"		"0"
		"labelText"		"%numHeavy%"
		"textAlignment"	"east"
		"font"			"m0refont12"
		"fgcolor"		"0 230 0 255"
	}					
	
	"numEngineer"
	{
		"ControlName"	"CExLabel"
		"fieldName"		"numEngineer"
		"xpos"			"c143"
		"ypos"			"c4"
		"zpos"			"5"
		"wide"			"50"
		"tall"			"12"
		"autoResize"	"1"
		"pinCorner"		"2"
		"visible"		"1"
		"enabled"		"1"
		"tabPosition"		"0"
		"labelText"		"%numEngineer%"
		"textAlignment"	"east"
		"font"			"m0refont12"
		"fgcolor"		"0 230 0 255"
	}						
	
	"numMedic"
	{
		"ControlName"	"CExLabel"
		"fieldName"		"numMedic"
		"xpos"			"c143"
		"ypos"			"c21"
		"zpos"			"5"
		"wide"			"50"
		"tall"			"12"
		"autoResize"	"1"
		"pinCorner"		"2"
		"visible"		"1"
		"enabled"		"1"
		"tabPosition"		"0"
		"labelText"		"%numMedic%"
		"textAlignment"	"east"
		"font"			"m0refont12"
		"fgcolor"		"0 230 0 255"
	}							
	
	"numSniper"
	{
		"ControlName"	"CExLabel"
		"fieldName"		"numSniper"
		"xpos"			"c143"
		"ypos"			"c38"
		"zpos"			"5"
		"wide"			"50"
		"tall"			"12"
		"autoResize"	"1"
		"pinCorner"		"2"
		"visible"		"1"
		"enabled"		"1"
		"tabPosition"		"0"
		"labelText"		"%numSniper%"
		"textAlignment"	"east"
		"font"			"m0refont12"
		"fgcolor"		"0 230 0 255"
	}						
	
	"numSpy"
	{
		"ControlName"	"CExLabel"
		"fieldName"		"numSpy"
		"xpos"			"c143"
		"ypos"			"c55"
		"zpos"			"5"
		"wide"			"50"
		"tall"			"12"
		"autoResize"	"1"
		"pinCorner"		"2"
		"visible"		"1"
		"enabled"		"1"
		"tabPosition"		"0"
		"labelText"		"%numSpy%"
		"textAlignment"	"east"
		"font"			"m0refont12"
		"fgcolor"		"0 230 0 255"
	}
	
	"TFPlayerModel"
	{
		"ControlName"	"CTFPlayerModelPanel"
		"fieldName"		"TFPlayerModel"
		
		"xpos"			"0"
		"ypos"			"0"
		"zpos"			"6"		
		"wide"			"0"
		"tall"			"480"
		
		"autoResize"	"0"
		"pinCorner"		"0"
		"visible"		"1"
		"enabled"		"1"
		
		"fov"			"25"
		"allow_rot"		"0"

		"paintbackground" "1"		
		"paintbackgroundenabled" "1"
		"bgcolor_override" "255 255 255 0"
		
		"model"
		{
			"force_pos"	"1"

			"angles_x" "0"
			"angles_y" "180"
			"angles_z" "0"
			"origin_x" "320"
			"origin_y" "10"
			"origin_z" "-49"
			"frame_origin_x"	"0"
			"frame_origin_y"	"0"
			"frame_origin_z"	"0"
			"spotlight" "1"
		
			"modelname"		""
			"vcd"		"class_select.vcd"		
			
			"animation"
			{
				"name"		"PRIMARY"
				"activity"	"ACT_MP_STAND_PRIMARY"
				"default"	"1"
			}
			"animation"
			{
				"name"		"SECONDARY"
				"activity"	"ACT_MP_STAND_SECONDARY"
			}
			"animation"
			{
				"name"		"MELEE"
				"activity"	"ACT_MP_STAND_MELEE"
			}
			"animation"
			{
				"name"		"BUILDING"
				"activity"	"ACT_MP_STAND_BUILDING"
			}
			"animation"
			{
				"name"		"PDA"
				"activity"	"ACT_MP_STAND_PDA"
			}
			"animation"
			{
				"name"		"ITEM1"
				"activity"	"ACT_MP_STAND_ITEM1"
			}						
			"animation"
			{
				"name"		"ITEM2"
				"activity"	"ACT_MP_STAND_ITEM2"
			}	
			"animation"
			{
				"name"		"MELEE_ALLCLASS"
				"activity"	"ACT_MP_STAND_MELEE_ALLCLASS"
			}								
		}
	}

	"ClassTipsPanel"
	{
		"ControlName"	"CTFClassTipsPanel"
		"fieldName"		"ClassTipsPanel"
		"xpos"			"c-178"
		"ypos"			"c-95"
		"zpos"			"7"
		"wide"			"235"
		"tall"			"185"
		"autoResize"	"0"
		"pinCorner"		"0"
		"visible"		"0"
		"enabled"		"1"
		"tabPosition"	"0"
	}

	"ClassTipsPanelBG"
	{
		"ControlName"	"CTFImagePanel"
		"fieldName"		"ClassTipsPanelBG"
		"xpos"			"c-188"
		"ypos"			"c-116"
		"zpos"			"1"
		"wide"			"255"
		"tall"			"211"
		"visible"		"0"
		"enabled"		"1"
		"image"			"../hud/color_panel_brown"
		"scaleImage"		"1"

		"src_corner_height"		"23"
		"src_corner_width"		"23"			
		"draw_corner_width"		"5"
		"draw_corner_height" 		"5"
	}

	"ClassHighlightPanel"
	{
		"ControlName"	"CExplanationPopup"
		"fieldName"		"ClassHighlightPanel"
		"xpos"			"c-75"
		"ypos"			"280"
		"zpos"			"100"
		"wide"			"250"
		"tall"			"170"
		"visible"		"0"
		"PaintBackgroundType"	"2"
		"paintbackground" "0"
		"border"		"MainMenuHighlightBorder"
		
		"start_x"		"c-238"
		"start_y"		"100"
		"start_wide"	"1"
		"start_tall"	"1"
		"end_x"			"c-325"
		"end_y"			"250"
		"end_wide"		"275"
		"end_tall"		"150"
		"callout_inparents_x"	"c-210"
		"callout_inparents_y"	"437"
		
		"TitleLabel"
		{
			"ControlName"	"CExLabel"
			"fieldName"		"TitleLabel"
			"font"			"HudFontSmallBold"
			"labelText"		"#CMenu_ClassHighlightPanel_Title"
			"textAlignment"	"north-west"
			"xpos"			"10"
			"ypos"			"10"
			"wide"			"210"
			"tall"			"20"
			"autoResize"	"0"
			"pinCorner"		"0"
			"visible"		"1"
			"enabled"		"1"
			"wrap"			"1"
			"fgcolor_override" "46 43 42 255"
		}
		
		"ClassHighlightText"
		{
			"ControlName"	"CExLabel"
			"fieldName"		"ClassHighlightText"
			"font"			"HudFontSmall"
			"labelText"		"%ClassHighlightText%"
			"textAlignment"	"north-west"
			"xpos"			"20"
			"ypos"			"30"
			"wide"			"210"
			"tall"			"115"
			"autoResize"	"0"
			"pinCorner"		"0"
			"visible"		"1"
			"enabled"		"1"
			"wrap"			"1"
			"fgcolor_override" "46 43 42 255"
		}
		
		"CloseButton"
		{
			"ControlName"	"CExImageButton"
			"fieldName"		"CloseButton"
			"xpos"			"255"
			"ypos"			"5"
			"zpos"			"10"
			"wide"			"14"
			"tall"			"14"
			"autoResize"	"0"
			"pinCorner"		"0"
			"visible"		"1"
			"enabled"		"1"
			"tabPosition"	"0"
			"labeltext"		""
			"font"			"HudFontSmallBold"
			"textAlignment"	"center"
			"dulltext"		"0"
			"brighttext"	"0"
			"default"		"1"
			"sound_depressed"	"UI/buttonclick.wav"
			"sound_released"	"UI/buttonclickrelease.wav"
			"Command"		"close"
			
			"paintbackground"	"0"
			
			"defaultFgColor_override" "46 43 42 255"
			"armedFgColor_override" "235 226 202 255"
			"depressedFgColor_override" "46 43 42 255"
			
			"image_drawcolor"	"117 107 94 255"
			"image_armedcolor"	"200 80 60 255"
			"SubImage"
			{
				"ControlName"	"ImagePanel"
				"fieldName"		"SubImage"
				"xpos"			"0"
				"ypos"			"0"
				"zpos"			"1"
				"wide"			"14"
				"tall"			"14"
				"visible"		"1"
				"enabled"		"1"
				"image"			"close_button"
				"scaleImage"	"1"
			}				
		}
	}

	"ClassInfoPanel"
	{
		"ControlName"	"CTFClassInfoPanel"
		"fieldName"		"ClassInfoPanel"
		"xpos"			"c46"
		"ypos"			"c-79"
		"zpos"			"7"
		"wide"			"0"
		"tall"			"160"
		"autoResize"	"0"
		"pinCorner"		"0"
		"visible"		"1"
		"enabled"		"1"
		"tabPosition"	"0"
	}

	"BGPanel"
	{
		"ControlName"	"CTFImagePanel"
		"fieldName"		"BGPanel"
		"xpos"			"c70"
		"ypos"			"c-116"
		"zpos"			"1"
		"wide"			"136"
		"tall"			"211"
		"visible"		"1"
		"enabled"		"1"
		"image"			"../hud/color_panel_brown"
		"scaleImage"		"1"
		"teambg_1"		"../hud/color_panel_brown"
		"teambg_2"		"../hud/color_panel_red"
		"teambg_2_lodef"	"../hud/color_panel_red"
		"teambg_3"		"../hud/color_panel_blu"
		"teambg_3_lodef"	"../hud/color_panel_blu"
		"scaleImage"		"1"			
		"src_corner_height"		"23"
		"src_corner_width"		"23"			
		"draw_corner_width"		"5"
		"draw_corner_height" 	"5"	
	}

	"MvMUpgradeImageScout"
	{
		"ControlName"	"ImagePanel"
		"fieldName"		"MvMUpgradeImageScout"
		"xpos"			"c-270"
		"ypos"			"30"
		"zpos"			"10"
		"wide"			"10"
		"tall"			"10"
		"visible"		"0"
		"enabled"		"1"
		"image"			"mvm/class_upgraded"
		"scaleImage"	"1"
	}
	
	"MvMUpgradeImageSolider"
	{
		"ControlName"	"ImagePanel"
		"fieldName"		"MvMUpgradeImageSolider"
		"xpos"			"c-220"
		"ypos"			"30"
		"zpos"			"10"
		"wide"			"10"
		"tall"			"10"
		"visible"		"0"
		"enabled"		"1"
		"image"			"mvm/class_upgraded"
		"scaleImage"	"1"
	}
	
	"MvMUpgradeImagePyro" 
	{
		"ControlName"	"ImagePanel"
		"fieldName"		"MvMUpgradeImagePyro" 
		"xpos"			"c-170"
		"ypos"			"30"
		"zpos"			"10"
		"wide"			"10"
		"tall"			"10"
		"visible"		"0"
		"enabled"		"1"
		"image"			"mvm/class_upgraded"
		"scaleImage"	"1"
	}
	
	"MvMUpgradeImageDemoman" 
	{
		"ControlName"	"ImagePanel"
		"fieldName"		"MvMUpgradeImageDemoman" 
		"xpos"			"c-80"
		"ypos"			"30"
		"zpos"			"10"
		"wide"			"10"
		"tall"			"10"
		"visible"		"0"
		"enabled"		"1"
		"image"			"mvm/class_upgraded"
		"scaleImage"	"1"
	}
	
	"MvMUpgradeImageHeavy"
	{
		"ControlName"	"ImagePanel"
		"fieldName"		"MvMUpgradeImageHeavy" 
		"xpos"			"c-30"
		"ypos"			"30"
		"zpos"			"10"
		"wide"			"10"
		"tall"			"10"
		"visible"		"0"
		"enabled"		"1"
		"image"			"mvm/class_upgraded"
		"scaleImage"	"1"
	}
	
	"MvMUpgradeImageEngineer"
	{
		"ControlName"	"ImagePanel"
		"fieldName"		"MvMUpgradeImageEngineer"
		"xpos"			"c20"
		"ypos"			"30"
		"zpos"			"10"
		"wide"			"10"
		"tall"			"10"
		"visible"		"0"
		"enabled"		"1"
		"image"			"mvm/class_upgraded"
		"scaleImage"	"1"
	}
	
	"MvMUpgradeImageMedic"
	{
		"ControlName"	"ImagePanel"
		"fieldName"		"MvMUpgradeImageMedic"
		"xpos"			"c108"
		"ypos"			"30"
		"zpos"			"10"
		"wide"			"10"
		"tall"			"10"
		"visible"		"0"
		"enabled"		"1"
		"image"			"mvm/class_upgraded"
		"scaleImage"	"1"
	}
	
	"MvMUpgradeImageSniper"
	{
		"ControlName"	"ImagePanel"
		"fieldName"		"MvMUpgradeImageSniper"
		"xpos"			"c158"
		"ypos"			"30"
		"zpos"			"10"
		"wide"			"10"
		"tall"			"10"
		"visible"		"0"
		"enabled"		"1"
		"image"			"mvm/class_upgraded"
		"scaleImage"	"1"
	}
	
	"MvMUpgradeImageSpy"
	{
		"ControlName"	"ImagePanel"
		"fieldName"		"MvMUpgradeImageSpy"
		"xpos"			"c208"
		"ypos"			"30"
		"zpos"			"10"
		"wide"			"10"
		"tall"			"10"
		"visible"		"0"
		"enabled"		"1"
		"image"			"mvm/class_upgraded"
		"scaleImage"	"1"
	}


	"StartExplanation"
	{
		"ControlName"	"CExplanationPopup"
		"fieldName"		"StartExplanation"
		"xpos"			"0"
		"ypos"			"0"
		"zpos"			"10000"
		"wide"			"250"
		"tall"			"165"
		"visible"		"0"
		"PaintBackgroundType"	"2"
		"paintbackground" "0"
		"border"		"MainMenuHighlightBorder"
		
		"force_close"	"1"
		"end_x"			"c-280"
		"end_y"			"55"
		"end_wide"		"300"
		"end_tall"		"240"
		"callout_inparents_x"	"c-180"
		"callout_inparents_y"	"175"
		"next_explanation"		"VoucherExplanation"
		
		"TitleLabel"
		{
			"ControlName"	"CExLabel"
			"fieldName"		"TitleLabel"
			"font"			"HudFontSmallBold"
			"labelText"		"#TF_MvM_UpgradeExplanation_Title"
			"textAlignment"	"north"
			"xpos"			"20"
			"ypos"			"10"
			"wide"			"260"
			"tall"			"30"
			"autoResize"	"0"
			"pinCorner"		"0"
			"visible"		"1"
			"enabled"		"1"
			"wrap"			"1"
			"fgcolor_override" "46 43 42 255"
		}
		
		"TextLabel"
		{
			"ControlName"	"CExLabel"
			"fieldName"		"TextLabel"
			"font"			"HudFontSmall"
			"labelText"		"#TF_MvM_UpgradeExplanation_Text"
			"textAlignment"	"north-west"
			"xpos"			"20"
			"ypos"			"45"
			"wide"			"260"
			"tall"			"170"
			"autoResize"	"0"
			"pinCorner"		"0"
			"visible"		"1"
			"enabled"		"1"
			"wrap"			"1"
			"fgcolor_override" "46 43 42 255"
		}
		
		"CloseButton"
		{
			"ControlName"	"CExImageButton"
			"fieldName"		"CloseButton"
			"xpos"			"280"
			"ypos"			"5"
			"zpos"			"10"
			"wide"			"14"
			"tall"			"14"
			"autoResize"	"0"
			"pinCorner"		"0"
			"visible"		"1"
			"enabled"		"1"
			"tabPosition"	"0"
			"labeltext"		""
			"font"			"HudFontSmallBold"
			"textAlignment"	"center"
			"dulltext"		"0"
			"brighttext"	"0"
			"default"		"0"
			"sound_depressed"	"UI/buttonclick.wav"
			"sound_released"	"UI/buttonclickrelease.wav"
			"Command"		"close"
			
			"paintbackground"	"0"
			
			"defaultFgColor_override" "46 43 42 255"
			"armedFgColor_override" "200 80 60 255"
			"depressedFgColor_override" "46 43 42 255"
			
			"image_drawcolor"	"117 107 94 255"
			"image_armedcolor"	"200 80 60 255"
			"SubImage"
			{
				"ControlName"	"ImagePanel"
				"fieldName"		"SubImage"
				"xpos"			"0"
				"ypos"			"0"
				"zpos"			"1"
				"wide"			"14"
				"tall"			"14"
				"visible"		"1"
				"enabled"		"1"
				"image"			"close_button"
				"scaleImage"	"1"
			}				
		}
	}

}