"Resource/UI/ControlPointIcon.res"
{
	"ControlPointIcon"
	{
		"ControlName"	"EditablePanel"
		"fieldName"	"ControlPointIcon"
		"xpos"		"0"
		"ypos"		"0"
		"zpos"		"1"
		"wide"		"25"
		"tall"		"25"
		"visible"	"1"
		"enabled"	"1"
	}
	
	"Countdown"
	{
		"ControlName"	"CControlPointCountdown"
		"fieldName"	"Countdown"
		"xpos"		"0"
		"ypos"		"0"
		"zpos"		"4"
		"wide"		"25"
		"tall"		"25"
		"visible"	"1"
		"enabled"	"1"
	}	

	"CapPlayerImage"
	{
		"ControlName"	"ImagePanel"		
		"fieldName"	"CapPlayerImage"
		"xpos"		"0"
		"ypos"		"0"
		"zpos"		"3"
		"wide"		"9"
		"tall"		"16"
		"visible"	"0"
		"enabled"	"1"
		"image"		"capture_icon"
		"scaleImage"	"1"
	}

	"CapNumPlayers"
	{	
		"ControlName"		"Label"
		"fieldName"		"CapNumPlayers"
		"font"			"m0refont12"
		"xpos"			"12"
		"ypos"			"-5"
		"zpos"			"4"
		"wide"			"20"
		"tall"			"33"
		"autoResize"		"0"
		"pinCorner"		"0"
		"visible"		"1"
		"enabled"		"1"
		"labelText"		"#ControlPointIconCappers"
		"textAlignment"		"west"
		"dulltext"		"0"
		"brighttext"		"0"
	}

	"OverlayImage"
	{
		"ControlName"	"ImagePanel"		
		"fieldName"	"OverlayImage"
		"xpos"		"17"
		"ypos"		"0"
		"zpos"		"4"
		"wide"		"8"
		"tall"		"8"
		"visible"	"0"
		"enabled"	"1"
		"image"		"capture_icon"
		"scaleImage"	"1"
	}
}
