"Resource/UI/ItemModelPanel.res"
{
	"itemmodelpanel"
	{
		"ControlName"		"CEmbeddedItemModelPanel"
		"fieldName"		"itemmodelpanel"
	
		"xpos"			"0"
		"ypos"			"0"
		"zpos"			"1"		
		"wide"			"100"
		"tall"			"100"
		"autoResize"		"0"
		"pinCorner"		"0"
		"visible"			"1"
		"enabled"			"1"
		"useparentbg"		"1"

		"fov"				"54"
		"start_framed"		"1"

		"disable_manipulation"	"1"

		"model"
		{
			"angles_x"		"10"
			"angles_y"		"130"
			"angles_z"		"0"
		}
	}
	"DisguiseStatusBG"
	{
		"ControlName"		"CTFImagePanel"
		"fieldName"		"DisguiseStatusBG"
		"xpos"			"10"
		"ypos"			"29"
		"zpos"			"-1"
		"wide"			"140"
		"tall"	 		"24"
		"autoResize"		"0"
		"pinCorner"		"0"
		"visible"			"1"
		"enabled"			"1"
		"image"			"../hud/color_panel_brown"
		"scaleImage"		"1"
		"teambg_1"			"../hud/color_panel_brown"
		"teambg_2"			"../hud/color_panel_red"
		"teambg_2_lodef"	"../hud/color_panel_red"
		"teambg_3"			"../hud/color_panel_blu"
		"teambg_3_lodef"	"../hud/color_panel_blu"
		
		"src_corner_height"		"23"				// pixels inside the image
		"src_corner_width"		"23"
			
		"draw_corner_width"		"3"				// screen size of the corners ( and sides ), proportional
		"draw_corner_height" 		"3"	
	}

	"DisguiseNameLabel"
	{	
		"ControlName"		"Label"
		"fieldName"		"DisguiseNameLabel"
		"font"			"m0refont10"
		"xpos"			"40"
		"ypos"			"32"
		"zpos"			"1"
		"wide"			"110"
		"tall"			"24"
		"autoResize"		"0"
		"pinCorner"		"0"
		"visible"			"1"
		"enabled"			"1"
		"labelText"		"%disguisename%"
		"textAlignment"		"North-West"
		"dulltext"			"0"
		"brighttext"		"0"
		"fgcolor_override" 	"255 255 255 255"
	}
	
	"WeaponNameLabel"
	{	
		"ControlName"		"Label"
		"fieldName"		"WeaponNameLabel"
		"font"			"m0refont10"
		"xpos"			"40"
		"ypos"			"41"
		"zpos"			"1"
		"wide"			"110"
		"tall"			"24"
		"autoResize"		"0"
		"pinCorner"		"0"
		"visible"			"1"
		"enabled"			"1"
		"labelText"		"%weaponname%"
		"textAlignment"		"North-West"
		"dulltext"			"0"
		"brighttext"		"0"
		"fgcolor_override"	"255 255 255 255"
	}
	
	"SpectatorGUIHealth"
	{
		"ControlName"		"EditablePanel"
		"fieldName"		"SpectatorGUIHealth"
		"xpos"			"10"
		"ypos"			"26"
		"wide"			"30"
		"tall"			"30"
		"visible"			"1"
		"enabled"			"1"	
		"HealthBonusPosAdj"	"10"
		"HealthDeathWarning"	"0.49"
		"TFFont"			"HudFontSmall"
		"HealthDeathWarningColor"	"HUDDeathWarning"
		"TextColor"		"HudOffWhite"
	}	
	
}
