"Resource/UI/HudAmmoWeapons.res"
{
	"HudWeaponAmmoBG"
	{
		"ControlName"	"CTFImagePanel"
		"fieldName"		"HudWeaponAmmoBG"
		"xpos"			"28"
		"ypos"			"7"
		"zpos"			"1"
		"wide"			"0"
		"tall"			"0"
		"visible"		"0"
		"enabled"		"0"
		"image"			"../hud/ammo_blue_bg"
		"scaleImage"	"1"	
		"teambg_2"		"../hud/ammo_red_bg"
		"teambg_2_lodef"	"../hud/ammo_red_bg_lodef"
		"teambg_3"		"../hud/ammo_blue_bg"
		"teambg_3_lodef"	"../hud/ammo_blue_bg_lodef"			
	}
	"HudWeaponLowAmmoImage"
	{
		"ControlName"	"ImagePanel"
		"fieldName"		"HudWeaponLowAmmoImage"
		"xpos"			"9001"	//10
		"ypos"			"16"
		"zpos"			"0"
		"wide"			"90"
		"tall"			"45"
		"visible"		"0"
		"enabled"		"0"
		"image"			"../hud/ammo_red_bg"
		"scaleImage"	"1"	
		"teambg_2"		"../hud/ammo_red_bg"
		"teambg_2_lodef"	"../hud/ammo_red_bg_lodef"
		"teambg_3"		"../hud/ammo_blue_bg"
		"teambg_3_lodef"	"../hud/ammo_blue_bg_lodef"			
	}
	"AmmoInClip"
	{
		"ControlName"	"CExLabel"
		"fieldName"		"AmmoInClip"
		"font"			"m0refont72"
		"fgcolor"		"AmmoInClip"
		"xpos"			"0"
		"ypos"			"0"
		"zpos"			"5"
		"wide"			"75"
		"tall"			"65"
		"visible"		"0"
		"enabled"		"1"
		"textAlignment"	"east"	
		"labelText"		"%Ammo%"
	}
	"AmmoInClipShadow"
	{
		"ControlName"	"CExLabel"
		"fieldName"		"AmmoInClipShadow"
		"font"			"m0refont72"
		"fgcolor"		"0 0 0 255"
		"xpos"			"2"
		"ypos"			"2"
		"zpos"			"5"
		"wide"			"75"
		"tall"			"65"
		"visible"		"0"
		"enabled"		"1"
		"textAlignment"	"east"	
		"labelText"		"%Ammo%"		
	}						
	"AmmoInReserve"
	{
		"ControlName"	"CExLabel"
		"fieldName"		"AmmoInReserve"
		"font"			"m0refont28"
		"fgcolor"		"AmmoInReserve"
		"xpos"			"75"
		"ypos"			"24"
		"zpos"			"7"
		"wide"			"40"
		"tall"			"27"
		"visible"		"0"
		"enabled"		"1"
		"textAlignment"	"west"		
		"labelText"		"%AmmoInReserve%"
	}		
	"AmmoInReserveShadow"
	{
		"ControlName"	"CExLabel"
		"fieldName"		"AmmoInReserveshadow"
		"font"			"m0refont28"
		"fgcolor"		"0 0 0 255"
		"xpos"			"76"
		"ypos"			"25"
		"zpos"			"7"
		"wide"			"40"
		"tall"			"27"
		"visible"		"0"
		"enabled"		"1"
		"textAlignment"	"west"		
		"labelText"		"%AmmoInReserve%"
	}									
	"AmmoNoClip"
	{
		"ControlName"	"CExLabel"
		"fieldName"		"AmmonoClip"
		"font"			"m0refont72"
		"fgcolor"		"AmmoInClip"
		"xpos"			"0"
		"ypos"			"0"
		"zpos"			"5"
		"wide"			"125"
		"tall"			"65"
		"visible"		"0"
		"enabled"		"1"
		"textAlignment"	"center"	
		"labelText"		"%Ammo%"		
	}	
	"AmmoNoClipShadow"
	{
		"ControlName"	"CExLabel"
		"fieldName"		"AmmonoClipshadow"
		"font"			"m0refont72"
		"fgcolor"		"0 0 0 255"
		"xpos"			"2"
		"ypos"			"2"
		"zpos"			"5"
		"wide"			"125"
		"tall"			"65"
		"visible"		"0"
		"enabled"		"1"
		"textAlignment"	"center"	
		"labelText"		"%Ammo%"	
	}									
}
