"Resource/UI/ControlPointCountdown.res"
{
	"CapCountdownLabel"
	{	
		"ControlName"		"CExLabel"
		"fieldName"		"CapCountdownLabel"
		"font"			"m0refont20"
		"xpos"			"4"
		"ypos"			"4"
		"zpos"			"1"
		"wide"			"22"
		"tall"			"22"
		"autoResize"		"0"
		"pinCorner"		"0"
		"visible"		"1"
		"enabled"		"1"
		"wrap"			"0"
		"labelText"		"%capturetime%"
		"textAlignment"		"center"
		"fgcolor"		"235 226 202 255"
		"bgcolor"		"235 226 202 255"
	}
}

