"Resource/UI/HudArenaNotification.res"
{
	"HudArenaNotificationBG"
	{
		"ControlName"		"CTFImagePanel"
		"fieldName"		"HudArenaNotificationBG"
		"xpos"			"30"
		"ypos"			"20"
		"zpos"			"-1"
		"wide"			"260"
		"tall"			"63"
		"autoResize"		"0"
		"pinCorner"		"0"
		"visible"		"1"
		"enabled"		"1"
		"image"			"../hud/color_panel_blu"
		"scaleImage"		"1"
		"teambg_2"		"../hud/color_panel_red"
		"teambg_3"		"../hud/color_panel_blu"
		"src_corner_height"	"23"				// pixels inside the image
		"src_corner_width"	"23"
		"draw_corner_width"	"3"				// screen size of the corners ( and sides ), proportional
		"draw_corner_height" 	"3"

	"WarningLabel"
	{	
		"ControlName"		"Label"
		"fieldName"		"WarningLabel"
		"font"			"m0refont72"
		"xpos"			"54"
		"ypos"			"17"
		"zpos"			"1"
		"wide"			"160"
		"tall"			"55"
		"autoResize"		"0"
		"pinCorner"		"0"
		"visible"		"1"
		"enabled"		"1"
		"wrap"			"1"
		"labelText"		"!"
		"textAlignment"		"north"
	}
	"BalanceLabel"
	{	
		"ControlName"		"Label"
		"fieldName"		"BalanceLabel"
		"font"			"m0refont18"
		"xpos"			"94"
		"ypos"			"29"
		"ypos_hidef"	"23"
		"ypos_lodef"	"20"
		"zpos"			"1"
		"wide"			"160"
		"tall"			"55"
		"autoResize"		"0"
		"pinCorner"		"0"
		"visible"		"1"
		"enabled"		"1"
		"wrap"			"1"
		"labelText"		""
		"textAlignment"		"west"
	}

	"BalanceLabelTip"
	{	
		"ControlName"		"Label"
		"fieldName"		"BalanceLabelTip"
		"font"			"m0refont12"
		"xpos"			"94"
		"ypos"			"48"
		"ypos_hidef"	"23"
		"ypos_lodef"	"20"
		"zpos"			"1"
		"wide"			"170"
		"tall"			"30"
		"autoResize"		"0"
		"pinCorner"		"0"
		"visible"		"1"
		"enabled"		"1"
		"wrap"			"1"
		"labelText"		"%notificationtip%"
		"textAlignment"		"west"
	}
	"SwitchImage"
	{
		"ControlName"		"CTFImagePanel"
		"fieldName"		"SwitchImage"
		"xpos"			"25"
		"ypos"			"23"
		"zpos"			"1"
		"wide"			"50"
		"tall"			"50"
		"autoResize"		"0"
		"pinCorner"		"0"
		"visible"		"0"
		"enabled"		"1"
		"image"			"../hud/ico_teambalance"
		"scaleImage"		"1"
	}
}