"Resource/UI/HudBossHealth.res"
{
	"BorderImage"
	{
		"ControlName"	"ImagePanel"
		"fieldName"		"BorderImage"	
		"xpos"			"0"
		"ypos"			"0"
		"zpos"			"5"
		"wide"			"0"
		"tall"			"50"
		"autoResize"	"0"
		"pinCorner"		"0"
		"visible"		"1"
		"enabled"		"1"
		"tabPosition"	"0"
		"image"			"../hud/halloween_bar_surround"
		"scaleImage"	"1"					
	}
	
	"Border"
	{
		"ControlName"		"ScalableImagePanel"
		"fieldName"		"Border"
		"xpos"			"14"
		"xpos_hidef"	"14"
		"ypos"			"1"
		"zpos"			"0"
		"wide"			"170"
		"tall"			"16"
		"autoResize"	"0"
		"pinCorner"		"0"
		"visible"		"1"
		"enabled"		"1"
		"image"			"../hud/color_panel_brown"
		"src_corner_height"	"56"				// pixels inside the image
		"src_corner_width"	"56"
		"draw_corner_width"	"5"				// screen size of the corners ( and sides ), proportional
		"draw_corner_height" 	"5"	
		"scaleImage"		"1"
	}

	"HealthBarPanel"
	{
		"ControlName"		"EditablePanel"
		"fieldName"			"HealthBarPanel"
		"xpos"			"15"
		"ypos"			"2"
		"zpos"			"4"
		"wide"			"168"
		"tall"			"18"
		"visible"			"1"
		"enabled"			"1"
		
		"BarImage"
		{
			"ControlName"	"ImagePanel"
			"fieldName"		"BarImage"	
			"xpos"			"0"
			"ypos"			"0"
			"zpos"			"5"
			"wide"			"168"
			"tall"			"14"
			"autoResize"	"0"
			"pinCorner"		"0"
			"visible"		"1"
			"enabled"		"1"
			"tabPosition"	"0"
			"image"			"../hud/halloween_bar"
			"scaleImage"	"1"					
		}
	}				

	"StunMeter"
	{	
		"ControlName"	"ContinuousProgressBar"
		"fieldName"		"StunMeter"
		"font"			"Default"
		"xpos"			"50"
		"ypos"			"3"
		"zpos"			"2"
		"wide"			"100"
		"tall"			"8"				
		"autoResize"	"0"
		"pinCorner"		"0"
		"visible"		"1"
		"enabled"		"1"
		"textAlignment"	"Left"
		"dulltext"		"0"
		"brighttext"	"0"
		"fgcolor_override"	"255 255 0 255"
		"bgcolor_override"	"50 0 0 255"
	}					
}
