"Resource/UI/HudCurrencyAccount.res"
{
	"Currency"
	{
		"ControlName"	"CExLabel"
		"fieldName"		"Currency"
		"font"			"HudFontSmallBold"
		"fgcolor"		"TanLight"
		"xpos"			"11"
		"ypos"			"58"
		"zpos"			"3"
		"wide"			"90"
		"tall"			"45"
		"visible"		"1"
		"enabled"		"1"
		"textAlignment"	"center"	
		"labelText"		"%currency%"
	}	
	
	"CurrencyShadow"
	{
		"ControlName"	"CExLabel"
		"fieldName"		"CurrencyShadow"
		"font"			"HudFontSmallBold"
		"fgcolor"		"Black"
		"xpos"			"12"
		"ypos"			"59"
		"zpos"			"3"
		"wide"			"90"
		"tall"			"45"
		"visible"		"1"
		"enabled"		"1"
		"textAlignment"	"center"	
		"labelText"		"%currency%"
	}	
	
	"WhiteBG"
	{
		"ControlName"	"EditablePanel"
		"fieldName"		"WhiteBG"
		"xpos"			"26"
		"ypos"			"71"
		"zpos"			"1"
		"wide"			"60"
		"tall"			"18"
		"visible"		"0"
		"enabled"		"1"
		"PaintBackgroundType"	"0"
		"bgcolor_override"	"TanLight"
	}	
	
	"GreenBG"
	{
		"ControlName"	"EditablePanel"
		"fieldName"		"WhiteBG"
		"xpos"			"27"
		"ypos"			"72"
		"zpos"			"2"
		"wide"			"58"
		"tall"			"16"
		"visible"		"0"
		"enabled"		"1"
		"PaintBackgroundType"	"0"
		"bgcolor_override"	"Red"
	}
}