"Resource/UI/HudDemomanPipes.res"
{
	"background"
	{
		"ControlName"	"CTFImagePanel"
		"fieldName"		"background"
		"xpos"			"12"
		"ypos"			"6"
		"zpos"			"0"
		"wide"			"0"
		"tall"			"0"
		"visible"		"0"
		"enabled"		"1"
		"image"			"../hud/misc_ammo_area_blue"
		"scaleImage"	"1"	
		"teambg_2"		"../hud/misc_ammo_area_red"
		"teambg_2_lodef"	"../hud/misc_ammo_area_red_lodef"
		"teambg_3"		"../hud/misc_ammo_area_blue"
		"teambg_3_lodef"	"../hud/misc_ammo_area_blue_lodef"				
	}
	
	"ChargeLabel"
	{
		"ControlName"			"CExLabel"
		"fieldName"				"ChargeLabel"
		"xpos"					"0"
		"ypos"					"0"
		"zpos"					"2"
		"wide"					"0"
		"tall"					"0"
		"autoResize"			"1"
		"pinCorner"				"2"
		"visible"				"1"
		"enabled"				"1"
		"tabPosition"			"0"
		"labelText"				"#TF_Charge"
		"textAlignment"			"center"
		"dulltext"				"0"
		"brighttext"			"0"
		"font"					"TFFontSmall"
	}

	"ChargeMeter"
	{	
		"ControlName"			"ContinuousProgressBar"
		"fieldName"				"ChargeMeter"
		"font"					"Default"
		"xpos"					"0"
		"ypos"					"18"
		"zpos"					"2"
		"wide"					"74"
		"tall"					"6"				
		"autoResize"			"0"
		"pinCorner"				"0"
		"visible"				"1"
		"enabled"				"1"
		"textAlignment"			"Left"
		"dulltext"				"0"
		"brighttext"			"0"
	}				
		
	"PipesPresentPanel"
	{
		"ControlName"	"EditablePanel"
		"fieldName"		"PipesPresentPanel"
		"xpos"			"0"
		"ypos"			"0"
		"zpos"			"1"
		"wide"			"74"
		"tall"			"50"
		"visible"		"1"
		
		"PipeIcon"
		{
			"ControlName"	"CTFImagePanel"
			"fieldName"		"PipeIcon"
			"xpos"			"26"
			"ypos"			"16"
			"wide"			"0"
			"tall"			"0"
			"visible"		"1"
			"enabled"		"1"
			"image"			"../hud/ico_stickybomb_red"
			"scaleImage"	"1"
			"teambg_2"		"../hud/ico_stickybomb_red"
			"teambg_3"		"../hud/ico_stickybomb_blue"	
		}	
		
		"NumPipesLabel"
		{
			"ControlName"	"CExLabel"
			"fieldName"		"NumPipesLabel"
			"xpos"			"0"
			"ypos"			"-2"
			"zpos"			"2"
			"wide"			"74"
			"tall"			"30"
			"tall_lodef"	"28"
			"autoResize"	"1"
			"pinCorner"		"2"
			"visible"		"1"
			"enabled"		"1"
			"tabPosition"	"0"
			"labelText"		"%activepipes%"
			"textAlignment"	"center"
			"dulltext"		"0"
			"brighttext"	"0"
			"font"			"m0refont24"
			"fgcolor" "255 255 255 255"
		}
		"NumPipesLabelDropshadow"
		{
			"ControlName"	"CExLabel"
			"fieldName"		"NumPipesLabelDropshadow"
			"xpos"			"1"
			"ypos"			"-1"
			"zpos"			"2"
			"wide"			"74"
			"tall"			"30"
			"tall_lodef"	"28"
			"autoResize"	"1"
			"pinCorner"		"2"
			"visible"		"1"
			"enabled"		"1"
			"tabPosition"	"0"
			"labelText"		"%activepipes%"
			"textAlignment"	"center"
			"dulltext"		"0"
			"brighttext"	"0"
			"font"			"m0refont24"
			"fgcolor"		"0 0 0 255"
		}		
	}
	
	"NoPipesPresentPanel"
	{
		"ControlName"	"EditablePanel"
		"fieldName"		"NoPipesPresentPanel"
		"xpos"			"0"
		"ypos"			"0"
		"zpos"			"1"
		"wide"			"0"
		"tall"			"0"
		"visible"		"1"
		
		"PipeIcon"
		{
			"ControlName"	"CTFImagePanel"
			"fieldName"		"PipeIcon"
			"xpos"			"26"
			"ypos"			"16"
			"wide"			"20"
			"tall"			"20"
			"visible"		"1"
			"enabled"		"1"
			"image"			"../hud/ico_stickybomb_red_faded"
			"scaleImage"	"1"
			"teambg_2"		"../hud/ico_stickybomb_red_faded"
			"teambg_3"		"../hud/ico_stickybomb_blue_faded"	
		}			
	}				
}
