"Resource/UI/HudHealthAccount.res"
{
	"CHealthAccountPanel"
	{
		"fieldName"				"CHealthAccountPanel"
		"delta_item_x"			"0"
		"delta_item_start_y"	"50"
		"delta_item_end_y"		"10"
		"PositiveColor"			"0 255 0 255"
		"NegativeColor"			"255 0 0 255"
		"delta_lifetime"		"0.8"
		"delta_item_font"		"m0refont26"
		"textAlignment"			"east"
	}
}