"Resource/UI/HudItemEffectMeter_Sniper.res"
{
	HudItemEffectMeter
	{
		"fieldName"		"HudItemEffectMeter"
		"visible"		"1"
		"enabled"		"1"
		"xpos"			"0"
		"ypos"			"350"
		"wide"			"f0"
		"tall"			"260"
		"MeterFG"		"White"
		"MeterBG"		"Gray"
	}
	
	"ItemEffectMeterBG"
	{
		"ControlName"	"CTFImagePanel"
		"fieldName"		"ItemEffectMeterBG"
		"xpos"			"12"
		"ypos"			"0"
		"zpos"			"0"
		"wide"			"0"
		"tall"			"0"
		"visible"		"1"
		"enabled"		"1"
		"image"			"../hud/misc_ammo_area_blue"
		"scaleImage"	"1"	
		"teambg_2"		"../hud/misc_ammo_area_red"
		"teambg_2_lodef"	"../hud/misc_ammo_area_red_lodef"
		"teambg_3"		"../hud/misc_ammo_area_blue"
		"teambg_3_lodef"	"../hud/misc_ammo_area_blue_lodef"				
	}
	
	"ItemEffectMeterLabel"
	{
		"ControlName"			"CExLabel"
		"fieldName"				"ItemEffectMeterLabel"
		"xpos"					"c166"
		"ypos"					"100"
		"zpos"					"2"
		"wide"					"50"
		"tall"					"50"
		"autoResize"			"1"
		"pinCorner"				"2"
		"visible"				"1"
		"enabled"				"1"
		"tabPosition"			"0"
		"labelText"				"#TF_Ball"
		"textAlignment"			"center"
		"dulltext"				"0"
		"brighttext"			"0"
		"font"					"TFFontSmall"
	}

	"ItemEffectMeter"
	{	
		"ControlName"			"ContinuousProgressBar"
		"fieldName"				"ItemEffectMeter"
		"font"					"Default"
		"xpos"					"0"
		"ypos"					"0"
		"zpos"					"2"
		"wide"					"70"
		"tall"					"6"				
		"autoResize"			"0"
		"pinCorner"				"0"
		"visible"				"0"
		"enabled"				"0"
		"textAlignment"			"Left"
		"dulltext"				"0"
		"brighttext"			"0"
	}					
	
	"ItemEffectMeterCount"
	{
		"ControlName"			"CExLabel"
		"fieldName"				"ItemEffectMeterCount"
		"xpos"					"c170"
		"ypos"					"90"
		"zpos"					"2"
		"wide"					"40"
		"tall"					"40"	
		"pinCorner"				"2"
		"visible"				"1"
		"enabled"				"1"
		"tabPosition"			"0"
		"labelText"				"%progresscount%"
		"textAlignment"			"center"
		"dulltext"				"0"
		"brighttext"			"0"
		"font"					"m0refont28"
		"fgcolor" "255 255 255 255"
	}
	"ItemEffectMeterCount2"
	{
		"ControlName"			"CExLabel"
		"fieldName"				"ItemEffectMeterCount2"
		"xpos"					"c171"
		"ypos"					"91"
		"zpos"					"2"
		"wide"					"40"
		"tall"					"40"	
		"pinCorner"				"2"
		"visible"				"1"
		"enabled"				"1"
		"tabPosition"			"0"
		"labelText"				"%progresscount%"
		"textAlignment"			"center"
		"dulltext"				"0"
		"brighttext"			"0"
		"font"					"m0refont28"
		"fgcolor" "0 0 0 255"
	}
}

