"Resource/UI/HudItemEffectMeter_Raygun.res"
{
	HudItemEffectMeter
	{
		"fieldName"		"HudItemEffectMeter"
		"visible"		"1"
		"enabled"		"1"
		"xpos"			"c-37"
		"ypos"			"351"
		"wide"			"74"
		"tall"			"50"
		"MeterFG"		"White"
		"MeterBG"		"Gray"
	}
	
	"ItemEffectMeterBG"
	{
		"ControlName"	"CTFImagePanel"
		"fieldName"		"ItemEffectMeterBG"
		"xpos"			"12"
		"ypos"			"6"
		"zpos"			"0"
		"wide"			"0"
		"tall"			"0"
		"visible"		"1"
		"enabled"		"1"
		"image"			"../hud/misc_ammo_area_blue"
		"scaleImage"	"1"	
		"teambg_2"		"../hud/misc_ammo_area_red"
		"teambg_2_lodef"	"../hud/misc_ammo_area_red_lodef"
		"teambg_3"		"../hud/misc_ammo_area_blue"
		"teambg_3_lodef"	"../hud/misc_ammo_area_blue_lodef"				
	}
	
	"ItemEffectMeterLabel"
	{
		"ControlName"			"Label"
		"fieldName"				"ItemEffectMeterLabel"
		"xpos"					"0"
		"ypos"					"0"
		"zpos"					"10"
		"wide"					"74" //74
		"tall"					"6"
		"autoResize"			"1"
		"pinCorner"				"2"
		"visible"				"1"
		"enabled"				"1"
		"tabPosition"			"0"
		"labelText"				"#TF_BALL"
		"textAlignment"			"center"
		"dulltext"				"0"
		"brighttext"			"0"
		"font"					"ItemEffectMeterLabels"
		"fgcolor_override"		"0 0 0 255"
	}

	"ItemEffectMeter"
	{	
		"ControlName"			"ContinuousProgressBar"
		"fieldName"				"ItemEffectMeter"
		"font"					"Default"
		"xpos"					"0"
		"ypos"					"0"
		"zpos"					"2"
		"wide"					"74"
		"tall"					"6"				
		"autoResize"			"0"
		"pinCorner"				"0"
		"visible"				"1"
		"enabled"				"1"
		"textAlignment"			"Left"
		"dulltext"				"0"
		"brighttext"			"0"
	}					
}
