"Resource/UI/HudObjectiveKothTimePanel.res"
{	
	"BlueTimer"
	{
		"ControlName"		"CTFHudTimeStatus"
		"fieldName"			"BlueTimer"
		"xpos"				"0"
		"ypos"				"0"
		"zpos"				"2"
		"wide"				"100"
		"tall"				"50"
		"visible"			"1"
		"enabled"			"1"
		
		"TimePanelValue"
		{
			"ControlName"		"CExLabel"
			"fieldName"		"TimePanelValue"
			"font"			"m0refont14"
			"fgcolor"		"255 255 255 255"
			"xpos"			"0"
			"ypos"			"0"
			"zpos"			"3"
			"wide"			"100"
			"tall"			"11"
			"visible"		"1"
			"enabled"		"1"
			"textAlignment"		"center"
			"labelText"		"0:00"
		}	
	}

	"RedTimer"
	{
		"ControlName"		"CTFHudTimeStatus"
		"fieldName"			"RedTimer"
		"xpos"				"100"
		"ypos"				"0"
		"zpos"				"2"
		"wide"				"100"
		"tall"				"50"
		"visible"			"1"
		"enabled"			"1"
		
		"TimePanelValue"
		{
			"ControlName"		"CExLabel"
			"fieldName"		"TimePanelValue"
			"font"			"m0refont14"
			"fgcolor"		"255 255 255 255"
			"xpos"			"0"
			"ypos"			"0"
			"zpos"			"3"
			"wide"			"100"
			"tall"			"11"
			"visible"		"1"
			"enabled"		"1"
			"textAlignment"		"center"
			"labelText"		"0:00"
		}	
	}
	
	"ActiveTimerBG"
	{
		"ControlName"		"ImagePanel"
		"fieldName"			"ActiveTimerBG"
		"xpos"				"0"
		"ypos"				"9"
		"zpos"				"1"
		"wide"				"0"
		"tall"				"33"
		"visible"			"0"
		"enabled"			"1"
		"image"				"../hud/objectives_timepanel_active_bg"	
		"scaleImage"		"1"	
	}
}
