"Resource/UI/HudPlayerHealth.res"
{	
	// player health data
	"HudPlayerHealth"
	{
		"ControlName"	"EditablePanel"
		"fieldName"		"HudPlayerHealth"
		"xpos"			"c-226"
		"ypos"			"r160"
		"zpos"			"2"
		"wide"			"250"
		"tall"			"150"
		"visible"		"1"
		"enabled"		"1"	
		"HealthBonusPosAdj"	"35"
		"HealthDeathWarning"	"0.49"
		"HealthDeathWarningColor"	"HUDDeathWarning"
	}	
	"PlayerStatusHealthImage"
	{
		"ControlName"	"ImagePanel"
		"fieldName"		"PlayerStatusHealthImage"
		"xpos"			"60"
		"ypos"			"35"
		"zpos"			"4"
		"wide"			"0"
		"tall"			"0"
		"visible"		"1"
		"enabled"		"1"
		"scaleImage"	"1"	
	}		
	"PlayerStatusHealthImageBG"
	{
		"ControlName"	"ImagePanel"
		"fieldName"		"PlayerStatusHealthImageBG"
		"xpos"			"9001"
		"ypos"			"33"
		"zpos"			"3"
		"wide"			"64"
		"tall"			"64"
		"visible"		"1"
		"enabled"		"1"
		"image"			"../hud/health_bg"
		"scaleImage"	"1"	
	}	
	"PlayerStatusHealthBonusImage"
	{
		"ControlName"	"ImagePanel"
		"fieldName"		"PlayerStatusHealthBonusImage"
		"xpos"			"32"
		"ypos"			"32"
		"zpos"			"-4"
		"wide"			"66"
		"tall"			"66"
		"visible"		"0"
		"enabled"		"1"
		"image"			"../hud/health_over_bg"
		"scaleImage"	"1"	
	}
	"PlayerStatusHealthValue"
	{
		"ControlName"	"CExLabel"
		"fieldName"		"PlayerStatusHealthValue"
		"xpos"			"-10"
		"ypos"			"10"
		"zpos"			"5"
		"wide"			"150"
		"tall"			"100"
		"visible"			"0"
		"enabled"			"0"
		"labelText"		"%Health%"
		"textAlignment"	"center"	
		"font"			"m0refont72"
		"fgcolor"		"HP"
	}
	"PlayerStatusHealthValue_minmode_old"
	{
		"ControlName"	"CExLabel"
		"fieldName"		"PlayerStatusHealthValue_minmode_old"
		"xpos"			"-10"
		"ypos"			"10"
		"zpos"			"5"
		"wide"			"150"
		"tall"			"100"
		"visible"			"1"
		"enabled"			"1"
		"labelText"		"%Health%"
		"textAlignment"	"center"	
		"font"			"m0refont72"
		"fgcolor"		"HP"
	}	
	"PlayerStatusHealthValue2"
	{
		"ControlName"	"CExLabel"
		"fieldName"		"PlayerStatusHealthValue2"
		"xpos"			"-9"
		"ypos"			"11"
		"zpos"			"5"
		"wide"			"150"
		"tall"			"100"
		"visible"		"1"
		"enabled"		"1"
		"labelText"		"%Health%"
		"textAlignment"	"center"	
		"font"			"m0refont72"
		"fgcolor"		"0 0 0 255"
	}								
	"PlayerStatusHealthValue3"
	{
		"ControlName"	"CExLabel"
		"fieldName"		"PlayerStatusHealthValue2"
		"xpos"			"-8"
		"ypos"			"12"
		"zpos"			"5"
		"wide"			"150"
		"tall"			"100"
		"visible"		"1"
		"enabled"		"1"
		"labelText"		"%Health%"
		"textAlignment"	"center"	
		"font"			"m0refont72"
		"fgcolor"		"0 0 0 255"
	}	
	"PlayerStatusBleedImage"
	{
		"ControlName"	"ImagePanel"
		"fieldName"		"PlayerStatusBleedImage"
		"xpos"			"106"
		"ypos"			"54"
		"zpos"			"7"
		"wide"			"0"	//18
		"tall"			"18"
		"visible"		"1"
		"enabled"		"1"
		"scaleImage"	"1"	
		"image"			"../vgui/bleed_drop"
		"fgcolor"		"TanDark"
	}	
	"PlayerStatusMilkImage"
	{
		"ControlName"	"ImagePanel"
		"fieldName"		"PlayerStatusMilkImage"
		"xpos"			"106"
		"ypos"			"54"
		"zpos"			"7"
		"wide"			"18"	//18
		"tall"			"18"
		"visible"		"1"
		"enabled"		"1"
		"scaleImage"	"1"	
		"image"			"../vgui/bleed_drop"
		"fgcolor"		"TanDark"
	}
	"PlayerStatusMarkedForDeathImage"
	{
		"ControlName"	"ImagePanel"
		"fieldName"		"PlayerStatusMarkedForDeathImage"
		"xpos"			"85"
		"ypos"			"0"
		"zpos"			"7"
		"wide"			"32"
		"tall"			"32"
		"visible"		"1"
		"enabled"		"1"
		"scaleImage"	"1"	
		"image"			"../vgui/marked_for_death"
		"fgcolor"		"TanDark"
	}
	"PlayerStatusMarkedForDeathSilentImage"
	{
		"ControlName"	"ImagePanel"
		"fieldName"		"PlayerStatusMarkedForDeathSilentImage"
		"xpos"			"85"
		"ypos"			"0"
		"zpos"			"7"
		"wide"			"31"
		"tall"			"31"
		"visible"		"1"
		"enabled"		"1"
		"scaleImage"	"1"	
		"image"			"../hud/ico_demolish"
		"fgcolor"		"TanDark"
	}
	"PlayerStatus_WheelOfDoom"
	{
		"ControlName"	"ImagePanel"
		"fieldName"		"PlayerStatus_WheelOfDoom"
		"xpos"			"130"
		"ypos"			"5"
		"zpos"			"7"
		"wide"			"32"
		"tall"			"32"
		"visible"		"1"
		"enabled"		"1"
		"scaleImage"	"1"	
		"image"			"../signs/death_wheel_whammy"
		"fgcolor"		"255 255 255 255"
	}
}