"Resource/UI/HudTournamentSetup.res"
{
	"HudTournamentSetupBG"
	{
		"ControlName"		"ScalableImagePanel"
		"fieldName"		"HudTournamentSetupBG"
		"xpos"			"25"
		"ypos"			"0"
		"zpos"			"-1"
		"wide"			"130"
		"tall"			"35"
		"autoResize"		"0"
		"pinCorner"		"0"
		"visible"		"1"
		"enabled"		"1"
		"image"			"../hud/color_panel_brown"


		"src_corner_height"	"23"				// pixels inside the image
		"src_corner_width"	"23"
		
		"draw_corner_width"	"3"				// screen size of the corners ( and sides ), proportional
		"draw_corner_height" 	"3"	
	}

	"TournamentSetupLabel"
	{	
		"ControlName"		"Label"
		"fieldName"		"TournamenteLabel"
		"font"			"m0refont10"
		"xpos"			"8"
		"ypos"			"0"
		"zpos"			"1"
		"wide"			"0"
		"tall"			"0"
		"autoResize"		"0"
		"pinCorner"		"0"
		"visible"		"1"
		"enabled"		"1"
		"wrap"			"0"
		"labelText"		"%tournamentstatelabel%"
		"textAlignment"		"west"
	}

	"TournamentTeamNameLabel"
	{	
		"ControlName"		"Label"
		"fieldName"		"TournamentTeamNameLabel"
		"font"			"m0refont10"
		"xpos"			"99"
		"ypos"			"4"
		"zpos"			"1"
		"wide"			"74"
		"tall"			"10"
		"autoResize"		"0"
		"pinCorner"		"0"
		"visible"		"1"
		"enabled"		"1"
		"wrap"			"0"
		"labelText"		"#Tournament_TeamNamePanel"
		"textAlignment"		"west"
	}

	"TournamentNameEdit"
	{
		"ControlName"		"TextEntry"
		"fieldName"		"TournamentNameEdit"
		"xpos"		"36"
		"ypos"		"4"
		"wide"		"58"
		"tall"		"10"
		"autoResize"		"0"
		"pinCorner"		"0"
		"visible"		"1"
		"enabled"		"1"
		"tabPosition"		"0"
		"textHidden"		"0"
		"editable"		"1"
		"maxchars"		"6"
		"NumericInputOnly"	"0"
		"unicode"		"0"
		"wrap"			"0"
		"fgcolor_override"		"235 226 202 255"
		"bgcolor_override"	"0 0 0 255"
		"labelText"		"%teamname%"
		"textAlignment"		"west"
	}

	"TournamentNotReadyButton"
	{
		"ControlName"	"CTFButton"
		"fieldName"		"TournamentNotReadyButton"
		"xpos"		"36"
		"ypos"		"18"
		"wide"		"50"
		"tall"		"10"
		"zpos"		"0"
		"autoResize"	"0"
		"pinCorner"		"2"
		"visible"		"1"
		"enabled"		"1"
		"labelText"		"Not Ready"
		"textAlignment"	"center"
		"dulltext"		"0"
		"brighttext"	"0"
		"command"		"teamnotready"
		"default"		"1"
		"font"			"m0refont10"
		"fgcolor"		"Red"
	}

	"TournamentReadyButton"
	{
		"ControlName"	"CTFButton"
		"fieldName"		"TournamentReadyButton"
		"xpos"		"92"
		"ypos"		"18"
		"wide"		"50"
		"tall"		"10"
		"zpos"		"0"
		"autoResize"	"0"
		"pinCorner"		"2"
		"visible"		"1"
		"enabled"		"1"
		"labelText"		"Ready"
		"textAlignment"	"center"
		"dulltext"		"0"
		"brighttext"	"0"
		"command"		"teamready" 
		"default"		"1"
		"font"			"m0refont10"
		"fgcolor"		"FooterBGBlack"
	}
}
