"Resource/UI/HudTournamentSetup.res"
{
	"HudTournamentSetupBG"
	{
		"ControlName"		"ScalableImagePanel"
		"fieldName"		"HudTournamentSetupBG"
		"xpos"			"39"
		"ypos"			"1"
		"zpos"			"-1"
		"wide"			"103"
		"tall"			"46"
		"autoResize"		"0"
		"pinCorner"		"0"
		"visible"		"1"
		"enabled"		"1"
		"image"			"../hud/color_panel_brown"


		"src_corner_height"	"23"				// pixels inside the image
		"src_corner_width"	"23"
		
		"draw_corner_width"	"3"				// screen size of the corners ( and sides ), proportional
		"draw_corner_height" 	"3"	
	}
	"TournamentSetupLabel"
	{	
		"ControlName"		"CExLabel"
		"fieldName"		"TournamenteLabel"
		"font"			"m0refont10"
		"xpos"			"40"
		"ypos"			"0"
		"zpos"			"1"
		"wide"			"100"
		"tall"			"18"
		"autoResize"		"0"
		"pinCorner"		"0"
		"visible"		"1"
		"enabled"		"1"
		"wrap"			"0"
		"fgcolor"			"White"
		"labelText"		"%tournamentstatelabel%"
		"textAlignment"		"center"
	}
	"SetupBG"
	{
		"controlName"	"CTFImagePanel"
		"fieldName"		"SetupBG"
		"image"		"../hud/color_panel_brown"
		"xpos"			"40"
		"ypos"			"2"
		"zpos"			"-1"
		"wide"			"100"
		"tall"			"15"
		"autoResize"		"0"
		"pinCorner"		"0"
		"visible"		"1"
		"enabled"		"1"
		"scaleImage"			"1"
		"teambg_1"		"../hud/color_panel_brown"
		"teambg_2"		"../hud/color_panel_red"
		"teambg_2_lodef"	"../hud/color_panel_red"
		"teambg_3"		"../hud/color_panel_blu"
		"teambg_3_lodef"	"../hud/color_panel_blu"
		"src_corner_height"		"23"				// pixels inside the image
		"src_corner_width"		"23"
			
		"draw_corner_width"		"0"				// screen size of the corners ( and sides ), proportional
		"draw_corner_height" 	"0"
	}
	"TournamentTeamNameLabel"
	{	
		"ControlName"		"CExLabel"
		"fieldName"		"TournamentTeamNameLabel"
		"font"			"m0refont10"
		"xpos"			"87"
		"ypos"			"28"
		"zpos"			"1"
		"wide"			"0"
		"tall"			"18"
		"autoResize"		"0"
		"pinCorner"		"0"
		"visible"		"1"
		"enabled"		"1"
		"wrap"			"0"
		"labelText"		"#Tournament_TeamNamePanel"
		"textAlignment"		"west"
	}

	"TournamentNameEdit"
	{
		"ControlName"		"TextEntry"
		"fieldName"		"TournamentNameEdit"
		"xpos"		"43"
		"ypos"		"18"
		"wide"		"55"
		"tall"		"12"
		"autoResize"		"0"
		"pinCorner"		"0"
		"visible"		"1"
		"enabled"		"1"
		"tabPosition"		"0"
		"textHidden"		"0"
		"editable"		"1"
		"maxchars"		"6"
		"NumericInputOnly"	"0"
		"fgcolor_override"		"255 255 255 255"
		"bgcolor_override"	"Blank"
		"labelText"		"%teamname%"
		"textAlignment"		"west"
	}

	"TournamentBG"
	{
		"ControlName"		"ImagePanel"
		"fieldName"		"TournamentBG"
		"xpos"		"40"
		"ypos"		"0"
		"wide"		"100"
		"tall"		"40"
		"zpos"		"-2"
		"autoResize"	"0"
		"pinCorner"	"0"
		"visible"	"0"
		"enabled"	"1"
		"fillcolor"	"0 0 0 175"
		"image"			"../HUD/tournament_panel_brown"
	}

	"TournamentNotReadyBG"
	{
		"ControlName"		"ImagePanel"
		"fieldName"		"TournamentNotReadyBG"
		"xpos"			"40"
		"ypos"			"32"
		"zpos"			"0"
		"wide"			"50"
		"tall"			"13"
		"fillcolor"		"161 54 53 255"
		"autoResize"		"0"
		"pinCorner"		"0"
		"visible"		"1"
		"enabled"		"1"
	}
	"TournamentNotReadyButton"
	{
		"ControlName"	"CTFButton"
		"fieldName"		"TournamentNotReadyButton"
		"xpos"		"40"
		"ypos"		"31"
		"wide"		"50"
		"tall"		"14"
		"zpos"		"2"
		"autoResize"	"0"
		"pinCorner"		"2"
		"visible"		"1"
		"enabled"		"1"
		"labelText"		"Not Ready"
		"textAlignment"	"center"
		"dulltext"		"0"
		"brighttext"	"0"
		"command"		"teamnotready"
		"default"		"1"
		"font"		"m0refont10"
		"fgcolor"		"White"

		"border_default"	""
		"border_armed"		""
		"paintbackground"	"0"
			
		"defaultFgColor_override" "White"
		"armedFgColor_override" "Black"
		"depressedFgColor_override" "Black"
	}

	"TournamentReadyBG"
	{
		"ControlName"		"ImagePanel"
		"fieldName"		"TournamentReadyBG"
		"xpos"			"90"
		"ypos"			"32"
		"zpos"			"0"
		"wide"			"50"
		"tall"			"13"
		"fillcolor"		"90 144 46 255"
		"autoResize"		"0"
		"pinCorner"		"0"
		"visible"		"1"
		"enabled"		"1"
	}
	"TournamentReadyButton"
	{
		"ControlName"	"CTFButton"
		"fieldName"		"TournamentReadyButton"
		"xpos"		"90"
		"ypos"		"31"
		"wide"		"50"
		"tall"		"14"
		"zpos"		"2"
		"autoResize"	"0"
		"pinCorner"		"2"
		"visible"		"1"
		"enabled"		"1"
		"labelText"		"Ready"
		"textAlignment"	"center"
		"dulltext"		"0"
		"brighttext"	"0"
		"command"		"teamready" 
		"default"		"1"
		"font"		"m0refont10"
		"fgcolor"		"White"

		"border_default"	""
		"border_armed"		""
		"paintbackground"	"0"
			
		"defaultFgColor_override" "White"
		"armedFgColor_override" "Black"
		"depressedFgColor_override" "Black"
	}
}
