"Resource/UI/HudTournament.res"
{
	HudTournament
	{
		"ControlName"		"EditablePanel"
		"fieldName"				"HudTournament"
				
		"xpos"					"c-125"
		"ypos"					"0"
		"wide"					"250"
		"tall"					"480"

		"team1_player_base_offset_x"		"-75"
		"team1_player_base_y"				"0"
		"team1_player_delta_x"				"-47"
		"team1_player_delta_y"				"0"
		"team2_player_base_offset_x"		"25"
		"team2_player_base_y"				"0"
		"team2_player_delta_x"				"47"
		"team2_player_delta_y"				"0"
		
		"playerpanels_kv"
		{
			"visible"		"0"
			"wide"			"50"
			"tall"			"33"
			"zpos"			"1"
			
			"color_ready"	"0 255 0 220"
			"color_notready"	"0 0 0 220"
										  			
			"playername"
			{
				"ControlName"	"CExLabel"
				"fieldName"		"playername"
				"font"			"DefaultVerySmall"
				"xpos"			"5"
				"ypos"			"24"
				"zpos"			"5"
				"wide"			"50"
				"tall"			"8"
				"autoResize"	"0"
				"pinCorner"		"0"
				"visible"		"1"
				"labelText"		"%playername%"
				"textAlignment"	"north-west"
				//"fgcolor"		"235 226 202 255"
					
				if_mvm
				{
					"xpos"				"4"
					"ypos"				"25"
					"wide"			"48"
					"textAlignment"		"center"
					"font"				"PlayerPanelPlayerName"
				}
			}
			
			"classimage"
			{
				"ControlName"	"CTFClassImage"
				"fieldName"		"classimage"
				"xpos"			"2"
				"ypos"			"2"
				"zpos"			"2"
				"wide"			"22"
				"tall"			"22"
				"visible"		"1"
				"enabled"		"1"
				"image"			"../hud/class_scoutred"
				"scaleImage"	"1"	
				
				if_mvm
				{
					"xpos"			"5"
					"ypos"			"4"
					"wide"			"20"
					"tall"			"20"
					"image"			"../vgui/hud_connecting"
				}
			}
			
			"classimagebg"
			{
				"ControlName"		"Panel"
				"fieldName"		"classimagebg"
				"xpos"			"5"
				"ypos"			"4"
				"zpos"			"2"
				"wide"			"20"
				"tall"			"20"
				"visible"		"0"
				"enabled"		"1"
				"bgcolor_override"		"Black"
				"PaintBackgroundType"	"0"
				
				if_mvm
				{
					"visible"		"1"
				}
			}
			
			"HealthIcon"
			{
				"ControlName"		"EditablePanel"
				"fieldName"			"HealthIcon"
				"xpos"				"22"
				"ypos"				"-3"
				"zpos"				"3"
				"wide"				"32"
				"tall"				"32"
				"visible"			"1"
				"enabled"			"1"	
				"HealthBonusPosAdj"	"10"
				"HealthDeathWarning"		"0.49"
				"TFFont"					"HudFontSmallest"
				"HealthDeathWarningColor"	"HUDDeathWarning"
				"TextColor"					"HudOffWhite"
			}
			
			"ReadyBG"
			{
				"ControlName"		"ScalableImagePanel"
				"fieldName"		"ReadyBG"
				"xpos"			"30"
				"ypos"			"6"
				"zpos"			"-1"
				"wide"			"16"
				"tall"			"16"
				"autoResize"	"0"
				"pinCorner"		"0"
				"visible"		"0"
				"enabled"		"1"
				"image"			"../HUD/tournament_panel_brown"

				"src_corner_height"	"22"				// pixels inside the image
				"src_corner_width"	"22"
			
				"draw_corner_width"	"3"				// screen size of the corners ( and sides ), proportional
				"draw_corner_height" 	"3"
				
				if_mvm
				{
					"visible"		"1"
				}	
			}
			
			"ReadyImage"
			{
				"ControlName"		"ImagePanel"
				"fieldName"		"ReadyImage"
				"xpos"			"32"
				"ypos"			"8"
				"zpos"			"0"
				"wide"			"12"
				"tall"			"12"
				"autoResize"	"0"
				"pinCorner"		"0"
				"visible"		"0"
				"enabled"		"1"
				"image"			"hud/checkmark"
				"scaleImage"		"1"

				if_mvm
				{
					"visible"		"1"
				}
			}
			
			"respawntime"
			{
				"ControlName"	"CExLabel"
				"fieldName"		"respawntime"
				"font"			"DefaultSmall"
				"xpos"			"30"
				"ypos"			"18"
				"zpos"			"5"
				"wide"			"23"
				"tall"			"10"
				"autoResize"	"0"
				"pinCorner"		"0"
				"visible"		"1"
				"labelText"		"%respawntime%"
				"textAlignment"	"west"
				//"fgcolor"		"235 226 202 255"
			}
			
			"chargeamount"
			{
				"ControlName"	"CExLabel"
				"fieldName"		"chargeamount"
				"font"			"DefaultSmall"
				"xpos"			"25"
				"ypos"			"17"
				"zpos"			"6"
				"wide"			"25"
				"tall"			"15"
				"autoResize"	"0"
				"pinCorner"		"0"
				"visible"		"1"
				"labelText"		"%chargeamount%"
				"textAlignment"	"north"
				"fgcolor"		"0 255 0 255"
				
				if_mvm
				{	
					"visible"		"0"
				}
			}
			
			"specindex"
			{
				"ControlName"	"CExLabel"
				"fieldName"		"specindex"
				"font"			"DefaultVerySmall"
				"xpos"			"4"
				"ypos"			"2"
				"zpos"			"5"
				"wide"			"50"
				"tall"			"8"
				"autoResize"	"0"
				"pinCorner"		"0"
				"visible"		"1"
				"labelText"		"%specindex%"
				"textAlignment"	"north-west"
				//"fgcolor"		"235 226 202 255"
			}
			
			if_mvm
			{
				"wide"		"55"
				"tall"		"35"
			}
		}
		
		if_mvm
		{
			"xpos"					"c-250"
			"ypos"					"0"
			"wide"					"500"
			"tall"					"480"

			"team1_player_base_y"			"66"
			"team2_player_delta_x"			"52"
		}		
	}

	"HudTournamentBG"
	{
		"ControlName"		"ScalableImagePanel"
		"fieldName"		"HudTournamentBG"
		"xpos"			"35"
		"ypos"			"3"
		"zpos"			"-1"
		"wide"			"180"
		"tall"			"35"
		"autoResize"		"0"
		"pinCorner"		"0"
		"visible"		"1"
		"enabled"		"1"
		"image"			"../hud/color_panel_brown"
		//"fillcolor"		"255 255 255 0"


		"src_corner_height"	"23"				// pixels inside the image
		"src_corner_width"	"23"
		
		"draw_corner_width"	"3"				// screen size of the corners ( and sides ), proportional
		"draw_corner_height" 	"3"	

		if_mvm
		{
			"visible"		"0"
		}
	}

	"TournamentLabel"
	{	
		"ControlName"		"Label"
		"fieldName"		"TournamentLabel"
		"font"			"m0refont10"
		"xpos"			"8"
		"ypos"			"9"
		"zpos"			"1"
		"wide"			"0"
		"tall"			"0"
		"autoResize"		"0"
		"pinCorner"		"0"
		"visible"		"1"
		"enabled"		"1"
		"wrap"			"0"
		"labelText"		"%tournamentstatelabel%"
		"textAlignment"		"north-west"

		if_mvm
		{
			"visible"		"0"
		}
	}

	"HudTournamentBLUEBG"
	{
		"ControlName"		"ScalableImagePanel"
		"fieldName"		"HudTournamentBLUEBG"
		"xpos"			"36"
		"ypos"			"4"
		"zpos"			"-1"
		"wide"			"89"
		"tall"			"15"
		"autoResize"		"0"
		"pinCorner"		"0"
		"visible"		"1"
		"enabled"		"1"
		"image"			"../HUD/color_panel_blu"

		"src_corner_height"	"23"				// pixels inside the image
		"src_corner_width"	"23"
		
		"draw_corner_width"	"0"				// screen size of the corners ( and sides ), proportional
		"draw_corner_height" 	"0"

		if_mvm
		{
			"visible"		"0"
		}
	}
	"TournamentBLUELabel"
	{	
		"ControlName"		"Label"
		"fieldName"		"TournamentBLUELabel"
		"font"			"m0refont10"
		"xpos"			"39"
		"ypos"			"5"
		"zpos"			"1"
		"wide"			"65"
		"tall"			"15"
		"autoResize"		"0"
		"pinCorner"		"0"
		"visible"		"1"
		"enabled"		"1"
		"wrap"			"0"
		"labelText"		"%bluenamelabel%"
		"textAlignment"		"west"

		if_mvm
		{
			"visible"		"0"
		}
	}
	"TournamentBLUEStateLabel"
	{	
		"ControlName"		"Label"
		"fieldName"		"TournamentBLUEStateLabel"
		"font"			"m0refont10"
		"xpos"			"57"
		"ypos"			"5"
		"zpos"			"1"
		"wide"			"65"
		"tall"			"15"
		"autoResize"		"0"
		"pinCorner"		"0"
		"visible"		"1"
		"enabled"		"1"
		"wrap"			"0"
		"labelText"		"%bluestate%"
		"textAlignment"		"east"

		if_mvm
		{
			"visible"		"0"
		}
	}

	"HudTournamentREDBG"
	{
		"ControlName"		"ScalableImagePanel"
		"fieldName"		"HudTournamentREDBG"
		"xpos"			"125"
		"ypos"			"4"
		"zpos"			"-1"
		"wide"			"89"
		"tall"			"15"
		"autoResize"		"0"
		"pinCorner"		"0"
		"visible"		"1"
		"enabled"		"1"
		"image"			"../HUD/color_panel_red"

		"src_corner_height"	"23"				// pixels inside the image
		"src_corner_width"	"23"
		
		"draw_corner_width"	"0"				// screen size of the corners ( and sides ), proportional
		"draw_corner_height" 	"0"	

		if_mvm
		{
			"visible"		"0"
		}
	}
	"TournamentREDLabel"
	{	
		"ControlName"		"Label"
		"fieldName"		"TournamentREDLabel"
		"font"			"m0refont10"
		"xpos"			"146"
		"ypos"			"5"
		"zpos"			"1"
		"wide"			"65"
		"tall"			"15"
		"autoResize"		"0"
		"pinCorner"		"0"
		"visible"		"1"
		"enabled"		"1"
		"wrap"			"0"
		"labelText"		"%rednamelabel%"
		"textAlignment"		"east"

		if_mvm
		{
			"visible"		"0"
		}
	}
	"TournamentREDStateLabel"
	{	
		"ControlName"		"Label"
		"fieldName"		"TournamentREDStateLabel"
		"font"			"m0refont10"
		"xpos"			"128"
		"ypos"			"5"
		"zpos"			"1"
		"wide"			"65"
		"tall"			"15"
		"autoResize"		"0"
		"pinCorner"		"0"
		"visible"		"1"
		"enabled"		"1"
		"wrap"			"0"
		"labelText"		"%redstate%"
		"textAlignment"		"west"

		if_mvm
		{
			"visible"		"0"
		}
	}
	"TournamentConditionBG"
	{
		"ControlName"		"ScalableImagePanel"
		"fieldName"		"TournamentConditionBG"
		"xpos"			"40"
		"ypos"			"33"
		"zpos"			"-1"
		"wide"			"169"
		"tall"			"15"
		"visible"		"0"
		"enabled"		"0"
		"image"			"../HUD/color_panel_brown"
		"src_corner_height"	"23"				// pixels inside the image
		"src_corner_width"	"23"
		
		"draw_corner_width"	"3"				// screen size of the corners ( and sides ), proportional
		"draw_corner_height" 	"3"
		"scaleImage"		"1"

		if_mvm
		{
			"visible"		"0"
		}	
	}
	"TournamentConditionLabel"
	{	
		"ControlName"		"CExLabel"
		"fieldName"		"TournamentConditionLabel"
		"font"			"m0refont10"
		"fgcolor"		"TanLight"
		"xpos"			"0"
		"ypos"			"10"
		"zpos"			"1"
		"wide"			"250"
		"tall"			"35"
		"autoResize"		"0"
		"pinCorner"		"0"
		"visible"		"1"
		"enabled"		"1"
		"wrap"			"0"
		"labelText"		"%winconditions%"
		"textAlignment"		"center"

		if_mvm
		{
			"visible"		"0"
		}
	}

	"HudTournamentBGHelp"
	{
		"ControlName"		"ScalableImagePanel"
		"fieldName"		"HudTournamentBGHelp"
		"xpos"			"0"
		"ypos"			"51"
		"zpos"			"-1"
		"wide"			"0"
		"tall"			"0"
		"autoResize"		"0"
		"pinCorner"		"0"
		"visible"		"1"
		"enabled"		"1"
		"image"			"../HUD/tournament_panel_brown"


		"src_corner_height"	"23"				// pixels inside the image
		"src_corner_width"	"23"
		
		"draw_corner_width"	"8"				// screen size of the corners ( and sides ), proportional
		"draw_corner_height" 	"8"	

		if_mvm
		{
			"visible"		"0"
		}
	}
	"TournamentInstructionsLabel"
	{	
		"ControlName"		"Label"
		"fieldName"		"TournamentInstructionsLabel"
		"font"			"TFFontSmall"
		"xpos"			"0"
		"ypos"			"54"
		"wide"			"0"
		"tall"			"0"
		"zpos"			"1"
		"autoResize"		"1"
		"pinCorner"		"0"
		"visible"		"1"
		"enabled"		"1"
		"wrap"			"0"
		"labelText"		"%readylabel%"
		"textAlignment"		"center"

		if_mvm
		{
			"font"			"HudFontSmallishBold"
			"xpos"			"155"
			"ypos"			"105"
			"wide"			"190"
			"tall"			"12"
			"zpos"			"3"
		}
	}
	
	"TournamentInstructionsLabelShadow"
	{	
		"ControlName"		"CExLabel"
		"fieldName"			"TournamentInstructionsLabelShadow"
		"font"			"TFFontSmall"
		"xpos"			"0"
		"ypos"			"54"
		"wide"			"250"
		"tall"			"10"
		"zpos"			"2"
		"autoResize"		"1"
		"pinCorner"		"0"
		"visible"		"0"
		"enabled"		"1"
		"wrap"			"0"
		"labelText"		"%readylabel%"
		"textAlignment"		"center"
		
		if_mvm
		{
			"font"			"HudFontSmallishBold"
			"xpos"			"156"
			"ypos"			"106"
			"wide"			"190"
			"tall"			"12"
			"visible"		"1"
			"fgcolor"		"Black"
		}
	}
	
	"CountdownBG"
	{
		"ControlName"		"ScalableImagePanel"
		"fieldName"		"CountdownBG"
		"xpos"			"230"
		"ypos"			"r55"
		"zpos"			"-1"
		"wide"			"40"
		"tall"			"40"
		"autoResize"		"0"
		"pinCorner"		"0"
		"visible"		"0"
		"enabled"		"1"
		"image"			"../HUD/color_panel_red"

		"src_corner_height"	"23"				// pixels inside the image
		"src_corner_width"	"23"
		
		"draw_corner_width"	"3"				// screen size of the corners ( and sides ), proportional
		"draw_corner_height" 	"3"	
	}

	"CountdownLabel"
	{	
		"ControlName"		"CExLabel"
		"fieldName"		"CountdownLabel"
		"font"			"HudFontGiant"
		"xpos"			"230"
		"ypos"			"r55"
		"wide"			"40"
		"tall"			"40"
		"zpos"			"1"
		"autoResize"		"0"
		"pinCorner"		"0"
		"visible"		"0"
		"enabled"		"1"
		"wrap"			"0"
		"labelText"		"%tournamentstatelabel%"
		"textAlignment"		"center"
	}
	
	"CountdownLabelShadow"
	{	
		"ControlName"		"CExLabel"
		"fieldName"		"CountdownLabelShadow"
		"font"			"HudFontGiant"
		"xpos"			"231"
		"ypos"			"r54"
		"wide"			"40"
		"tall"			"40"
		"zpos"			"1"
		"autoResize"		"0"
		"pinCorner"		"0"
		"visible"		"0"
		"enabled"		"1"
		"wrap"			"0"
		"labelText"		"%tournamentstatelabel%"
		"textAlignment"		"center"
		"fgcolor"		"Black"
	}
}
