"Resource/UI/HudTeamGoal.res"
{
	"HudTeamGoalBG"
	{
		"ControlName"		"CTFImagePanel"
		"fieldName"		"HudTeamGoalBG"
		"xpos"			"-999"
		"ypos"			"-999"
		"zpos"			"-1"
		"wide"			"0"
		"tall"			"0"
		"visible"		"0"
		"enabled"		"0"
		"image"			"../hud/death_panel_blue_bg"
		"scaleImage"		"1"
		"teambg_2"		"../hud/death_panel_red_bg"
		"teambg_3"		"../hud/death_panel_blue_bg"
	}
	"SwitchLabel"
	{	
		"ControlName"		"Label"
		"fieldName"		"SwitchLabel"
		"font"			"HudFontSmallBold"
		"xpos"			"-999"
		"ypos"			"-999"
		"zpos"			"-1"
		"wide"			"0"
		"tall"			"0"
		"visible"		"0"
		"enabled"		"0"
		"wrap"			"1"
		"labelText"		"#TF_teamswitch_attackers"
		"textAlignment"		"North"
	}
	"GoalLabel"
	{	
		"ControlName"		"Label"
		"fieldName"		"GoalLabel"
		"font"			"HudFontSmall"
		"xpos"			"-999"
		"ypos"			"-999"
		"zpos"			"-1"
		"wide"			"0"
		"tall"			"0"
		"visible"		"0"
		"enabled"		"0"
		"wrap"			"1"
		"labelText"		""
		"textAlignment"		"North"
	}
	"GoalImage"
	{
		"ControlName"		"CTFImagePanel"
		"fieldName"		"GoalImage"
		"xpos"			"-999"
		"ypos"			"-999"
		"zpos"			"-1"
		"wide"			"0"
		"tall"			"0"
		"visible"		"0"
		"enabled"		"0"
		"image"			"../hud/hud_icon_attack"
		"scaleImage"		"1"
	}

	"HudStopWatchObjective"
	{
		"ControlName"		"EditablePanel"
		"fieldName"			"HudStopWatchObjective"
		"xpos"			"-999"
		"ypos"			"-999"
		"zpos"			"-1"
		"wide"			"0"
		"tall"			"0"
		"visible"		"0"
		"enabled"		"0"

		"HudStopWatchObjectiveBG"
		{
			"ControlName"		"ScalableImagePanel"
			"fieldName"		"HudStopWatchObjectiveBG"
		"xpos"			"-999"
		"ypos"			"-999"
		"zpos"			"-1"
		"wide"			"0"
		"tall"			"0"
		"visible"		"0"
		"enabled"		"0"
			"image"			"../HUD/color_panel_browner"
	
	
			"src_corner_height"	"23"				// pixels inside the image
			"src_corner_width"	"23"
		
			"draw_corner_width"	"7"				// screen size of the corners ( and sides ), proportional
			"draw_corner_height" 	"7"	
		}
		"HudStopWatchObjectiveBGSmall"
		{
			"ControlName"		"ScalableImagePanel"
			"fieldName"		"HudStopWatchObjectiveBGSmall"
		"xpos"			"-999"
		"ypos"			"-999"
		"zpos"			"-1"
		"wide"			"0"
		"tall"			"0"
		"visible"		"0"
		"enabled"		"0"
			"image"			"../HUD/color_panel_browner"
	
	
			"src_corner_height"	"23"				// pixels inside the image
			"src_corner_width"	"23"
		
			"draw_corner_width"	"7"				// screen size of the corners ( and sides ), proportional
			"draw_corner_height" 	"7"	
		}
		"HudStopWatchObjectiveLabel"
		{	
			"ControlName"		"Label"
			"fieldName"		"HudStopWatchObjectiveLabel"
			"font"			"HudFontSmallBoldShadow"
		"xpos"			"-999"
		"ypos"			"-999"
		"zpos"			"-1"
		"wide"			"0"
		"tall"			"0"
		"visible"		"0"
		"enabled"		"0"
			"wrap"			"1"
			"labelText"		"%objectivelabel%"
			"textAlignment"		"west"
		}
		"HudStopWatchObjectiveShadedBar"
		{
			"ControlName"		"ImagePanel"
			"fieldName"		"HudStopWatchObjectiveShadedBar"
		"xpos"			"-999"
		"ypos"			"-999"
		"zpos"			"-1"
		"wide"			"0"
		"tall"			"0"
		"visible"		"0"
		"enabled"		"0"
			"tabPosition"	"0"	
			"fillcolor"		"125 125 125 125"
			"PaintBackgroundType"	"0"
		}
	}	

	"HudStopWatchObjectiveArrow"
	{
		"ControlName"		"ScalableImagePanel"
		"fieldName"		"HudStopWatchObjectiveArrow"
		"xpos"			"-999"
		"ypos"			"-999"
		"zpos"			"-1"
		"wide"			"0"
		"tall"			"0"
		"visible"		"0"
		"enabled"		"0"
		"image"			"../HUD/arrow_big"
	}
}
