"Resource/UI/ItemQuickSwitch.res"
{
	"ItemQuickSwitchPanel"
	{
		"ControlName"	"EditablePanel"
		"fieldName"		"ItemQuickSwitchPanel"
		"xpos"			"r246"
		"ypos"			"c-74"
		"wide"			"249"
		"tall"			"125"
		"autoResize"	"0"
		"pinCorner"		"0"
		"visible"		"0"
		"enabled"		"1"
		"tabPosition"	"0"
		"settitlebarvisible"	"0"
		
		"PaintBackgroundType"	"2"
		"bgcolor_override"	"0 0 0 132"
		
		"itempanel_xpos"	"0"
		"itempanel_ydelta"	"0"
		
		"itemskv"	
		{
			"wide"			"200"
			"tall"			"30"
			"bgcolor_override"		"59 54 48 255"
			"PaintBackgroundType"	"2"
			"paintborder"	"0"
			"text_forcesize" "2"
			
			"model_xpos"	"25"
			"model_ypos"	"3"
			"model_wide"	"58"		
			"model_tall"	"24"
			
			"text_xpos"		"32"
			"text_wide"		"205"
			"text_center"	"1"
			"name_only"		"1"
			
			"noitem_textcolor"		"178 178 178 255"
		}
	}
	
	"CaratLabel"
	{
		"ControlName"		"CExLabel"
		"fieldName"		"CaratLabel"
		"font"			"HudFontSmallestBold"
		"labelText"		">>"
		"textAlignment"	"west"
		"xpos"			"5"
		"ypos"			"5"
		"zpos"			"1"
		"wide"			"0"	//20
		"tall"			"15"
		"autoResize"	"1"
		"pinCorner"		"0"
		"visible"		"1"
		"enabled"		"1"
		"fgcolor_override" "200 80 60 255"
	}
	"ClassLabel"
	{
		"ControlName"	"CExLabel"
		"fieldName"		"ClassLabel"
		"font"			"HudFontSmallestBold"
		"labelText"		"#ClassBeingEquipped"
		"textAlignment"	"west"
		"xpos"			"20"
		"ypos"			"5"
		"zpos"			"1"
		"wide"			"0"	//60
		"tall"			"15"
		"autoResize"	"0"
		"pinCorner"		"0"
		"visible"		"1"
		"enabled"		"1"
	}

	"ItemSlotLabel"
	{
		"ControlName"		"CExLabel"
		"fieldName"		"ItemSlotLabel"
		"font"			"HudFontSmallBold"
		"labelText"		"#PrimaryWeapon"
		"textAlignment"	"center"		//west
		"xpos"			"0"		//45
		"ypos"			"7"
		"zpos"			"1"
		"wide"			"230"		//200
		"tall"			"15"
		"autoResize"	"0"
		"pinCorner"		"0"
		"visible"		"1"
		"enabled"		"1"
		"fgcolor"		"255 255 255 255"
	}
	
	"TopLine"
	{
		"ControlName"	"ImagePanel"
		"fieldName"		"TopLine"
		"xpos"			"5"
		"ypos"			"20"
		"zpos"			"2"
		"wide"			"0"	//240
		"tall"			"10"
		"visible"		"1"
		"enabled"		"1"
		"image"			"loadout_dotted_line"
		"tileImage"		"1"
		"tileVertically" "0"
	}				
		
	"itemcontainerscroller"
	{
		"ControlName"	"EditablePanel"
		"fieldName"		"itemcontainerscroller"
		"xpos"			"3"
		"ypos"			"30"
		"wide"			"220"
		"tall"			"90"
		"PaintBackgroundType"	"2"
		"fgcolor_override"	"160 160 160 200"
		"bgcolor_override"	"200 187 161 0"
		"autohide_buttons" "1"
	}
		
	"itemcontainer"
	{
		"ControlName"	"EditablePanel"
		"fieldName"		"itemcontainer"
		"xpos"			"0"
		"ypos"			"0"
		"wide"			"220"
		"tall"			"120"
		"PaintBackgroundType"	"2"
		"bgcolor_override"	"200 187 161 0"
		
		"CurrentlyEquippedBackground"
		{
			"ControlName"	"CExLabel"
			"fieldName"		"CurrentlyEquippedBackground"
			"font"			"m0refont18"
			"labelText"		"    *"
			"textAlignment"	"north-west"
			"xpos"			"3"
			"ypos"			"2"
			"zpos"			"100"
			"wide"			"200"
			"tall"			"30"
			"visible"		"1"
			"PaintBackgroundType"	"2"
			//"fgcolor" 			"200 80 60 255"
			"fgcolor_override" "200 80 60 255"
			"bgcolor_override"	"0 0 0 0"
		}
	}
	
	"NoItemsLabel"
	{
		"ControlName"	"CExLabel"
		"fieldName"		"NoItemsLabel"
		"font"			"ItemFontNameSmallest"
		"labelText"		"#NoItemsToEquip"
		"textAlignment"	"center"
		"xpos"			"3"
		"ypos"			"0"
		"zpos"			"10"
		"wide"			"0"	//220
		"tall"			"30"
		"autoResize"	"0"
		"pinCorner"		"0"
		"visible"		"0"
		"enabled"		"1"
		"fgcolor_override" "200 80 60 255"
	}
	
	"loadout_preset_panel"
	{
		"ControlName"	"CLoadoutPresetPanel"
		"FieldName"		"loadout_preset_panel"
		"xpos"			"228"
		"ypos"			"8"
		"zpos"			"20"
		"wide"			"25"
		"tall"			"90"
		"autoResize"	"0"
		"pinCorner"		"0"
		"visible"		"1"
		"enabled"		"1"
		"tabPosition"	"0"
		"paintbackground"	"0"
	}
}
