"Resource/UI/MainMenuOverride.res"
{
	MainMenuOverride
	{
		"fieldName"		"MainMenuOverride"
		"visible"		"1"
		"enabled"		"1"
		"xpos"			"0"
		"ypos"			"0"
		"zpos"			"0"
		"wide"			"f0"
		"tall"			"480"
		
//		"bgcolor_override"	"0 0 0 240"
		
		"update_url"	"http://store.steampowered.com/news/?filter=updates&appids=440"
		"blog_url"		"http://www.teamfortress.com/"
		
		"button_x_offset"	"-375"
		"button_y"			"125"
		"button_y_delta"		"3"
		"button_kv"
		{
			"xpos"			"0"
			"ypos"			"150"
			"wide"			"250"
			"tall"			"20"
			"visible"		"1"
			
			"SubButton"
			{
				"ControlName"	"CExImageButton"
				"fieldName"		"SubButton"
				"xpos"			"5"
				"ypos"			"0"
				"wide"			"250"
				"tall"			"20"
				"autoResize"	"0"
				"pinCorner"		"3"
				"visible"		"1"
				"enabled"		"1"
				"tabPosition"	"0"
				"textinsetx"	"25"
				"use_proportional_insets" "1"
				"font"		   "m0refont18"
				"textAlignment"	"east"
				"dulltext"		"0"
				"brighttext"	"0"
				"default"		"1"
				"sound_depressed"	"UI/buttonclick.wav"
				"sound_released"	"UI/buttonclickrelease.wav"
				
				"border_default"	""
				"border_armed"		""
				"paintbackground"	"0"

				"FgColor" "255 255 255 255"
	                  "defaultFgColor_override" "255 255 255 255"
				"armedFgColor_override" "210 210 210 255"
				"depressedFgColor_override" "200 100 50 255"
			
				"image_drawcolor"	"0 0 0 0"
				"image_armedcolor"	"255 255 255 255"
				"SubImage"
				{
					"ControlName"	"ImagePanel"
					"fieldName"		"SubImage"
					"xpos"			"10"
					"ypos"			"5"
					"zpos"			"1"
					"wide"			"11"
					"tall"			"11"
					"visible"		"0"
					"enabled"		"1"
					"scaleImage"	"1"
				}				
			}		
		}
		
		"SaxxySettings"
		{
			"xpos"			"0"
			"ypos"			"0"
			"zpos"			"-101"		
			"wide"			"f0"
			"tall"			"480"
			
			"autoResize"	"0"
			"pinCorner"		"0"
			"visible"		"0"
			"enabled"		"0"
			
			"flashbounds_x"	"50"
			"flashbounds_y"	"65"
			"flashbounds_w"	"250"
			"flashbounds_h"	"120"
			
			"flashstartsize_min"	"8"
			"flashstartsize_max"	"12"
			
			"flash_maxscale"		"4"
			
			"flash_lifelength_min"	".1"
			"flash_lifelength_max"	".2"
			
			"curtain_anim_duration"		"4.0"
			"curtain_open_time"		"2.8"
			"flash_start_time"		"4.0"
			
			"initial_freakout_duration"		"15.0"
			"clap_sound_duration"	"10.0"
			
			"CameraFlashSettings"
			{
				"visible"		"1"
				"enabled"		"1"
				"tileImage"		"0"
				"scaleImage"	"1"
				"zpos"			"9"
			}
		}
	}	

	"WarningLabel"
	{
		"ControlName"	"CExLabel"
		"fieldName"		"WarningLabel"
		"font"			"HudFontMediumSmallBold"
		"labelText"		"reinstall the HUD, it's broken due to an update"
		"textAlignment"	"center"
		"xpos"			"c-297"
		"ypos"			"r80"
		"zpos"			"9001"
		"wide"			"600"
		"tall"			"30"
		"autoResize"	"0"
		"wrap"		"1"
		"pinCorner"		"0"
		"visible"		"1"
		"enabled"		"1"
		"fgcolor"		"MainMenuWarning"
	}

	"MainMenuBGPanel"
	{
		"ControlName"	"EditablePanel"
		"fieldName"		"MainMenuBGPanel"
		"xpos"			"0"
		"ypos"			"0"
		"zpos"			"-1"
		"wide"			"186"
		"tall"			"143"
		"visible"		"0"
		"PaintBackgroundType"	"2"
		"border"		"MainMenuBGBorderAlpha"
	}	

	"BG"
	{
		"ControlName"	"ImagePanel"
		"fieldName"		"BG"
		"xpos"			"0"
		"ypos"			"0"
		"zpos"			"-10"
		"wide"			"300"
		"tall"			"f0"
		"fillcolor"		"0 0 0 175"
		"visible"		"1"
		"enabled"		"1"
	}

	"Background"
	{
		"ControlName"	"ImagePanel"
		"fieldName"		"Background"
		"xpos"			"0"
		"ypos"			"0"
		"zpos"			"-200"
		"wide"			"f0"
		"tall"			"480"
		"visible"		"0"
		"enabled"		"1"
		"image"			""
		"scaleImage"	"1"
		
		if_halloween
		{
			"image"		"../console/title_team_halloween2011"
		}
		if_fullmoon
		{
			"image"		"../console/title_fullmoon"
		}
		if_christmas
		{
			"image"		"../console/background_xmas2011"
		}
	}
					
	"TFLogoImage"
	{
		"ControlName"	"ImagePanel"
		"fieldName"		"TFLogoImage"
		"xpos"			"c-290"
		"ypos"			"24"
		"zpos"			"-99"
		"wide"			"0" //256
		"tall"			"64"
		"visible"		"1"
		"enabled"		"1"
		"image"			"../logo/new_tf2_logo"
		"scaleImage"	"1"
	}	
	
	"TFCharacterImage"
	{
		"ControlName"	"ImagePanel"
		"fieldName"		"TFCharacterImage"
		"xpos"			"c-250"
		"ypos"			"-80"
		"zpos"			"-99"
		"wide"			"600"
		"tall"			"600"
		"visible"		"1"
		"enabled"		"1"
		"scaleImage"	"1"
	}
	
	"TooltipPanel"
	{
		"ControlName"	"EditablePanel"
		"fieldName"		"TooltipPanel"
		"xpos"			"0"
		"ypos"			"0"
		"zpos"			"1"
		"wide"			"150"
		"tall"			"18"
		"visible"		"0"
		"PaintBackgroundType"	"2"
		"border"		"MainMenuBGBorder"
		
		"TipSubLabel"
		{
			"ControlName"	"CExLabel"
			"fieldName"		"TipSubLabel"
			"font"			"HudFontSmall"
			"labelText"		"%tipsubtext%"
			"textAlignment"	"center"
			"xpos"			"20"
			"ypos"			"30"
			"zpos"			"2"
			"wide"			"250"
			"tall"			"18"
			"autoResize"	"0"
			"pinCorner"		"0"
			"visible"		"1"
			"enabled"		"1"
			"fgcolor_override"	"117 107 94 255"
			"wrap"			"1"
		}
		
		"TipLabel"
		{
			"ControlName"	"CExLabel"
			"fieldName"		"TipLabel"
			"font"			"HudFontSmallBold"
			"labelText"		"%tiptext%"
			"textAlignment"	"center"
			"xpos"			"20"
			"ypos"			"5"
			"zpos"			"2"
			"wide"			"140"
			"tall"			"18"
			"autoResize"	"0"
			"pinCorner"		"0"
			"visible"		"1"
			"enabled"		"1"
			"fgcolor_override"	"235 226 202 255"
			"auto_wide_tocontents" "1"
		}
	}	
	
	"MOTD_ShowButtonPanel"
	{
		"ControlName"	"EditablePanel"
		"fieldName"		"MOTD_ShowButtonPanel"
		"xpos"			"c200"
		"ypos"			"40"
		"zpos"			"1"
		"wide"			"0" //32
		"tall"			"32"
		"autoResize"	"0"
		"pinCorner"		"3"
		"visible"		"1"
		"enabled"		"1"
		
		"MOTD_ShowButtonPanel_SB"
		{
			"ControlName"	"CExImageButton"
			"fieldName"		"MOTD_ShowButtonPanel_SB"
			"xpos"			"0"
			"ypos"			"0"
			"zpos"			"1"
			"wide"			"32"
			"tall"			"32"
			"autoResize"	"0"
			"pinCorner"		"3"
			"visible"		"1"
			"enabled"		"1"
			"tabPosition"	"0"
			"labelText"		""
			"font"			"HudFontSmallestBold"
			"textAlignment"	"center"
			"dulltext"		"0"
			"brighttext"	"0"
			"default"		"1"
			"Command"		"motd_show"
			"sound_depressed"	"UI/buttonclick.wav"
			"sound_released"	"UI/buttonclickrelease.wav"
			"paintbackground" "0"
			"image_drawcolor"	"235 226 202 255"
			"image_armedcolor"	"255 255 255 255"

			"SubImage"
			{
				"ControlName"	"ImagePanel"
				"fieldName"		"SubImage"
				"xpos"			"0"
				"ypos"			"0"
				"zpos"			"1"
				"wide"			"32"
				"tall"			"32"
				"visible"		"1"
				"enabled"		"1"
				"image"			"button_MOTD"
				"scaleImage"	"1"
			}
		}
	}
	
	"MOTD_Panel"
	{
		"ControlName"	"EditablePanel"
		"fieldName"		"MOTD_Panel"
		"xpos"			"c0"
		"ypos"			"102"
		"zpos"			"1"
		"wide"			"0" //300
		"tall"			"160"
		"visible"		"0"
		"PaintBackgroundType"	"2"
		"paintbackground"	"0"
		"border"		"MainMenuHighlightBorder"
		
		"MOTD_Label"
		{
			"ControlName"	"CExLabel"
			"fieldName"		"MOTD_Label"
			"font"			"HudFontSmallestBold"
			"labelText"		"%motddate%"
			"textAlignment"	"center"
			"xpos"			"0"
			"ypos"			"140"
			"wide"			"300"
			"tall"			"10"
			"autoResize"	"0"
			"pinCorner"		"0"
			"visible"		"1"
			"enabled"		"1"
			"fgcolor_override"	"46 43 42 255"
		}
		"MOTD_PrevButton"
		{
			"ControlName"	"CExImageButton"
			"fieldName"		"MOTD_PrevButton"
			"xpos"			"14"
			"ypos"			"138"
			"zpos"			"1"
			"wide"			"20"
			"tall"			"20"
			"autoResize"	"0"
			"pinCorner"		"3"
			"visible"		"1"
			"enabled"		"1"
			"tabPosition"	"0"
			"labelText"		""
			"font"			"HudFontSmallBold"
			"textAlignment"	"center"
			"dulltext"		"0"
			"brighttext"	"0"
			"default"		"1"
			"Command"		"motd_prev"
			"sound_depressed"	"UI/buttonclick.wav"
			"sound_released"	"UI/buttonclickrelease.wav"
			"paintbackground" "0"
			
			"image_drawcolor"	"235 226 202 255"
			"image_armedcolor"	"255 255 255 255"
			"SubImage"
			{
				"ControlName"	"ImagePanel"
				"fieldName"		"SubImage"
				"xpos"			"0"
				"ypos"			"0"
				"zpos"			"1"
				"wide"			"20"
				"tall"			"20"
				"visible"		"1"
				"enabled"		"1"
				"image"			"blog_back"
				"scaleImage"	"1"
			}
		}		
		"MOTD_NextButton"
		{
			"ControlName"	"CExImageButton"
			"fieldName"		"MOTD_NextButton"
			"xpos"			"265"
			"ypos"			"136"
			"zpos"			"1"
			"wide"			"20"
			"tall"			"20"
			"autoResize"	"0"
			"pinCorner"		"3"
			"visible"		"1"
			"enabled"		"1"
			"tabPosition"	"0"
			"labelText"		""
			"font"			"HudFontSmallBold"
			"textAlignment"	"center"
			"dulltext"		"0"
			"brighttext"	"0"
			"default"		"1"
			"Command"		"motd_next"
			"sound_depressed"	"UI/buttonclick.wav"
			"sound_released"	"UI/buttonclickrelease.wav"
			"paintbackground" "0"
			
			"image_drawcolor"	"235 226 202 255"
			"image_armedcolor"	"255 255 255 255"
			"SubImage"
			{
				"ControlName"	"ImagePanel"
				"fieldName"		"SubImage"
				"xpos"			"0"
				"ypos"			"0"
				"zpos"			"1"
				"wide"			"20"
				"tall"			"20"
				"visible"		"1"
				"enabled"		"1"
				"image"			"blog_forward"
				"scaleImage"	"1"
			}
		}
	
		"MOTD_CloseButton"
		{
			"ControlName"	"CExImageButton"
			"fieldName"		"MOTD_CloseButton"
			"xpos"			"270"
			"ypos"			"8"
			"zpos"			"10"
			"wide"			"14"
			"tall"			"14"
			"autoResize"	"0"
			"pinCorner"		"0"
			"visible"		"1"
			"enabled"		"1"
			"tabPosition"	"0"
			"labeltext"		""
			"font"			"HudFontSmallBold"
			"textAlignment"	"center"
			"dulltext"		"0"
			"brighttext"	"0"
			"default"		"0"
			"sound_depressed"	"UI/buttonclick.wav"
			"sound_released"	"UI/buttonclickrelease.wav"
			"Command"		"motd_hide"
			
			"paintbackground"	"0"
			
			"defaultFgColor_override" "46 43 42 255"
			"armedFgColor_override" "235 226 202 255"
			"depressedFgColor_override" "46 43 42 255"
			
			"image_drawcolor"	"117 107 94 255"
			"image_armedcolor"	"200 80 60 255"
			"SubImage"
			{
				"ControlName"	"ImagePanel"
				"fieldName"		"SubImage"
				"xpos"			"0"
				"ypos"			"0"
				"zpos"			"1"
				"wide"			"14"
				"tall"			"14"
				"visible"		"1"
				"enabled"		"1"
				"image"			"close_button"
				"scaleImage"	"1"
			}				
		}	

		"MOTD_TitleLabel"
		{
			"ControlName"	"CExLabel"
			"fieldName"		"MOTD_TitleLabel"
			"font"			"HudFontSmallBold"
			"labelText"		"%motdtitle%"
			"textAlignment"	"north-west"
			"xpos"			"20"
			"ypos"			"10"
			"wide"			"250"
			"tall"			"30"
			"autoResize"	"0"
			"pinCorner"		"0"
			"visible"		"1"
			"enabled"		"1"
			"fgcolor_override"	"46 43 42 255"
			"wrap"			"1"
		}
		"MOTD_TextScroller"
		{
			"ControlName"	"ScrollableEditablePanel"
			"fieldName"		"MOTD_TextScroller"
			"xpos"			"20"
			"ypos"			"40"
			"wide"			"260"
			"tall"			"70"
			"PaintBackgroundType"	"2"
			"fgcolor_override"	"117 107 94 255"
			
			"MOTD_TextPanel"
			{
				"ControlName"	"EditablePanel"
				"fieldName"		"MOTD_TextPanel"
				"xpos"			"0"
				"ypos"			"0"
				"wide"			"250"
				"tall"			"300"
				"visible"		"1"
				"PaintBackgroundType"	"2"
			
				"MOTD_TextLabel"
				{
					"ControlName"	"CExLabel"
					"fieldName"		"MOTD_TextLabel"
					"font"			"HudFontSmall"
					"labelText"		"%motdtext%"
					"textAlignment"	"north-west"
					"xpos"			"0"
					"ypos"			"0"
					"wide"			"250"
					"tall"			"300"
					"autoResize"	"0"
					"pinCorner"		"0"
					"visible"		"1"
					"enabled"		"1"
					"fgcolor_override"	"46 43 42 255"
					"wrap"			"1"
				}
			}
		}
		"MOTD_URLButton"
		{
			"ControlName"	"CExButton"
			"fieldName"		"MOTD_URLButton"
			"xpos"			"75"
			"ypos"			"112"
			"wide"			"150"
			"tall"			"15"
			"autoResize"	"0"
			"pinCorner"		"3"
			"visible"		"1"
			"enabled"		"1"
			"tabPosition"	"0"
			"labelText"		"#MMenu_MOTD_URL"
			"textinsetx"	"20"
			"use_proportional_insets" "1"
			"font"			"HudFontSmallestBold"
			"textAlignment"	"center"
			"dulltext"		"0"
			"brighttext"	"0"
			"default"		"1"
			"command"		"motd_viewurl"
			"sound_depressed"	"UI/buttonclick.wav"
			"sound_released"	"UI/buttonclickrelease.wav"
			
			"defaultFgColor_override" "235 226 202 255"
			"defaultBgColor_override" "46 43 42 255"
			"armedFgColor_override" "235 226 202 255"
			"depressedFgColor_override" "235 226 202 255"
		}		
	}	
	
	"Notifications_ShowButtonPanel"
	{
		"ControlName"	"EditablePanel"
		"fieldName"		"Notifications_ShowButtonPanel"
		"xpos"			"c165"
		"ypos"			"40"
		"zpos"			"1"
		"wide"			"32"
		"tall"			"32"
		"autoResize"	"0"
		"pinCorner"		"3"
		"visible"		"1"
		"enabled"		"1"
		
		"SubImage"
		{
			"ControlName"	"ImagePanel"
			"fieldName"		"SubImage"
			"xpos"			"16"
			"ypos"			"0"
			"zpos"			"3"
			"wide"			"16"
			"tall"			"16"
			"visible"		"1"
			"enabled"		"1"
			"image"			"glyph_achievements"
			"scaleImage"	"1"
			"drawcolor" "210 125 33 255"
		}				
		
		"Notifications_CountLabel"
		{
			"ControlName"	"CExLabel"
			"fieldName"		"Notifications_CountLabel"
			"font"			"HudFontSmallestBold"
			"labelText"		"%noticount%"
			"textAlignment"	"center"
			"xpos"			"16"
			"ypos"			"0"
			"zpos"			"4"
			"wide"			"16"
			"tall"			"16"
			"autoResize"	"0"
			"pinCorner"		"0"
			"visible"		"1"
			"enabled"		"1"
			"fgcolor_override"	"255 255 255 255"
		}
	
		"Notifications_ShowButtonPanel_SB"
		{
			"ControlName"	"CExImageButton"
			"fieldName"		"Notifications_ShowButtonPanel_SB"
			"xpos"			"0"
			"ypos"			"0"
			"zpos"			"1"
			"wide"			"32"
			"tall"			"32"
			"autoResize"	"0"
			"pinCorner"		"3"
			"visible"		"1"
			"enabled"		"1"
			"tabPosition"	"0"
			"labelText"		""
			"font"			"HudFontSmallestBold"
			"textAlignment"	"center"
			"dulltext"		"0"
			"brighttext"	"0"
			"default"		"1"
			"Command"		"noti_show"
			"sound_depressed"	"UI/buttonclick.wav"
			"sound_released"	"UI/buttonclickrelease.wav"
			"paintbackground" "0"
			"image_drawcolor"	"235 226 202 255"
			"image_armedcolor"	"255 255 255 255"
			
			"SubImage"
			{
				"ControlName"	"ImagePanel"
				"fieldName"		"SubImage"
				"xpos"			"0"
				"ypos"			"0"
				"zpos"			"1"
				"wide"			"32"
				"tall"			"32"
				"visible"		"1"
				"enabled"		"1"
				"image"			"button_Alert"
				"scaleImage"	"1"
			}
		}
	}
	
	"Notifications_Panel"
	{
		"ControlName"	"EditablePanel"
		"fieldName"		"Notifications_Panel"
		"xpos"			"c0"
		"ypos"			"102"
		"zpos"			"1"
		"wide"			"210"
		"tall"			"80"
		"visible"		"0"
		"PaintBackgroundType"	"2"
		"paintbackground"	"0"
		"border"		"MainMenuHighlightBorder"
		
		"Notifications_CloseButton"
		{
			"ControlName"	"CExImageButton"
			"fieldName"		"Notifications_CloseButton"
			"xpos"			"186"
			"ypos"			"8"
			"zpos"			"10"
			"wide"			"14"
			"tall"			"14"
			"autoResize"	"0"
			"pinCorner"		"0"
			"visible"		"1"
			"enabled"		"1"
			"tabPosition"	"0"
			"labeltext"		""
			"font"			"HudFontSmallBold"
			"textAlignment"	"center"
			"dulltext"		"0"
			"brighttext"	"0"
			"default"		"0"
			"sound_depressed"	"UI/buttonclick.wav"
			"sound_released"	"UI/buttonclickrelease.wav"
			"Command"		"noti_hide"
			
			"paintbackground"	"0"
			
			"defaultFgColor_override" "46 43 42 255"
			"armedFgColor_override" "235 226 202 255"
			"depressedFgColor_override" "46 43 42 255"
			
			"image_drawcolor"	"117 107 94 255"
			"image_armedcolor"	"200 80 60 255"
			"SubImage"
			{
				"ControlName"	"ImagePanel"
				"fieldName"		"SubImage"
				"xpos"			"0"
				"ypos"			"0"
				"zpos"			"1"
				"wide"			"14"
				"tall"			"14"
				"visible"		"1"
				"enabled"		"1"
				"image"			"close_button"
				"scaleImage"	"1"
			}				
		}		
	
		"Notifications_TitleLabel"
		{
			"ControlName"	"CExLabel"
			"fieldName"		"Notifications_TitleLabel"
			"font"			"HudFontSmallBold"
			"labelText"		"%notititle%"
			"textAlignment"	"north-west"
			"xpos"			"12"
			"ypos"			"8"
			"wide"			"250"
			"tall"			"30"
			"autoResize"	"0"
			"pinCorner"		"0"
			"visible"		"1"
			"enabled"		"1"
			"fgcolor_override"	"46 43 42 255"
			"wrap"			"1"
		}
		
		"Notifications_Scroller"
		{
			"ControlName"	"ScrollableEditablePanel"
			"fieldName"		"Notifications_Scroller"
			"xpos"			"8"
			"ypos"			"25"
			"wide"			"210"
			"tall"			"135"
			"PaintBackgroundType"	"2"
			"fgcolor_override"	"117 107 94 255"
			
			"Notifications_Control"
			{
				"ControlName"	"CMainMenuNotificationsControl"
				"fieldName"		"Notifications_Control"
				"xpos"			"0"
				"ypos"			"0"
				"wide"			"220"
				"tall"			"135"
				"visible"		"1"
			}
		}
	}	
	
	"HTMLContainer"
	{
		"ControlName"	"EditablePanel"
		"fieldName"		"HTMLContainer"
		"xpos"			"c"
		"ypos"			"130"
		"wide"			"300"
		"tall"			"240"
		"autoResize"	"3"
		"pinCorner"		"0"
		"visible"		"0"
		"enabled"		"1"
		"tabPosition"	"0"
		"border"		"MainMenuBGBorder"

		"HTMLLabel"
		{
			"ControlName"	"CExLabel"
			"fieldName"		"HTMLLabel"
			"font"			"HudFontSmallestBold"
			"labelText"		"#MMenu_HTML"
			"textAlignment"	"north-west"
			"xpos"			"5"
			"ypos"			"5"
			"wide"			"290"
			"tall"			"15"
			"autoResize"	"0"
			"pinCorner"		"0"
			"visible"		"1"
			"enabled"		"1"
		}

		"HTML"
		{
			"ControlName"	"HTML"
			"fieldName"		"HTML"
			"xpos"			"5"
			"ypos"			"25"
			"wide"			"290"
			"tall"			"210"
			"autoResize"	"3"
			"pinCorner"		"0"
			"visible"		"1"
			"enabled"		"1"
			"tabPosition"	"0"
		}
	}
	"ShowPromoCodesButton"
	{
		"ControlName"	"CExImageButton"
		"fieldName"		"ShowPromoCodesButton"
		"xpos"			"c-285"
		"ypos"			"397"
		"wide"			"0" //250
		"tall"			"20"
		"autoResize"	"0"
		"pinCorner"		"3"
		"visible"		"1"
		"enabled"		"1"
		"tabPosition"	"0"
		"font"			"HudFontSmallestBold"
		"labelText"		"#MMenu_ShowPromoCodes"
		"textAlignment"	"center"
		"dulltext"		"0"
		"brighttext"	"0"
		"default"		"1"
		"sound_depressed"	"UI/buttonclick.wav"
		"sound_released"	"UI/buttonclickrelease.wav"
		"command"		"showpromocodes"
		
		"border_default"	"MainMenuButtonDefault"
		"border_armed"		"MainMenuButtonArmed"
		"paintbackground"	"0"
		
		"defaultFgColor_override" "46 43 42 255"
		"armedFgColor_override" "235 226 202 255"
		"depressedFgColor_override" "46 43 42 255"
	}
	"FreeTrialPanel"
	{
		"ControlName"	"EditablePanel"
		"fieldName"		"FreeTrialPanel"
		"xpos"			"c-300"
		"ypos"			"310"
		"zpos"			"0"
		"wide"			"250"
		"tall"			"130"
		"visible"		"0"

		"Image"
		{
			"ControlName"	"ImagePanel"
			"fieldName"		"Image"
			"xpos"			"0"
			"ypos"			"0"
			"zpos"			"0"
			"wide"			"80"
			"tall"			"80"
			"visible"		"1"
			"enabled"		"1"
			"image"			"tf_box"
			"scaleImage"	"1"
		}

		"UpgradeLabel1"
		{
			"ControlName"	"CExLabel"
			"fieldName"		"UpgradeLabel"
			"font"			"HudFontSmallestBold"
			"labelText"		"#TF_Trial_MainMenu_Upgrade1"
			"textAlignment"	"north"
			"xpos"			"80"
			"ypos"			"5"
			"wide"			"165"
			"tall"			"80"
			"autoResize"	"0"
			"pinCorner"		"0"
			"visible"		"1"
			"enabled"		"1"
			"wrap"			"1"
		}
		"UpgradeLabel2"
		{
			"ControlName"	"CExLabel"
			"fieldName"		"UpgradeLabel2"
			"font"			"HudFontSmallBold"
			"labelText"		"#TF_Trial_MainMenu_Upgrade2"
			"textAlignment"	"north"
			"xpos"			"80"
			"ypos"			"18"
			"wide"			"165"
			"tall"			"80"
			"autoResize"	"0"
			"pinCorner"		"0"
			"visible"		"1"
			"enabled"		"1"
			"wrap"			"1"
			"fgcolor"		"255 155 138 255"
		}
		"UpgradeLabel3"
		{
			"ControlName"	"CExLabel"
			"fieldName"		"UpgradeLabel3"
			"font"			"HudFontSmallestBold"
			"labelText"		"#TF_Trial_MainMenu_Upgrade3"
			"textAlignment"	"north"
			"xpos"			"80"
			"ypos"			"48"
			"wide"			"165"
			"tall"			"80"
			"autoResize"	"0"
			"pinCorner"		"0"
			"visible"		"1"
			"enabled"		"1"
			"wrap"			"1"
			"fgcolor"		"137 134 127 255"
		}
	}
	
	"BackgroundFooter"
	{
		"ControlName"	"ImagePanel"
		"fieldName"		"BackgroundFooter"
		"xpos"			"0"
		"ypos"			"438"
		"zpos"			"-50"
		"wide"			"f0"
		"tall"			"44"
		"visible"		"0"
		"enabled"		"0"
		"image"			"loadout_bottom_gradient"
		"tileImage"		"1"
	}				
	"FooterLine"
	{
		"ControlName"	"ImagePanel"
		"fieldName"		"FooterLine"
		"xpos"			"0"
		"ypos"			"438"
		"zpos"			"-5-"
		"wide"			"f0"
		"tall"			"10"
		"visible"		"0"
		"enabled"		"0"
		"image"			"loadout_solid_line"
		"scaleImage"	"1"
	}			


	"CreateServerButton"
	{
		"ControlName"	"EditablePanel"
		"fieldname"		"CreateServerButton"
		"xpos"			"190"
		"ypos"			"r40"
		"zpos"			"10"
		"wide"			"12"
		"tall"			"12"
		"visible"		"1"
		
		"SubButton"
		{
			"ControlName"	"CExImageButton"
			"fieldName"		"SubButton"
			"xpos"			"0"
			"ypos"			"0"
			"wide"			"12"
			"tall"			"12"
			"autoResize"	"0"
			"pinCorner"		"3"
			"visible"		"1"
			"enabled"		"1"
			"tabPosition"	"0"
			"textinsetx"	"100"
			"use_proportional_insets" "1"
			"font"			"m0refont12shadow"
			"textAlignment"	"west"
			"dulltext"		"0"
			"brighttext"	"0"
			"default"		"1"
			"sound_depressed"	"UI/buttonclick.wav"
			"sound_released"	"UI/buttonclickrelease.wav"
			
			"border_default"	""
			"border_armed"		""
			"paintbackground"	"0"
			
			"image_drawcolor"	"255 255 255 255"
			"image_armedcolor"	"210 210 210 255"
			
			"SubImage"
			{
				"ControlName"	"ImagePanel"
				"fieldName"		"SubImage"
				"xpos"			"0"
				"ypos"			"0"
				"zpos"			"1"
				"wide"			"12"
				"tall"			"12"
				"visible"		"1"
				"enabled"		"1"
				"image"			"glyph_create"
				"scaleImage"	"1"
			}				
		}		
	}
	
	"AchievementsButton"
	{
		"ControlName"	"EditablePanel"
		"fieldname"		"AchievementsButton"
		"xpos"			"210"
		"ypos"			"r40"
		"zpos"			"10"
		"wide"			"12"
		"tall"			"12"
		"visible"		"1"
		
		"SubButton"
		{
			"ControlName"	"CExImageButton"
			"fieldName"		"SubButton"
			"xpos"			"0"
			"ypos"			"0"
			"wide"			"12"
			"tall"			"12"
			"autoResize"	"0"
			"pinCorner"		"3"
			"visible"		"1"
			"enabled"		"1"
			"tabPosition"	"0"
			"textinsetx"	"100"
			"use_proportional_insets" "1"
			"font"			"m0refont12shadow"
			"textAlignment"	"west"
			"dulltext"		"0"
			"brighttext"	"0"
			"default"		"1"
			"sound_depressed"	"UI/buttonclick.wav"
			"sound_released"	"UI/buttonclickrelease.wav"
			
			"border_default"	""
			"border_armed"		""
			"paintbackground"	"0"
			
			"image_drawcolor"	"255 255 255 255"
			"image_armedcolor"	"210 210 210 255"
			
			"SubImage"
			{
				"ControlName"	"ImagePanel"
				"fieldName"		"SubImage"
				"xpos"			"0"
				"ypos"			"0"
				"zpos"			"1"
				"wide"			"12"
				"tall"			"12"
				"visible"		"1"
				"enabled"		"1"
				"image"			"glyph_achievements"
				"scaleImage"	"1"
			}				
		}		
	}

	"CommentaryButton"
	{
		"ControlName"	"EditablePanel"
		"fieldname"		"CommentaryButton"
		"xpos"			"230"
		"ypos"			"r40"
		"zpos"			"10"
		"wide"			"12"
		"tall"			"12"
		"visible"		"1"
		
		"SubButton"
		{
			"ControlName"	"CExImageButton"
			"fieldName"		"SubButton"
			"xpos"			"0"
			"ypos"			"0"
			"wide"			"12"
			"tall"			"12"
			"autoResize"	"0"
			"pinCorner"		"3"
			"visible"		"1"
			"enabled"		"1"
			"tabPosition"	"0"
			"textinsetx"	"100"
			"use_proportional_insets" "1"
			"font"			"m0refont12shadow"
			"textAlignment"	"west"
			"dulltext"		"0"
			"brighttext"	"0"
			"default"		"1"
			"sound_depressed"	"UI/buttonclick.wav"
			"sound_released"	"UI/buttonclickrelease.wav"
			
			"border_default"	""
			"border_armed"		""
			"paintbackground"	"0"
			
			"image_drawcolor"	"255 255 255 255"
			"image_armedcolor"	"210 210 210 255"
			
			"SubImage"
			{
				"ControlName"	"ImagePanel"
				"fieldName"		"SubImage"
				"xpos"			"0"
				"ypos"			"0"
				"zpos"			"1"
				"wide"			"12"
				"tall"			"12"
				"visible"		"1"
				"enabled"		"1"
				"image"			"glyph_forums"
				"scaleImage"	"1"
			}				
		}		
	}

	"CoachPlayersButton"
	{
		"ControlName"	"EditablePanel"
		"fieldname"		"CoachPlayersButton"
		"xpos"			"250"
		"ypos"			"r40"
		"zpos"			"10"
		"wide"			"12"
		"tall"			"12"
		"visible"		"1"
		
		"SubButton"
		{
			"ControlName"	"CExImageButton"
			"fieldName"		"SubButton"
			"xpos"			"0"
			"ypos"			"0"
			"wide"			"12"
			"tall"			"12"
			"autoResize"	"0"
			"pinCorner"		"3"
			"visible"		"1"
			"enabled"		"1"
			"tabPosition"	"0"
			"textinsetx"	"100"
			"use_proportional_insets" "1"
			"font"			"m0refont12shadow"
			"textAlignment"	"west"
			"dulltext"		"0"
			"brighttext"	"0"
			"default"		"1"
			"sound_depressed"	"UI/buttonclick.wav"
			"sound_released"	"UI/buttonclickrelease.wav"
			
			"border_default"	""
			"border_armed"		""
			"paintbackground"	"0"
			
			"image_drawcolor"	"255 255 255 255"
			"image_armedcolor"	"210 210 210 255"
			
			"SubImage"
			{
				"ControlName"	"ImagePanel"
				"fieldName"		"SubImage"
				"xpos"			"0"
				"ypos"			"0"
				"zpos"			"1"
				"wide"			"12"
				"tall"			"12"
				"visible"		"1"
				"enabled"		"1"
				"image"			"glyph_commentary"
				"scaleImage"	"1"
			}				
		}		
	}	
	
	"ReportBugButton"
	{
		"ControlName"	"EditablePanel"
		"fieldname"		"ReportBugButton"
		"xpos"			"270"
		"ypos"			"r40"
		"zpos"			"10"
		"wide"			"12"
		"tall"			"12"
		"visible"		"1"
		
		"SubButton"
		{
			"ControlName"	"CExImageButton"
			"fieldName"		"SubButton"
			"xpos"			"0"
			"ypos"			"0"
			"wide"			"12"
			"tall"			"12"
			"autoResize"	"0"
			"pinCorner"		"3"
			"visible"		"1"
			"enabled"		"1"
			"tabPosition"	"0"
			"textinsetx"	"100"
			"use_proportional_insets" "1"
			"font"			"m0refont12shadow"
			"textAlignment"	"west"
			"dulltext"		"0"
			"brighttext"	"0"
			"default"		"1"
			"sound_depressed"	"UI/buttonclick.wav"
			"sound_released"	"UI/buttonclickrelease.wav"
			
			"border_default"	""
			"border_armed"		""
			"paintbackground"	"0"
			
			"image_drawcolor"	"255 255 255 255"
			"image_armedcolor"	"210 210 210 255"
			
			"SubImage"
			{
				"ControlName"	"ImagePanel"
				"fieldName"		"SubImage"
				"xpos"			"0"
				"ypos"			"0"
				"zpos"			"1"
				"wide"			"12"
				"tall"			"12"
				"visible"		"1"
				"enabled"		"1"
				"image"			"glyph_bug"
				"scaleImage"	"1"
			}				
		}		
	}

	"SettingsButton"
	{
		"ControlName"	"EditablePanel"
		"fieldname"		"SettingsButton"
		"xpos"			"250"
		"ypos"			"r55"
		"zpos"			"10"
		"wide"			"20"
		"tall"			"20"
		"visible"		"1"
		
		"SubButton"
		{
			"ControlName"	"CExImageButton"
			"fieldName"		"SubButton"
			"xpos"			"0"
			"ypos"			"0"
			"wide"			"12"
			"tall"			"12"
			"autoResize"	"0"
			"pinCorner"		"3"
			"visible"		"1"
			"enabled"		"1"
			"tabPosition"	"0"
			"textinsetx"	"100"
			"use_proportional_insets" "1"
			"font"			"m0refont12shadow"
			"textAlignment"	"west"
			"dulltext"		"0"
			"brighttext"	"0"
			"default"		"1"
			"sound_depressed"	"UI/buttonclick.wav"
			"sound_released"	"UI/buttonclickrelease.wav"
			
			"border_default"	""
			"border_armed"		""
			"paintbackground"	"0"
			
			"image_drawcolor"	"255 255 255 255"
			"image_armedcolor"	"210 210 210 255"
			
			"SubImage"
			{
				"ControlName"	"ImagePanel"
				"fieldName"		"SubImage"
				"xpos"			"0"
				"ypos"			"0"
				"zpos"			"1"
				"wide"			"11"
				"tall"			"11"
				"visible"		"1"
				"enabled"		"1"
				"image"			"glyph_practice"
				"scaleImage"	"1"
			}				
		}		
	}

	"TF2SettingsButton"
	{
		"ControlName"	"EditablePanel"
		"fieldname"		"TF2SettingsButton"
		"xpos"			"270"
		"ypos"			"r55"
		"zpos"			"10"
		"wide"			"20"
		"tall"			"20"
		"visible"		"1"
		
		"SubButton"
		{
			"ControlName"	"CExImageButton"
			"fieldName"		"SubButton"
			"xpos"			"0"
			"ypos"			"0"
			"wide"			"12"
			"tall"			"12"
			"autoResize"	"0"
			"pinCorner"		"3"
			"visible"		"1"
			"enabled"		"1"
			"tabPosition"	"0"
			"textinsetx"	"100"
			"use_proportional_insets" "1"
			"font"			"m0refont12shadow"
			"textAlignment"	"west"
			"dulltext"		"0"
			"brighttext"	"0"
			"default"		"1"
			"sound_depressed"	"UI/buttonclick.wav"
			"sound_released"	"UI/buttonclickrelease.wav"
			
			"border_default"	""
			"border_armed"		""
			"paintbackground"	"0"
			
			"image_drawcolor"	"255 255 255 255"
			"image_armedcolor"	"210 210 210 255"
			
			"SubImage"
			{
				"ControlName"	"ImagePanel"
				"fieldName"		"SubImage"
				"xpos"			"0"
				"ypos"			"0"
				"zpos"			"1"
				"wide"			"11"
				"tall"			"11"
				"visible"		"1"
				"enabled"		"1"
				"image"			"glyph_practice"
				"scaleImage"	"1"
			}				
		}		
	}	

	"CallVoteButton"
	{
		"ControlName"	"EditablePanel"
		"fieldname"		"CallVoteButton"
		"xpos"			"230"
		"ypos"			"r70"
		"zpos"			"10"
		"wide"			"12"
		"tall"			"12"
		"visible"		"1"
		
		"SubButton"
		{
			"ControlName"	"CExImageButton"
			"fieldName"		"SubButton"
			"xpos"			"0"
			"ypos"			"0"
			"wide"			"12"
			"tall"			"12"
			"autoResize"	"0"
			"pinCorner"		"3"
			"visible"		"1"
			"enabled"		"1"
			"tabPosition"	"0"
			"textinsetx"	"100"
			"use_proportional_insets" "1"
			"font"			"m0refont12shadow"
			"textAlignment"	"west"
			"dulltext"		"0"
			"brighttext"	"0"
			"default"		"1"
			"sound_depressed"	"UI/buttonclick.wav"
			"sound_released"	"UI/buttonclickrelease.wav"
			
			"border_default"	""
			"border_armed"		""
			"paintbackground"	"0"
			
			"image_drawcolor"	"255 255 255 255"
			"image_armedcolor"	"210 210 210 255"
			
			"SubImage"
			{
				"ControlName"	"ImagePanel"
				"fieldName"		"SubImage"
				"xpos"			"0"
				"ypos"			"0"
				"zpos"			"1"
				"wide"			"12"
				"tall"			"12"
				"visible"		"1"
				"enabled"		"1"
				"image"			"icon_checkbox"
				"scaleImage"	"1"
			}				
		}		
	}
	"MutePlayersButton"
	{
		"ControlName"	"EditablePanel"
		"fieldname"		"MutePlayersButton"
		"xpos"			"250"
		"ypos"			"r70"
		"zpos"			"10"
		"wide"			"12"
		"tall"			"12"
		"visible"		"1"
		
		"SubButton"
		{
			"ControlName"	"CExImageButton"
			"fieldName"		"SubButton"
			"xpos"			"0"
			"ypos"			"0"
			"wide"			"12"
			"tall"			"12"
			"autoResize"	"0"
			"pinCorner"		"3"
			"visible"		"1"
			"enabled"		"1"
			"tabPosition"	"0"
			"textinsetx"	"100"
			"use_proportional_insets" "1"
			"font"			"m0refont12shadow"
			"textAlignment"	"west"
			"dulltext"		"0"
			"brighttext"	"0"
			"default"		"1"
			"sound_depressed"	"UI/buttonclick.wav"
			"sound_released"	"UI/buttonclickrelease.wav"
			
			"border_default"	""
			"border_armed"		""
			"paintbackground"	"0"
			
			"image_drawcolor"	"255 255 255 255"
			"image_armedcolor"	"210 210 210 255"
			
			"SubImage"
			{
				"ControlName"	"ImagePanel"
				"fieldName"		"SubImage"
				"xpos"			"0"
				"ypos"			"0"
				"zpos"			"1"
				"wide"			"12"
				"tall"			"12"
				"visible"		"1"
				"enabled"		"1"
				"image"			"glyph_muted"
				"scaleImage"	"1"
			}				
		}		
	}
	"RequestCoachButton"
	{
		"ControlName"	"EditablePanel"
		"fieldname"		"RequestCoachButton"
		"xpos"			"270"
		"ypos"			"r70"
		"zpos"			"10"
		"wide"			"12"
		"tall"			"12"
		"visible"		"1"
		
		"SubButton"
		{
			"ControlName"	"CExImageButton"
			"fieldName"		"SubButton"
			"xpos"			"0"
			"ypos"			"0"
			"wide"			"12"
			"tall"			"12"
			"autoResize"	"0"
			"pinCorner"		"3"
			"visible"		"1"
			"enabled"		"1"
			"tabPosition"	"0"
			"textinsetx"	"100"
			"use_proportional_insets" "1"
			"font"			"m0refont12shadow"
			"textAlignment"	"west"
			"dulltext"		"0"
			"brighttext"	"0"
			"default"		"1"
			"sound_depressed"	"UI/buttonclick.wav"
			"sound_released"	"UI/buttonclickrelease.wav"
			
			"border_default"	""
			"border_armed"		""
			"paintbackground"	"0"
			
			"image_drawcolor"	"255 255 255 255"
			"image_armedcolor"	"210 210 210 255"
			
			"SubImage"
			{
				"ControlName"	"ImagePanel"
				"fieldName"		"SubImage"
				"xpos"			"0"
				"ypos"			"0"
				"zpos"			"1"
				"wide"			"12"
				"tall"			"12"
				"visible"		"1"
				"enabled"		"1"
				"image"			"icon_whistle"
				"scaleImage"	"1"
			}				
		}		
	}

	"BackToReplaysButton"
	{
		"ControlName"	"CExImageButton"
		"fieldName"		"BackToReplaysButton"
		"xpos"			"c-300"
		"ypos"			"437"
		"zpos"			"1"
		"wide"			"170"
		"tall"			"25"
		"autoResize"	"0"
		"pinCorner"		"3"
		"visible"		"0"
		"enabled"		"1"
		"tabPosition"	"0"
		"labelText"		"#GameUI_GameMenu_ExitReplay"
		"font"			"HudFontSmallBold"
		"textAlignment"	"west"
		"textinsetx"	"35"
		"use_proportional_insets" "1"
		"dulltext"		"0"
		"brighttext"	"0"
		"default"		"1"
		"Command"		"exitreplayeditor"
		"sound_depressed"	"UI/buttonclick.wav"
		"sound_released"	"UI/buttonclickrelease.wav"
		
		"image_drawcolor"	"235 226 202 255"
		"SubImage"
		{
			"ControlName"	"ImagePanel"
			"fieldName"		"SubImage"
			"xpos"			"16"
			"ypos"			"6"
			"zpos"			"1"
			"wide"			"14"
			"tall"			"14"
			"visible"		"1"
			"enabled"		"1"
			"scaleImage"	"1"
			"image"			"glyph_quit"
		}				
	}			
	
	"TutorialHighlight"
	{
		"ControlName"	"CExplanationPopup"
		"fieldName"		"TutorialHighlight"
		"xpos"			"c-285"
		"ypos"			"195"
		"zpos"			"100"
		"wide"			"250"
		"tall"			"120"
		"visible"		"0"
		"PaintBackgroundType"	"2"
		"paintbackground" "0"
		"border"		"MainMenuHighlightBorder"
		
		"start_x"		"c-85"
		"start_y"		"185"
		"start_wide"	"1"
		"start_tall"	"1"
		"end_x"			"c20"
		"end_y"			"120"
		"end_wide"		"250"
		"end_tall"		"120"
		"callout_inparents_x"	"c-40"
		"callout_inparents_y"	"195"
		
		"TitleLabel"
		{
			"ControlName"	"CExLabel"
			"fieldName"		"TitleLabel"
			"font"			"HudFontSmallBold"
			"labelText"		"%highlighttext%"
			"textAlignment"	"center"
			"xpos"			"20"
			"ypos"			"10"
			"wide"			"210"
			"tall"			"60"
			"autoResize"	"0"
			"pinCorner"		"0"
			"visible"		"1"
			"enabled"		"1"
			"wrap"			"1"
			"fgcolor_override" "46 43 42 255"
		}
		
		"TextLabel"
		{
			"ControlName"	"CExLabel"
			"fieldName"		"TextLabel"
			"font"			"HudFontSmall"
			"labelText"		"#MMenu_TutorialHighlight_Text"
			"textAlignment"	"south-west"
			"xpos"			"20"
			"ypos"			"60"
			"wide"			"210"
			"tall"			"20"
			"autoResize"	"0"
			"pinCorner"		"0"
			"visible"		"1"
			"enabled"		"1"
			"fgcolor_override" "46 43 42 255"
		}
		
		"TutorialHighlightButton"
		{
			"ControlName"	"EditablePanel"
			"fieldname"		"TutorialHighlightButton"
			"xpos"			"10"
			"ypos"			"85"
			"wide"			"230"
			"tall"			"26"
			"visible"		"1"
			
			"SubButton"
			{
				"ControlName"	"CExImageButton"
				"fieldName"		"SubButton"
				"xpos"			"0"
				"ypos"			"0"
				"wide"			"230"
				"tall"			"26"
				"autoResize"	"0"
				"pinCorner"		"3"
				"visible"		"1"
				"enabled"		"1"
				"tabPosition"	"0"
				"labeltext"		"#MMenu_TutorialHighlight_Button"
				"font"			"HudFontSmallBold"
				"textAlignment"	"center"
				"dulltext"		"0"
				"brighttext"	"0"
				"default"		"1"
				"sound_depressed"	"UI/buttonclick.wav"
				"sound_released"	"UI/buttonclickrelease.wav"
				"Command"		"tutorial"
				
				"border_default"	"MainMenuButtonDefault"
				"border_armed"		"MainMenuButtonArmed"
				"paintbackground"	"0"
				
				"defaultFgColor_override" "46 43 42 255"
				"armedFgColor_override" "235 226 202 255"
				"depressedFgColor_override" "46 43 42 255"
				
				"image_drawcolor"	"117 107 94 255"
				"image_armedcolor"	"235 226 202 255"
				"SubImage"
				{
					"ControlName"	"ImagePanel"
					"fieldName"		"SubImage"
					"xpos"			"6"
					"ypos"			"6"
					"zpos"			"1"
					"wide"			"14"
					"tall"			"14"
					"visible"		"1"
					"enabled"		"1"
					"scaleImage"	"1"
				}				
			}		
		}
		
		"CloseButton"
		{
			"ControlName"	"CExImageButton"
			"fieldName"		"CloseButton"
			"xpos"			"230"
			"ypos"			"5"
			"zpos"			"10"
			"wide"			"14"
			"tall"			"14"
			"autoResize"	"0"
			"pinCorner"		"0"
			"visible"		"1"
			"enabled"		"1"
			"tabPosition"	"0"
			"labeltext"		""
			"font"			"HudFontSmallBold"
			"textAlignment"	"center"
			"dulltext"		"0"
			"brighttext"	"0"
			"default"		"1"
			"sound_depressed"	"UI/buttonclick.wav"
			"sound_released"	"UI/buttonclickrelease.wav"
			"Command"		"close"
			
			"paintbackground"	"0"
			
			"defaultFgColor_override" "46 43 42 255"
			"armedFgColor_override" "235 226 202 255"
			"depressedFgColor_override" "46 43 42 255"
			
			"image_drawcolor"	"117 107 94 255"
			"image_armedcolor"	"200 80 60 255"
			"SubImage"
			{
				"ControlName"	"ImagePanel"
				"fieldName"		"SubImage"
				"xpos"			"0"
				"ypos"			"0"
				"zpos"			"1"
				"wide"			"14"
				"tall"			"14"
				"visible"		"1"
				"enabled"		"1"
				"image"			"close_button"
				"scaleImage"	"1"
			}				
		}		
	}	
	
	"PracticeHighlight"
	{
		"ControlName"	"CExplanationPopup"
		"fieldName"		"PracticeHighlight"
		"zpos"			"100"
		"wide"			"250"
		"tall"			"120"
		"visible"		"0"
		"PaintBackgroundType"	"2"
		"paintbackground" "0"
		"border"		"MainMenuHighlightBorder"
		
		"start_x"		"c-85"
		"start_y"		"185"
		"start_wide"	"1"
		"start_tall"	"1"
		"end_x"			"c20"
		"end_y"			"120"
		"end_wide"		"250"
		"end_tall"		"120"
		"callout_inparents_x"	"c-40"
		"callout_inparents_y"	"195"
		
		"TitleLabel"
		{
			"ControlName"	"CExLabel"
			"fieldName"		"TitleLabel"
			"font"			"HudFontSmallBold"
			"labelText"		"#MMenu_PracticeHighlight_Title"
			"textAlignment"	"center"
			"xpos"			"20"
			"ypos"			"10"
			"wide"			"210"
			"tall"			"50"
			"autoResize"	"0"
			"pinCorner"		"0"
			"visible"		"1"
			"enabled"		"1"
			"wrap"			"1"
			"fgcolor_override" "46 43 42 255"
		}
		
		"TextLabel"
		{
			"ControlName"	"CExLabel"
			"fieldName"		"TextLabel"
			"font"			"HudFontSmall"
			"labelText"		"#MMenu_PracticeHighlight_Text"
			"textAlignment"	"south-west"
			"xpos"			"20"
			"ypos"			"50"
			"wide"			"210"
			"tall"			"30"
			"autoResize"	"0"
			"pinCorner"		"0"
			"visible"		"1"
			"enabled"		"1"
			"fgcolor_override" "46 43 42 255"
		}
		
		"PracticeHighlightButton"
		{
			"ControlName"	"EditablePanel"
			"fieldname"		"PracticeHighlightButton"
			"xpos"			"10"
			"ypos"			"85"
			"wide"			"230"
			"tall"			"26"
			"visible"		"1"
			
			"SubButton"
			{
				"ControlName"	"CExImageButton"
				"fieldName"		"SubButton"
				"xpos"			"0"
				"ypos"			"0"
				"wide"			"230"
				"tall"			"26"
				"autoResize"	"0"
				"pinCorner"		"3"
				"visible"		"1"
				"enabled"		"1"
				"tabPosition"	"0"
				"labeltext"		"#MMenu_PracticeHighlight_Button"
				"font"			"HudFontSmallBold"
				"textAlignment"	"center"
				"dulltext"		"0"
				"brighttext"	"0"
				"default"		"1"
				"sound_depressed"	"UI/buttonclick.wav"
				"sound_released"	"UI/buttonclickrelease.wav"
				"Command"		"offlinepractice"
				
				"border_default"	"MainMenuButtonDefault"
				"border_armed"		"MainMenuButtonArmed"
				"paintbackground"	"0"
				
				"defaultFgColor_override" "46 43 42 255"
				"armedFgColor_override" "235 226 202 255"
				"depressedFgColor_override" "46 43 42 255"
				
				"image_drawcolor"	"117 107 94 255"
				"image_armedcolor"	"235 226 202 255"
				"SubImage"
				{
					"ControlName"	"ImagePanel"
					"fieldName"		"SubImage"
					"xpos"			"6"
					"ypos"			"6"
					"zpos"			"1"
					"wide"			"14"
					"tall"			"14"
					"visible"		"1"
					"enabled"		"1"
					"scaleImage"	"1"
				}				
			}		
		}
		
		"CloseButton"
		{
			"ControlName"	"CExImageButton"
			"fieldName"		"CloseButton"
			"xpos"			"230"
			"ypos"			"5"
			"zpos"			"10"
			"wide"			"14"
			"tall"			"14"
			"autoResize"	"0"
			"pinCorner"		"0"
			"visible"		"1"
			"enabled"		"1"
			"tabPosition"	"0"
			"labeltext"		""
			"font"			"HudFontSmallBold"
			"textAlignment"	"center"
			"dulltext"		"0"
			"brighttext"	"0"
			"default"		"1"
			"sound_depressed"	"UI/buttonclick.wav"
			"sound_released"	"UI/buttonclickrelease.wav"
			"Command"		"close"
			
			"paintbackground"	"0"
			
			"defaultFgColor_override" "46 43 42 255"
			"armedFgColor_override" "235 226 202 255"
			"depressedFgColor_override" "46 43 42 255"
			
			"image_drawcolor"	"117 107 94 255"
			"image_armedcolor"	"200 80 60 255"
			"SubImage"
			{
				"ControlName"	"ImagePanel"
				"fieldName"		"SubImage"
				"xpos"			"0"
				"ypos"			"0"
				"zpos"			"1"
				"wide"			"14"
				"tall"			"14"
				"visible"		"1"
				"enabled"		"1"
				"image"			"close_button"
				"scaleImage"	"1"
			}				
		}		
	}	
	
	"NewUserForumHighlight"
	{
		"ControlName"	"CExplanationPopup"
		"fieldName"		"NewUserForumHighlight"
		"xpos"			"c-55"
		"ypos"			"280"
		"zpos"			"100"
		"wide"			"250"
		"tall"			"120"
		"visible"		"0"
		"PaintBackgroundType"	"2"
		"paintbackground" "0"
		"border"		"MainMenuHighlightBorder"
		
		"start_x"		"c-112"
		"start_y"		"437"
		"start_wide"	"1"
		"start_tall"	"1"
		"end_x"			"c-205"
		"end_y"			"280"
		"end_wide"		"250"
		"end_tall"		"120"
		"callout_inparents_x"	"c-116"
		"callout_inparents_y"	"437"
		
		"TitleLabel"
		{
			"ControlName"	"CExLabel"
			"fieldName"		"TitleLabel"
			"font"			"HudFontSmallBold"
			"labelText"		"#MMenu_NewUserForumHighlight_Title"
			"textAlignment"	"north-west"
			"xpos"			"10"
			"ypos"			"10"
			"wide"			"210"
			"tall"			"20"
			"autoResize"	"0"
			"pinCorner"		"0"
			"visible"		"1"
			"enabled"		"1"
			"wrap"			"1"
			"fgcolor_override" "46 43 42 255"
		}
		
		"TextLabel"
		{
			"ControlName"	"CExLabel"
			"fieldName"		"TextLabel"
			"font"			"HudFontSmall"
			"labelText"		"#MMenu_NewUserForumHighlight_Text"
			"textAlignment"	"north-west"
			"xpos"			"20"
			"ypos"			"30"
			"wide"			"210"
			"tall"			"90"
			"autoResize"	"0"
			"pinCorner"		"0"
			"visible"		"1"
			"enabled"		"1"
			"wrap"			"1"
			"fgcolor_override" "46 43 42 255"
		}
		
		"CloseButton"
		{
			"ControlName"	"CExImageButton"
			"fieldName"		"CloseButton"
			"xpos"			"230"
			"ypos"			"5"
			"zpos"			"10"
			"wide"			"14"
			"tall"			"14"
			"autoResize"	"0"
			"pinCorner"		"0"
			"visible"		"1"
			"enabled"		"1"
			"tabPosition"	"0"
			"labeltext"		""
			"font"			"HudFontSmallBold"
			"textAlignment"	"center"
			"dulltext"		"0"
			"brighttext"	"0"
			"default"		"1"
			"sound_depressed"	"UI/buttonclick.wav"
			"sound_released"	"UI/buttonclickrelease.wav"
			"Command"		"close"
			
			"paintbackground"	"0"
			
			"defaultFgColor_override" "46 43 42 255"
			"armedFgColor_override" "235 226 202 255"
			"depressedFgColor_override" "46 43 42 255"
			
			"image_drawcolor"	"117 107 94 255"
			"image_armedcolor"	"200 80 60 255"
			"SubImage"
			{
				"ControlName"	"ImagePanel"
				"fieldName"		"SubImage"
				"xpos"			"0"
				"ypos"			"0"
				"zpos"			"1"
				"wide"			"14"
				"tall"			"14"
				"visible"		"1"
				"enabled"		"1"
				"image"			"close_button"
				"scaleImage"	"1"
			}				
		}		
	}	
	
	"OptionsHighlightPanel"
	{
		"ControlName"	"CExplanationPopup"
		"fieldName"		"OptionsHighlightPanel"
		"xpos"			"c-55"
		"ypos"			"280"
		"zpos"			"100"
		"wide"			"250"
		"tall"			"120"
		"visible"		"0"
		"PaintBackgroundType"	"2"
		"paintbackground" "0"
		"border"		"MainMenuHighlightBorder"
		
		"start_x"		"c238"
		"start_y"		"437"
		"start_wide"	"1"
		"start_tall"	"1"
		"end_x"			"c55"
		"end_y"			"280"
		"end_wide"		"250"
		"end_tall"		"120"
		"callout_inparents_x"	"c240"
		"callout_inparents_y"	"437"
		
		"TitleLabel"
		{
			"ControlName"	"CExLabel"
			"fieldName"		"TitleLabel"
			"font"			"HudFontSmallBold"
			"labelText"		"#MMenu_OptionsHighlightPanel_Title"
			"textAlignment"	"north-west"
			"xpos"			"10"
			"ypos"			"10"
			"wide"			"210"
			"tall"			"20"
			"autoResize"	"0"
			"pinCorner"		"0"
			"visible"		"1"
			"enabled"		"1"
			"wrap"			"1"
			"fgcolor_override" "46 43 42 255"
		}
		
		"TextLabel"
		{
			"ControlName"	"CExLabel"
			"fieldName"		"TextLabel"
			"font"			"HudFontSmall"
			"labelText"		"#MMenu_OptionsHighlightPanel_Text"
			"textAlignment"	"north-west"
			"xpos"			"20"
			"ypos"			"30"
			"wide"			"210"
			"tall"			"90"
			"autoResize"	"0"
			"pinCorner"		"0"
			"visible"		"1"
			"enabled"		"1"
			"wrap"			"1"
			"fgcolor_override" "46 43 42 255"
		}
		
		"CloseButton"
		{
			"ControlName"	"CExImageButton"
			"fieldName"		"CloseButton"
			"xpos"			"230"
			"ypos"			"5"
			"zpos"			"10"
			"wide"			"14"
			"tall"			"14"
			"autoResize"	"0"
			"pinCorner"		"0"
			"visible"		"1"
			"enabled"		"1"
			"tabPosition"	"0"
			"labeltext"		""
			"font"			"HudFontSmallBold"
			"textAlignment"	"center"
			"dulltext"		"0"
			"brighttext"	"0"
			"default"		"1"
			"sound_depressed"	"UI/buttonclick.wav"
			"sound_released"	"UI/buttonclickrelease.wav"
			"Command"		"close"
			
			"paintbackground"	"0"
			
			"defaultFgColor_override" "46 43 42 255"
			"armedFgColor_override" "235 226 202 255"
			"depressedFgColor_override" "46 43 42 255"
			
			"image_drawcolor"	"117 107 94 255"
			"image_armedcolor"	"200 80 60 255"
			"SubImage"
			{
				"ControlName"	"ImagePanel"
				"fieldName"		"SubImage"
				"xpos"			"0"
				"ypos"			"0"
				"zpos"			"1"
				"wide"			"14"
				"tall"			"14"
				"visible"		"1"
				"enabled"		"1"
				"image"			"close_button"
				"scaleImage"	"1"
			}				
		}		
	}
	
	"LoadoutHighlightPanel"
	{
		"ControlName"	"CExplanationPopup"
		"fieldName"		"LoadoutHighlightPanel"
		"xpos"			"c-55"
		"ypos"			"280"
		"zpos"			"100"
		"wide"			"250"
		"tall"			"120"
		"visible"		"0"
		"PaintBackgroundType"	"2"
		"paintbackground" "0"
		"border"		"MainMenuHighlightBorder"
		
		"start_x"		"c-190"
		"start_y"		"267"
		"start_wide"	"1"
		"start_tall"	"1"
		"end_x"			"c-125"
		"end_y"			"180"
		"end_wide"		"250"
		"end_tall"		"220"
		"callout_inparents_x"	"c-163"
		"callout_inparents_y"	"267"
		
		"TitleLabel"
		{
			"ControlName"	"CExLabel"
			"fieldName"		"TitleLabel"
			"font"			"HudFontSmallBold"
			"labelText"		"#MMenu_LoadoutHighlightPanel_Title"
			"textAlignment"	"north-west"
			"xpos"			"10"
			"ypos"			"10"
			"wide"			"210"
			"tall"			"20"
			"autoResize"	"0"
			"pinCorner"		"0"
			"visible"		"1"
			"enabled"		"1"
			"wrap"			"1"
			"fgcolor_override" "46 43 42 255"
		}
		
		"TextLabel"
		{
			"ControlName"	"CExLabel"
			"fieldName"		"TextLabel"
			"font"			"HudFontSmall"
			"labelText"		"#MMenu_LoadoutHighlightPanel_Text"
			"textAlignment"	"north-west"
			"xpos"			"20"
			"ypos"			"30"
			"wide"			"210"
			"tall"			"190"
			"autoResize"	"0"
			"pinCorner"		"0"
			"visible"		"1"
			"enabled"		"1"
			"wrap"			"1"
			"fgcolor_override" "46 43 42 255"
		}
		
		"CloseButton"
		{
			"ControlName"	"CExImageButton"
			"fieldName"		"CloseButton"
			"xpos"			"230"
			"ypos"			"5"
			"zpos"			"10"
			"wide"			"14"
			"tall"			"14"
			"autoResize"	"0"
			"pinCorner"		"0"
			"visible"		"1"
			"enabled"		"1"
			"tabPosition"	"0"
			"labeltext"		""
			"font"			"HudFontSmallBold"
			"textAlignment"	"center"
			"dulltext"		"0"
			"brighttext"	"0"
			"default"		"1"
			"sound_depressed"	"UI/buttonclick.wav"
			"sound_released"	"UI/buttonclickrelease.wav"
			"Command"		"close"
			
			"paintbackground"	"0"
			
			"defaultFgColor_override" "46 43 42 255"
			"armedFgColor_override" "235 226 202 255"
			"depressedFgColor_override" "46 43 42 255"
			
			"image_drawcolor"	"117 107 94 255"
			"image_armedcolor"	"200 80 60 255"
			"SubImage"
			{
				"ControlName"	"ImagePanel"
				"fieldName"		"SubImage"
				"xpos"			"0"
				"ypos"			"0"
				"zpos"			"1"
				"wide"			"14"
				"tall"			"14"
				"visible"		"1"
				"enabled"		"1"
				"image"			"close_button"
				"scaleImage"	"1"
			}				
		}		
	}

	"StoreHighlightPanel"
	{
		"ControlName"	"CExplanationPopup"
		"fieldName"		"StoreHighlightPanel"
		"xpos"			"c0"
		"ypos"			"300"
		"zpos"			"100"
		"wide"			"250"
		"tall"			"60"
		"visible"		"0"
		"PaintBackgroundType"	"2"
		"paintbackground" "0"
		"border"		"MainMenuHighlightBorder"
		
		"start_x"		"c20"
		"start_y"		"285"
		"start_wide"	"250"
		"start_tall"	"125"
		"end_x"			"c20"
		"end_y"			"285"
		"end_wide"		"250"
		"end_tall"		"125"
		"callout_inparents_x"	"c-40"
		"callout_inparents_y"	"267"
		
		"TitleLabel"
		{
			"ControlName"	"CExLabel"
			"fieldName"		"TitleLabel"
			"font"			"HudFontSmallBold"
			"labelText"		"#MMenu_StoreHighlightPanel_Title"
			"textAlignment"	"north-west"
			"xpos"			"10"
			"ypos"			"10"
			"wide"			"210"
			"tall"			"20"
			"autoResize"	"0"
			"pinCorner"		"0"
			"visible"		"1"
			"enabled"		"1"
			"wrap"			"1"
			"fgcolor_override" "46 43 42 255"
		}
		
		"TextLabel"
		{
			"ControlName"	"CExLabel"
			"fieldName"		"TextLabel"
			"font"			"HudFontSmall"
			"labelText"		"%highlighttext%"
			"textAlignment"	"north-west"
			"xpos"			"20"
			"ypos"			"30"
			"wide"			"210"
			"tall"			"190"
			"autoResize"	"0"
			"pinCorner"		"0"
			"visible"		"1"
			"enabled"		"1"
			"wrap"			"1"
			"fgcolor_override" "46 43 42 255"
		}
		
		"CloseButton"
		{
			"ControlName"	"CExImageButton"
			"fieldName"		"CloseButton"
			"xpos"			"230"
			"ypos"			"5"
			"zpos"			"10"
			"wide"			"14"
			"tall"			"14"
			"autoResize"	"0"
			"pinCorner"		"0"
			"visible"		"1"
			"enabled"		"1"
			"tabPosition"	"0"
			"labeltext"		""
			"font"			"HudFontSmallBold"
			"textAlignment"	"center"
			"dulltext"		"0"
			"brighttext"	"0"
			"default"		"1"
			"sound_depressed"	"UI/buttonclick.wav"
			"sound_released"	"UI/buttonclickrelease.wav"
			"Command"		"close"
			
			"paintbackground"	"0"
			
			"defaultFgColor_override" "46 43 42 255"
			"armedFgColor_override" "235 226 202 255"
			"depressedFgColor_override" "46 43 42 255"
			
			"image_drawcolor"	"117 107 94 255"
			"image_armedcolor"	"200 80 60 255"
			"SubImage"
			{
				"ControlName"	"ImagePanel"
				"fieldName"		"SubImage"
				"xpos"			"0"
				"ypos"			"0"
				"zpos"			"1"
				"wide"			"14"
				"tall"			"14"
				"visible"		"1"
				"enabled"		"1"
				"image"			"close_button"
				"scaleImage"	"1"
			}				
		}		
	}

}
