"Resource/UI/MapInfoMenu.res"
{
	"mapinfo"
	{
		"ControlName"	"Frame"
		"fieldName"		"mapinfo"
		"xpos"			"0"
		"ypos"			"0"
		"zpos"			"0"
		"wide"			"f0"
		"tall"			"480"
		"autoResize"	"1"
		"pinCorner"		"0"
		"visible"		"1"
		"enabled"		"1"
	}
	
	"MapInfoTitle"
	{
		"ControlName"	"CExLabel"
		"fieldName"		"MapInfoTitle"
		"xpos"			"c-210"
		"ypos"			"90"
		"zpos"			"1"
		"wide"			"250"
		"tall"			"24"
		"autoResize"	"0"
		"pinCorner"		"0"
		"visible"		"1"
		"enabled"		"1"
		"labelText"		"%mapname%"
		"textAlignment"	"west"
		"font"			"HudFontMediumBold"
		"fgcolor"		"White"
	}
	
	"MapInfoType"
	{
		"ControlName"	"CExLabel"
		"fieldName"		"MapInfoType"
		"xpos"			"c-205"
		"ypos"			"118"
		"zpos"			"1"
		"wide"			"225"
		"tall"			"24"
		"autoResize"	"0"
		"pinCorner"		"0"
		"visible"		"1"
		"enabled"		"1"
		"labelText"		"%gamemode%"
		"textAlignment"	"west"
		"font"			"HudFontsmallBold"
		"fgcolor"		"Gray"
	}	
	
	"MapInfoText"
	{
		"ControlName"	"CExRichText"
		"fieldName"		"MapInfoText"
		"font"			"HudFontsmallest"
		"xpos"			"c-209"
		"ypos"			"160"
		"zpos"			"3"
		"wide"			"200"
		"tall"			"200"
		"autoResize"	"3"
		"pinCorner"		"0"
		"visible"		"1"
		"enabled"		"1"
		"paintborder"	"0"
		"textAlignment"	"northwest"
		"fgcolor"		"white"
	}
	
	"MapImage"
	{
		"ControlName"	"ImagePanel"
		"fieldName"		"MapImage"
		"xpos"			"c0"
		"ypos"			"75"
		"zpos"			"2"
		"wide"			"275"
		"tall"			"275"
		"visible"		"0"
		"enabled"		"1"
		"image"			""
		"scaleImage"	"1"		
	}

	"MapInfoContinue"
	{
		"ControlName"	"CExButton"
		"fieldName"		"ok"
		"xpos"			"c105"
		"ypos"			"r105"
		"zpos"			"6"
		"wide"			"100"
		"tall"			"20"
		"autoResize"	"0"
		"pinCorner"		"2"
		"visible"		"1"
		"enabled"		"1"
		"tabPosition"	"0"
		"labelText"		"#TF_Continue"
		"textAlignment"	"center"
		"dulltext"		"0"
		"brighttext"	"0"
		"wrap"			"0"
		"command"		"continue"
		"default"		"1"
		"font"			"HudFontSmallBold"		//"MenuSmallFont"
	}
	
	"MapInfoWatchIntro"
	{
		"ControlName"	"CExButton"
		"fieldName"		"MapInfoWatchIntro"
		"xpos"			"c-65"
		"ypos"			"r105"
		"zpos"			"6"
		"wide"			"130"
		"tall"			"20"
		"autoResize"	"0"
		"pinCorner"		"2"
		"visible"		"1"
		"enabled"		"1"
		"labelText"		"#TF_WatchIntro"
		"textAlignment"	"center"
		"dulltext"		"0"
		"brighttext"	"0"
		"command"		"intro"
		"default"		"1"
		"font"			"HudFontSmallBold"		//"MenuSmallFont"
		//"fgcolor"		"Black"

		"defaultbgcolor_override"		"75 75 75 255"
		
		"sound_released"	"UI/projector_screen_down.wav"
	}
	
	"MapInfoBack"
	{
		"ControlName"	"CExButton"
		"fieldName"		"MapInfoBack"
		"xpos"			"c-205"
		"ypos"			"r105"
		"zpos"			"6"
		"wide"			"100"
		"tall"			"20"
		"autoResize"	"0"
		"pinCorner"		"2"
		"visible"		"1"
		"enabled"		"1"
		"labelText"		"#TF_Back"
		"textAlignment"	"center"
		"dulltext"		"0"
		"brighttext"	"0"
		"command"		"back"
		"font"			"HudFontSmallBold"		//"MenuSmallFont"
	}
	
	"MenuBG"
	{
		"ControlName"	"CTFImagePanel"
		"fieldName"		"MenuBG"
		"xpos"			"c-230"
		"ypos"			"60"
		"zpos"			"1"
		"wide"			"460"
		"tall"	 		"350"
		"visible"		"1"
		"enabled"		"1"
		"image"			"../hud/color_panel_brown"
		"scaleImage"	"1"
		
		"src_corner_height"		"60"		// pixels inside the image
		"src_corner_width"		"60"
		
		"draw_corner_width"		"10"		// screen size of the corners ( and sides ), proportional
		"draw_corner_height" 	"10"
	}					

	"ShadedBar"
	{
		"ControlName"	"ImagePanel"
		"fieldName"		"ShadedBar"
		"xpos"			"9999"
		"ypos"			"r50"
		"zpos"			"5"
		"wide"			"f0"
		"tall"			"50"
		"autoResize"	"0"
		"pinCorner"		"0"
		"visible"		"0"
		"enabled"		"0"
		"tabPosition"	"0"	
		"fillcolor"		"0 0 0 180"
		"PaintBackgroundType"	"0"
	}
}
