"Resource/UI/Scoreboard.res"
{
	"scores"
	{
		"ControlName"		"CTFClientScoreBoardDialog"
		"fieldName"			"scoreinfo"
		"xpos"			"c-300"
		"ypos"			"0"
		"ypos_minmode"		"28"
		"wide"			"600"
		"tall"			"476"
		"tall_minmode"		"438"
		"autoResize"		"0"
		"pinCorner"			"0"
		"visible"			"1"
		"enabled"			"1"
		"tabPosition"		"0"
		"avatar_width"		"57"
		"name_width"		"100"
		"status_width"		"15"
		"nemesis_width"		"15"
		"class_width"		"15"
		"score_width"		"25"
		"ping_width"		"23"
	}
	"BlueScoreBG"
	{
		"ControlName"		"ScalableImagePanel"
		"fieldName"			"BlueScoreBG"
		"xpos"			"45"
		"xpos_minmode"		"0"
		"ypos"			"85"
		"ypos_minmode"		"82"
		"wide"			"254"
		"tall"			"20"
		"tall_minmode"		"18"
		"autoResize"		"0"
		"pinCorner"			"0"
		"visible"			"1"
		"enabled"			"1"
		"image"			"../hud/color_panel_blu"
		"src_corner_height"	"23"
		"src_corner_width"	"23"
		"draw_corner_width"	"3"
		"draw_corner_height" 	"3"

		if_mvm
		{
			"visible"		"0"
		}
	}
	"RedScoreBG"
	{
		"ControlName"		"ScalableImagePanel"
		"fieldName"			"RedScoreBG"
		"xpos"			"299"
		"xpos_minmode"		"0"
		"ypos"			"85"
		"ypos_minmode"		"295"
		"wide"			"256"
		"wide_minmode"		"254"
		"tall"			"20"
		"tall_minmode"		"18"
		"autoResize"		"0"
		"pinCorner"			"0"
		"visible"			"1"
		"enabled"			"1"
		"image"			"../hud/color_panel_red"
		"src_corner_height"	"23"
		"src_corner_width"	"23"
		"draw_corner_width"	"3"
		"draw_corner_height" 	"3"

		if_mvm
		{
			"visible"		"0"
		}
	}
	"MainBG"
	{
		"ControlName"		"ScalableImagePanel"
		"fieldName"			"MainBG"
		"xpos"			"45"
		"xpos_minmode"		"0"
		"ypos"			"105"
		"ypos_minmode"		"100"
		"zpos"			"0"
		"wide"			"510"
		"wide_minmode"		"254"
		"tall"			"245"
		"tall_minmode"		"195"
		"autoResize"		"0"
		"pinCorner"			"0"
		"visible"			"1"
		"enabled"			"1"
		"image"			"../hud/color_panel_brown"
		"src_corner_height"	"23"				// pixels inside the image
		"src_corner_width"	"23"
		"draw_corner_width"	"3"				// screen size of the corners ( and sides ), proportional
		"draw_corner_height" 	"3"	
		"scaleImage"		"1"

		if_mvm
		{
			"visible"		"0"
		}
	}		
						
	"BlueTeamLabel"
	{
		"ControlName"		"CExLabel"
		"fieldName"			"BlueTeamLabel"
		"font"			"m0refont16"
		"font_minmode"		"m0refont15"
		"fgcolor" 			"255 255 255 255"
		"labelText"			"%blueteamname%"
		"textAlignment"		"west"
		"xpos"			"50"
		"xpos_minmode"		"5"
		"ypos"			"86"
		"ypos_minmode"		"82"
		"wide"			"140"
		"tall"			"18"
		"autoResize"		"0"
		"pinCorner"			"0"
		"visible"			"1"
		"enabled"			"1"

		if_mvm
		{
			"visible"		"0"
		}
	}							
	"BlueTeamScore"
	{
		"ControlName"		"CExLabel"
		"fieldName"			"BlueTeamScore"
		"font"			"m0refont46"
		"fgcolor"			"255 255 255 255"
		"labelText"			"%blueteamscore%"
		"textAlignment"		"east"
		"xpos"			"189"
		"xpos_minmode"		"144"
		"ypos"			"59"
		"ypos_minmode"		"56"
		"zpos"			"4"
		"wide"			"100"
		"tall"			"45"
		"autoResize"		"0"
		"pinCorner"			"0"
		"visible"			"1"
		"enabled"			"1"

		if_mvm
		{
			"visible"		"0"
		}
	}
	"BlueTeamScoreDropshadow"
	{
		"ControlName"		"CExLabel"
		"fieldName"			"BlueTeamScoreDropshadow"
		"font"			"m0refont46"
		"fgcolor"			"black"
		"labelText"			"%blueteamscore%"
		"textAlignment"		"east"
		"xpos"			"190"
		"xpos_minmode"		"145"
		"ypos"			"60"
		"ypos_minmode"		"57"
		"zpos"			"4"
		"wide"			"100"
		"tall"			"45"
		"autoResize"		"0"
		"pinCorner"			"0"
		"visible"			"1"
		"enabled"			"1"

		if_mvm
		{
			"visible"		"0"
		}
	}

	"BlueTeamPlayerCount"
	{
		"ControlName"		"CExLabel"
		"fieldName"			"BlueTeamPlayerCount"
		"font"			"m0refont16"
		"font_minmode"		"m0refont15"
		"fgcolor"			"255 255 255 255"
		"labelText"			"%blueteamplayercount%"
		"textAlignment"		"east"
		"xpos"			"125"
		"xpos_minmode"		"55"
		"ypos"			"86"
		"ypos_minmode"		"82"
		"wide"			"100"
		"tall"			"18"
		"autoResize"		"0"
		"pinCorner"			"0"
		"visible"			"1"
		"enabled"			"1"

		if_mvm
		{
			"visible"		"0"
		}
	}							
	"RedTeamLabel"
	{
		"ControlName"		"CExLabel"
		"fieldName"			"RedTeamLabel"
		"font"			"m0refont16"
		"font_minmode"		"m0refont15"
		"fgcolor" 			"255 255 255 255"
		"labelText"			"%redteamname%"
		"textAlignment"		"east"
		"textAlignment_minmode"	"west"
		"xpos"			"410"
		"xpos_minmode"		"5"
		"ypos"			"86"
		"ypos_minmode"		"295"
		"wide"			"140"
		"tall"			"18"
		"autoResize"		"0"
		"pinCorner"			"0"
		"visible"			"1"
		"enabled"			"1"

		if_mvm
		{
			"visible"		"0"
		}
	}							
	"RedTeamScore"
	{
		"ControlName"		"CExLabel"
		"fieldName"		"RedTeamScore"
		"font"			"m0refont46"
		"fgcolor" "255 255 255 255"
		"labelText"		"%redteamscore%"
		"textAlignment"		"west"
		"textAlignment_minmode"	"east"
		"xpos"			"310"
		"xpos_minmode"		"143"
		"ypos"			"59"
		"ypos_minmode"		"285"
		"zpos"			"4"
		"wide"			"100"
		"tall"			"45"
		"autoResize"		"0"
		"pinCorner"			"0"
		"visible"			"1"
		"enabled"			"1"

		if_mvm
		{
			"visible"		"0"
		}
	}
	"RedTeamScoreDropshadow"
	{
		"ControlName"		"CExLabel"
		"fieldName"			"RedTeamScoreDropshadow"
		"font"			"m0refont46"
		"fgcolor" 			"black"
		"labelText"			"%redteamscore%"
		"textAlignment"		"west"
		"textAlignment_minmode"	"east"
		"xpos"			"311"
		"xpos_minmode"		"144"
		"ypos"			"60"
		"ypos_minmode"		"286"
		"zpos"			"4"
		"wide"			"100"
		"tall"			"45"
		"autoResize"		"0"
		"pinCorner"			"0"
		"visible"			"1"
		"enabled"			"1"

		if_mvm
		{
			"visible"		"0"
		}
	}

	"RedTeamPlayerCount"
	{
		"ControlName"		"CExLabel"
		"fieldName"			"RedTeamPlayerCount"
		"font"			"m0refont16"
		"font_minmode"		"m0refont15"
		"fgcolor" 			"255 255 255 255"
		"labelText"			"%redteamplayercount%"
		"textAlignment"		"west"
		"textAlignment_minmode"	"east"
		"xpos"			"375"
		"xpos_minmode"		"55"
		"ypos"			"86"
		"ypos_minmode"		"295"
		"wide"			"100"
		"tall"			"18"
		"autoResize"		"0"
		"pinCorner"			"0"
		"visible"			"1"
		"enabled"			"1"

		if_mvm
		{
			"visible"		"0"
		}
	}									
	"ServerLabel"
	{
		"ControlName"		"CExLabel"
		"fieldName"			"ServerLabel"
		"font"			"m0refont9"
		"fgcolor" 			"255 255 255 255"
		"labelText"			"%server%"
		"textAlignment"		"west"
		"xpos"			"46"
		"xpos_minmode"		"1"
		"ypos"			"73"
		"ypos_minmode"		"69"
		"zpos"			"-10"
		"wide"			"211"
		"tall"			"15"
		"autoResize"		"0"
		"pinCorner"			"0"
		"visible"			"1"
		"enabled"			"1"

		if_mvm
		{
			"visible"		"0"
		}
	}
	"ServerTimeLeft"
	{
		"ControlName"		"CExLabel"
		"fieldName"			"ServerTimeLeft"
		"font"			"m0refont10"
		"font_minmode"		"m0refont14"
		"fgcolor" 			"255 255 255 255"
		"labelText"			"%servertimeleft%"
		"textAlignment"		"east"
		"textAlignment_minmode"	"west"
		"xpos"			"253"
		"xpos_minmode"		"1"
		"ypos"			"72"
		"ypos_minmode"		"50"
		"wide"			"300"
		"tall"			"15"
		"autoResize"		"0"
		"pinCorner"			"0"
		"visible"			"1"
		"enabled"			"1"

		if_mvm
		{
			"visible"		"0"
		}
	}							
	"BluePlayerList"
	{
		"ControlName"		"SectionedListPanel"
		"fieldName"			"BluePlayerList"
		"xpos"			"45"
		"xpos_minmode"		"0"
		"ypos"			"105"
		"ypos_minmode"		"98"
		"zpos"			"20"
		"wide"			"255"
		"tall"			"231"
		"tall_minmode"		"101"
		"pinCorner"			"0"
		"visible"			"1"
		"enabled"			"1"
		"tabPosition"		"0"
		"autoresize"		"3"
		"linespacing"		"14"
		"fgcolor"			"blue"

		if_mvm
		{
			"visible"		"0"
		}
	}
	"RedPlayerList"
	{
		"ControlName"		"SectionedListPanel"
		"fieldName"			"RedPlayerList"
		"xpos"			"300"
		"xpos_minmode"		"0"
		"ypos"			"105"
		"ypos_minmode"		"193"
		"zpos"			"20"
		"wide"			"255"
		"tall"			"231"
		"tall_minmode"		"103"
		"pinCorner"			"0"
		"visible"			"1"
		"enabled"			"1"
		"tabPosition"		"0"
		"autoresize"		"3"
		"linespacing"		"14"
		"textcolor"			"red"

		if_mvm
		{
			"visible"		"0"
		}
	}
	"VerticalLine"
	{
		"ControlName"		"ImagePanel"
		"fieldName"			"VerticalLine"
		"xpos"			"299"
		"xpos_minmode"		"254"
		"ypos"			"40"
		"ypos_minmode"		"70"
		"zpos"			"2"
		"wide"			"0"
		"tall"			"322"
		"tall_minmode"		"292"
		"autoResize"		"0"
		"pinCorner"			"0"
		"visible"			"1"
		"enabled"			"1"
		"tabPosition"		"0"	
		"fillcolor"			"0 0 0 153"
		"PaintBackgroundType"	"0"
		if_mvm
		{
			"visible"		"0"
		}
	}
	"Spectators"
	{
		"ControlName"		"CExLabel"
		"fieldName"			"Spectators"
		"font"			"m0refont9"
		"fgcolor" 			"255 255 255 255"
		"labelText"			"%spectators%"
		"textAlignment"		"west"
		"xpos"			"51"
		"xpos_minmode"		"2"
		"ypos"			"333"
		"ypos_minmode"		"389"
		"zpos"			"4"
		"wide"			"424"
		"wide_minmode"		"251"
		"tall"			"20"
		"autoResize"		"1"
		"pinCorner"			"0"
		"visible"			"1"
		"enabled"			"1"
	}	
	"SpectatorsInQueue"
	{
		"ControlName"		"CExLabel"
		"fieldName"			"SpectatorsInQueue"
		"font"			"m0refont9"
		"labelText"			"%waitingtoplay%"
		"`textAlignment"		"west"
		"xpos"			"48"
		"xpos_minmode"		"2"
		"ypos"			"395"
		"ypos_minmode"		"401"
		"zpos"			"4"
		"wide"			"424"
		"wide_minmode"		"251"
		"tall"			"20"
		"autoResize"		"1"
		"pinCorner"			"0"
		"visible"			"1"
		"enabled"			"1"
	}							

	"ClassImage"
	{
		"ControlName"		"ImagePanel"
		"fieldName"			"ClassImage"
		"xpos"			"75"
		"ypos"			"352"
		"zpos"			"3"
		"wide"			"0"	//46
		"tall"			"46"
		"visible"			"1"
		"enabled"			"1"
		"image"			"../hud/class_scoutred"
		"scaleImage"		"1"	
	}
	"PlayerNameLabel"
	{
		"ControlName"		"CExLabel"
		"fieldName"			"PlayerNameLabel"
		"font"			"ScoreboardMedium"
		"labelText"			"%playername%"
		"textAlignment"		"west"
		"xpos"			"115"
		"ypos"			"377"
		"zpos"			"3"
		"wide"			"0"
		"tall"			"20"
		"autoResize"		"0"
		"pinCorner"			"0"
		"visible"			"1"
		"enabled"			"1"
	}							
	"HorizontalLine"
	{
		"ControlName"		"ImagePanel"
		"fieldName"			"HorizontalLine"
		"xpos"			"115"
		"ypos"			"397"
		"zpos"			"3"
		"wide"			"0"
		"tall"			"1"
		"autoResize"		"0"
		"pinCorner"			"0"
		"visible"			"1"
		"enabled"			"1"
		"tabPosition"		"0"	
		"fillcolor"			"127 127 127 153"
		"PaintBackgroundType"	"0"
	}
	"PlayerScoreLabel"
	{
		"ControlName"		"CExLabel"
		"fieldName"			"PlayerScoreLabel"
		"font"			"ScoreboardMedium"
		"labelText"			"%playerscore%"
		"textAlignment"		"east"
		"xpos"			"440"
		"ypos"			"377"
		"ypos_minmode"		"369"
		"zpos"			"3"
		"wide"			"0"
		"tall"			"0"
		"autoResize"		"0"
		"pinCorner"			"0"
		"visible"			"1"
		"enabled"			"1"
	}

	"LocalPlayerDuelStatsPanel"
	{
		"ControlName"		"EditablePanel"
		"fieldName"			"LocalPlayerDuelStatsPanel"
		"xpos"			"0"
		"ypos"			"350"
		"ypos_minmode"		"328"
		"zpos"			"3"
		"wide"			"600"
		"wide_minmode"		"254"
		"tall"			"53"
		"tall_minmode"		"153"
		"autoResize"		"0"
		"pinCorner"			"0"
		"visible"			"1"
		"enabled"			"1"

		"DuelingLabel"
		{
			"ControlName"		"CExLabel"
			"fieldName"			"DuelingLabel"
			"font"			"ScoreboardSmall"
			"font_minmode"		"m0refont11"
			"labelText"			"#TF_ScoreBoard_Dueling"
			"textAlignment"		"center"
			"xpos"			"250"
			"xpos_minmode"		"78"
			"ypos"			"2"
			"ypos_minmode"		"4"
			"zpos"			"3"
			"wide"			"0"
			"wide_minmode"		"100"
			"tall"			"20"
			"autoResize"		"0"
			"pinCorner"			"0"
			"visible"			"1"
			"enabled"			"1"
		}

		"DuelingIcon"
		{
			"ControlName"		"ImagePanel"
			"fieldName"			"DuelingIcon"
			"xpos"			"284"
			"xpos_minmode"		"111"
			"ypos"			"9"
			"ypos_minmode"		"17"
			"zpos"			"2"
			"wide"			"32"
			"tall"			"32"
			"visible"			"1"
			"enabled"			"1"
			"image"			"../backpack/player/items/crafting/icon_dueling"
			"scaleImage"		"1"
		}

		"LocalPlayerData"
		{
			"ControlName"		"EditablePanel"
			"fieldName"			"LocalPlayerData"
			"xpos"			"75"
			"xpos_minmode"		"0"
			"ypos"			"0"
			"wide"			"200"
			"tall"			"53"
			"tall_minmode"		"153"
			"autoResize"		"0"
			"pinCorner"			"0"
			"visible"			"1"
			"enabled"			"1"
	
			"AvatarBGPanel"
			{
				"ControlName"		"EditablePanel"
				"fieldName"			"AvatarBGPanel"
				"xpos"			"157"
				"xpos_minmode"		"69"
				"ypos"			"7"
				"zpos"			"-1"
				"wide"			"36"
				"tall"			"36"
				"visible"			"1"
				"PaintBackgroundType"	"2"
				"bgcolor_override"	"117 107 94 255"
			}
			"AvatarImage"
			{
				"ControlName"		"CAvatarImagePanel"
				"fieldName"			"AvatarImage"
				"xpos"			"159"
				"xpos_minmode"		"71"
				"ypos"			"9"
				"zpos"			"0"
				"wide"			"32"
				"tall"			"32"
				"visible"			"1"
				"enabled"			"1"
				"image"			""
				"scaleImage"		"1"	
				"color_outline"		"52 48 45 255"
			}
			"AvatarTextLabel"
			{	
				"ControlName"		"CExLabel"
				"fieldName"			"AvatarTextLabel"
				"fgcolor"			"TanLight"
				"xpos"			"10"
				"xpos_minmode"		"5"
				"ypos"			"5"
				"ypos_minmode"		"45"
				"zpos"			"2"
				"wide"			"140"
				"wide_minmode"		"100"
				"tall"			"18"
				"autoResize"		"0"
				"pinCorner"			"0"
				"visible"			"1"
				"enabled"			"1"
				"wrap"			"0"
				"labelText"			"%playername%"
				"textAlignment"		"east"
				"font"			"m0refont14"
				"font_minmode"		"m0refont12"
			}
			"Score"
			{
				"ControlName"		"CExLabel"
				"fieldName"			"Score"
				"labelText"			"%score%"
				"textAlignment"		"east"
				"xpos"			"50"
				"xpos_minmode"		"-42"
				"ypos"			"23"
				"ypos_minmode"		"0"
				"zpos"			"3"
				"wide"			"100"
				"tall"			"25"
				"tall_minmode"		"50"
				"autoResize"		"0"
				"pinCorner"			"0"
				"visible"			"1"
				"enabled"			"1"
				"font"			"m0refont20"
				"font_minmode"		"m0refont40"
			}
		}

		"OpponentData"
		{
			"ControlName"		"EditablePanel"
			"fieldName"			"OpponentData"
			"xpos"			"325"
			"xpos_minmode"		"125"
			"ypos"			"0"
			"wide"			"200"
			"tall"			"53"
			"tall_minmode"		"153"
			"autoResize"		"0"
			"pinCorner"			"0"
			"visible"			"1"
			"enabled"			"1"
	
			"AvatarBGPanel"
			{
				"ControlName"		"EditablePanel"
				"fieldName"			"AvatarBGPanel"
				"xpos"			"7"
				"xpos_minmode"		"24"
				"ypos"			"7"
				"zpos"			"-1"
				"wide"			"36"
				"tall"			"36"
				"visible"			"1"
				"PaintBackgroundType"	"2"
				"bgcolor_override"	"117 107 94 255"
			}
			"AvatarImage"
			{
				"ControlName"		"CAvatarImagePanel"
				"fieldName"			"AvatarImage"
				"xpos"			"9"
				"xpos_minmode"		"26"
				"ypos"			"9"
				"zpos"			"0"
				"wide"			"32"
				"tall"			"32"
				"visible"			"1"
				"enabled"			"1"
				"image"			""
				"scaleImage"		"1"	
				"color_outline"		"52 48 45 255"
			}
			"AvatarTextLabel"
			{	
				"ControlName"		"CExLabel"
				"fieldName"			"AvatarTextLabel"
				"fgcolor"			"TanLight"
				"xpos"			"50"
				"xpos_minmode"		"23"
				"ypos"			"5"
				"ypos_minmode"		"45"
				"zpos"			"2"
				"wide"			"140"
				"wide_minmode"		"100"
				"tall"			"18"
				"autoResize"		"0"
				"pinCorner"			"0"
				"visible"			"1"
				"enabled"			"1"
				"wrap"			"0"
				"labelText"			"%playername%"
				"textAlignment"		"west"
				"font"			"m0refont14"
			}
			"Score"
			{
				"ControlName"		"CExLabel"
				"fieldName"			"Score"
				"labelText"			"%score%"
				"textAlignment"		"west"
				"xpos"			"50"
				"xpos_minmode"		"70"
				"ypos"			"23"
				"ypos_minmode"		"0"
				"zpos"			"3"
				"wide"			"200"
				"tall"			"25"
				"tall_minmode"		"50"
				"autoResize"		"0"
				"pinCorner"			"0"
				"visible"			"1"
				"enabled"			"1"
				"font"			"m0refont20"
				"font_minmode"		"m0refont40"
			}
		}		
	}
	"ShadedBar"
	{
		"ControlName"		"ScalableImagePanel"
		"fieldName"			"shadedbar"
		"xpos"			"45"
		"xpos_minmode"		"0"
		"ypos"			"350"
		"ypos_minmode"		"327"
		"zpos"			"0"
		"wide"			"510"
		"wide_minmode"		"254"
		"tall"			"50"
		"tall_minmode"		"66"
		"autoResize"		"0"
		"pinCorner"			"0"
		"visible"			"1"
		"enabled"			"1"
		"image"			"../hud/color_panel_brown"
		"src_corner_height"	"23"				// pixels inside the image
		"src_corner_width"	"23"
		"draw_corner_width"	"3"				// screen size of the corners ( and sides ), proportional
		"draw_corner_height" 	"3"	
		"scaleImage"		"1"

		if_mvm
		{
			"ypos"		"370"
		}
	}
	"LocalPlayerStatsPanel"
	{
		"ControlName"		"EditablePanel"
		"fieldName"			"LocalPlayerStatsPanel"
		"xpos"			"-76"
		"xpos_minmode"		"0"
		"ypos"			"350"
		"ypos_minmode"		"325"
		"zpos"			"3"
		"wide"			"735"
		"wide_minmode"		"535"
		"tall"			"50"
		"tall_minmode"		"200"
		"autoResize"		"0"
		"pinCorner"			"0"
		"visible"			"1"
		"enabled"			"1"

		if_mvm
		{
			"ypos"		"368"
		}

		"KillsLabel"
		{
			"ControlName"		"CExLabel"
			"fieldName"			"KillsLabel"
			"font"			"m0refont10"
			"labelText"			"#TF_ScoreBoard_KillsLabel"
			"textAlignment"		"east"
			"xpos"			"150"
			"xpos_minmode"		"30"
			"ypos"			"0"
			"ypos_minmode"		"44"
			"zpos"			"3"
			"wide"			"0"
			"tall"			"0"
			"autoResize"		"0"
			"pinCorner"			"0"
			"visible"			"1"
			"enabled"			"1"
		}						
		"Kills"
		{
			"ControlName"		"CExLabel"
			"fieldName"			"Kills"
			"font"			"m0refont32"
			"fgcolor" 			"255 255 255 255"
			"labelText"			"%kills%"
			"textAlignment"		"east"
			"xpos"			"128"
			"xpos_minmode"		"6"
			"ypos"			"6"
			"ypos_minmode"		"7"
			"zpos"			"3"
			"wide"			"45"
			"tall"			"30"
			"autoResize"		"0"
			"pinCorner"			"0"
			"visible"			"1"
			"enabled"			"1"
		}						
		"DeathsLabel"
		{
			"ControlName"		"CExLabel"
			"fieldName"			"DeathsLabel"
			"font"			"m0refont36"
			"fgcolor" 			"255 255 255 255"
			"labelText"			":"
			"textAlignment"		"west"
			"xpos"			"174"
			"xpos_minmode"		"51"
			"ypos"			"3"
			"ypos_minmode"		"6"
			"zpos"			"3"
			"wide"			"35"
			"tall"			"30"
			"autoResize"		"0"
			"pinCorner"			"0"
			"visible"			"1"
			"enabled"			"1"
		}						
		"Deaths"
		{
			"ControlName"		"CExLabel"
			"fieldName"			"Deaths"
			"font"			"m0refont32"
			"fgcolor" 			"255 255 255 255"
			"labelText"			"%deaths%"
			"textAlignment"		"west"
			"xpos"			"182"
			"xpos_minmode"		"60"
			"ypos"			"6"
			"ypos_minmode"		"7"
			"zpos"			"3"
			"wide"			"45"
			"tall"			"30"
			"autoResize"		"0"
			"pinCorner"			"0"
			"visible"			"1"
			"enabled"			"1"
		}	
		"CapturesLabel"
		{
			"ControlName"		"CExLabel"
			"fieldName"			"CapturesLabel"
			"font"			"m0refont10"
			"fgcolor" 			"255 255 255 255"
			"labelText"			"#TF_ScoreBoard_CapturesLabel"
			"textAlignment"		"east"
			"xpos"			"175"
			"xpos_minmode"		"57"
			"ypos"			"3"
			"ypos_minmode"		"0"
			"zpos"			"3"
			"wide"			"100"
			"tall"			"20"
			"autoResize"		"0"
			"pinCorner"			"0"
			"visible"			"1"
			"enabled"			"1"
		}						
		"Captures"
		{
			"ControlName"		"CExLabel"
			"fieldName"			"Captures"
			"font"			"m0refont10"
			"fgcolor" 			"255 255 255 255"
			"labelText"			"%captures%"
			"textAlignment"		"west"
			"xpos"			"280"
			"xpos_minmode"		"162"
			"ypos"			"3"
			"ypos_minmode"		"0"
			"zpos"			"3"
			"wide"			"35"
			"tall"			"20"
			"autoResize"		"0"
			"pinCorner"			"0"
			"visible"			"1"
			"enabled"			"1"
		}						
		"AssistsLabel"
		{
			"ControlName"		"CExLabel"
			"fieldName"			"AssistsLabel"
			"fgcolor" 			"255 255 255 255"
			"font"			"m0refont10"
			"labelText"			"#TF_ScoreBoard_AssistsLabel"
			"textAlignment"		"east"
			"xpos"			"175"
			"xpos_minmode"		"122"
			"ypos"			"15"
			"ypos_minmode"		"10"
			"zpos"			"3"
			"wide"			"100"
			"wide_minmode"		"35"
			"tall"			"20"
			"autoResize"		"0"
			"pinCorner"			"0"
			"visible"			"1"
			"enabled"			"1"
		}
		"Assists"
		{
			"ControlName"		"CExLabel"
			"fieldName"			"Assists"
			"font"			"m0refont10"
			"fgcolor" 			"255 255 255 255"
			"labelText"			"%assists%"
			"textAlignment"		"west"
			"xpos"			"280"
			"xpos_minmode"		"162"
			"ypos"			"15"
			"ypos_minmode"		"10"
			"zpos"			"3"
			"wide"			"35"
			"tall"			"20"
			"autoResize"		"0"
			"pinCorner"			"0"
			"visible"			"1"
			"enabled"			"1"
		}						
		"DestructionLabel"
		{
			"ControlName"		"CExLabel"
			"fieldName"			"DestructionLabel"
			"font"			"m0refont10"
			"fgcolor" 			"255 255 255 255"
			"labelText"			"#TF_ScoreBoard_DestructionLabel"
			"textAlignment"		"east"
			"xpos"			"175"
			"xpos_minmode"		"57"
			"ypos"			"27"
			"ypos_minmode"		"20"
			"zpos"			"3"
			"wide"			"100"
			"tall"			"20"
			"autoResize"		"0"
			"pinCorner"			"0"
			"visible"			"1"
			"enabled"			"1"
		}												
		"Destruction"
		{
			"ControlName"		"CExLabel"
			"fieldName"			"Destruction"
			"font"			"m0refont10"
			"fgcolor" 			"255 255 255 255"
			"labelText"			"%destruction%"
			"textAlignment"		"west"
			"xpos"			"280"
			"xpos_minmode"		"162"
			"ypos"			"27"
			"ypos_minmode"		"20"
			"zpos"			"3"
			"wide"			"35"
			"tall"			"20"
			"autoResize"		"0"
			"pinCorner"			"0"
			"visible"			"1"
			"enabled"			"1"
		}						
		"DefensesLabel"
		{
			"ControlName"		"CExLabel"
			"fieldName"			"DefensesLabel"
			"font"			"m0refont10"
			"fgcolor" 			"255 255 255 255"
			"labelText"			"#TF_ScoreBoard_DefensesLabel"
			"textAlignment"		"east"
			"xpos"			"255"
			"xpos_minmode"		"57"
			"ypos"			"3"
			"ypos_minmode"		"30"
			"zpos"			"3"
			"wide"			"100"
			"tall"			"20"
			"autoResize"		"0"
			"pinCorner"			"0"
			"visible"			"1"
			"enabled"			"1"
		}						

		"Defenses"
		{
			"ControlName"		"CExLabel"
			"fieldName"			"Defenses"
			"font"			"m0refont10"
			"fgcolor" 			"255 255 255 255"
			"labelText"			"%defenses%"
			"textAlignment"		"west"
			"xpos"			"360"
			"xpos_minmode"		"162"
			"ypos"			"3"
			"ypos_minmode"		"30"
			"zpos"			"3"
			"wide"			"35"
			"tall"			"20"
			"autoResize"		"0"
			"pinCorner"			"0"
			"visible"			"1"
			"enabled"			"1"
		}						
		"DominationLabel"
		{
			"ControlName"		"CExLabel"
			"fieldName"			"DominationLabel"
			"font"			"m0refont10"
			"fgcolor" 			"255 255 255 255"
			"labelText"			"#TF_ScoreBoard_DominationLabel"
			"textAlignment"		"east"
			"xpos"			"255"
			"xpos_minmode"		"57"
			"ypos"			"15"
			"ypos_minmode"		"40"
			"zpos"			"3"
			"wide"			"100"
			"tall"			"20"
			"autoResize"		"0"
			"pinCorner"			"0"
			"visible"			"1"
			"enabled"			"1"
		}						
		"Domination"
		{
			"ControlName"		"CExLabel"
			"fieldName"			"Domination"
			"font"			"m0refont10"
			"fgcolor" 			"255 255 255 255"
			"labelText"			"%dominations%"
			"textAlignment"		"west"
			"xpos"			"360"
			"xpos_minmode"		"162"
			"ypos"			"15"
			"ypos_minmode"		"40"
			"zpos"			"3"
			"wide"			"35"
			"tall"			"20"
			"autoResize"		"0"
			"pinCorner"			"0"
			"visible"			"1"
			"enabled"			"1"
		}						
		"RevengeLabel"
		{
			"ControlName"		"CExLabel"
			"fieldName"			"RevengeLabel"
			"font"			"m0refont10"
			"fgcolor" 			"255 255 255 255"
			"labelText"			"#TF_ScoreBoard_RevengeLabel"
			"textAlignment"		"east"
			"xpos"			"255"
			"xpos_minmode"		"57"
			"ypos"			"27"
			"ypos_minmode"		"50"
			"zpos"			"3"
			"wide"			"100"
			"tall"			"20"
			"autoResize"		"0"
			"pinCorner"			"0"
			"visible"			"1"
			"enabled"			"1"
		}						
		"Revenge"
		{
			"ControlName"		"CExLabel"
			"fieldName"			"Revenge"
			"font"			"m0refont10"
			"fgcolor" 			"255 255 255 255"
			"labelText"			"%Revenge%"
			"textAlignment"		"west"
			"xpos"			"360"
			"xpos_minmode"		"162"
			"ypos"			"27"
			"ypos_minmode"		"50"
			"zpos"			"3"
			"wide"			"35"
			"tall"			"20"
			"autoResize"		"0"
			"pinCorner"			"0"
			"visible"			"1"
			"enabled"			"1"
		}						
		"InvulnLabel"
		{
			"ControlName"		"CExLabel"
			"fieldName"			"InvulnLabel"
			"font"			"m0refont10"
			"fgcolor" 			"255 255 255 255"
			"labelText"			"#TF_ScoreBoard_InvulnLabel"
			"textAlignment"		"east"
			"xpos"			"337"
			"xpos_minmode"		"129"
			"ypos"			"3"
			"ypos_minmode"		"0"
			"zpos"			"3"
			"wide"			"95"
			"tall"			"20"
			"autoResize"		"0"
			"pinCorner"			"0"
			"visible"			"1"
			"enabled"			"1"
		}						
		"Invuln"
		{
			"ControlName"		"CExLabel"
			"fieldName"			"Invuln"
			"font"			"m0refont10"
			"fgcolor" 			"255 255 255 255"
			"labelText"			"%invulns%"
			"textAlignment"		"west"
			"xpos"			"437"
			"xpos_minmode"		"230"
			"ypos"			"3"
			"ypos_minmode"		"0"
			"zpos"			"3"
			"wide"			"35"
			"tall"			"20"
			"autoResize"		"0"
			"pinCorner"			"0"
			"visible"			"1"
			"enabled"			"1"
		}						
		"HeadshotsLabel"
		{
			"ControlName"		"CExLabel"
			"fieldName"			"HeadshotsLabel"
			"font"			"m0refont10"
			"fgcolor" 			"255 255 255 255"
			"labelText"			"#TF_ScoreBoard_HeadshotsLabel"
			"textAlignment"		"east"
			"xpos"			"337"
			"xpos_minmode"		"129"
			"ypos"			"15"
			"ypos_minmode"		"10"
			"zpos"			"3"
			"wide"			"95"
			"tall"			"20"
			"autoResize"		"0"
			"pinCorner"			"0"
			"visible"			"1"
			"enabled"			"1"
		}						
		"Headshots"
		{
			"ControlName"		"CExLabel"
			"fieldName"			"Headshots"
			"font"			"m0refont10"
			"fgcolor" 			"255 255 255 255"
			"labelText"			"%headshots%"
			"textAlignment"		"west"
			"xpos"			"437"
			"xpos_minmode"		"230"
			"ypos"			"15"
			"ypos_minmode"		"10"
			"zpos"			"3"
			"wide"			"35"
			"tall"			"20"
			"autoResize"		"0"
			"pinCorner"			"0"
			"visible"			"1"
			"enabled"			"1"
		}						
		"TeleportsLabel"
		{
			"ControlName"		"CExLabel"
			"fieldName"			"TeleportsLabel"
			"font"			"m0refont10"
			"fgcolor" 			"255 255 255 255"
			"labelText"			"#TF_ScoreBoard_TeleportsLabel"
			"textAlignment"		"east"
			"xpos"			"337"
			"xpos_minmode"		"129"
			"ypos"			"27"
			"ypos_minmode"		"20"
			"zpos"			"3"
			"wide"			"95"
			"tall"			"20"
			"autoResize"		"0"
			"pinCorner"			"0"
			"visible"			"1"
			"enabled"			"1"
		}						
		"Teleports"
		{
			"ControlName"		"CExLabel"
			"fieldName"			"Teleports"
			"font"			"m0refont10"
			"fgcolor" 			"255 255 255 255"
			"labelText"			"%teleports%"
			"textAlignment"		"west"
			"xpos"			"437"
			"xpos_minmode"		"230"
			"ypos"			"27"
			"ypos_minmode"		"20"
			"zpos"			"3"
			"wide"			"35"
			"tall"			"20"
			"autoResize"		"0"
			"pinCorner"			"0"
			"visible"			"1"
			"enabled"			"1"
		}						
		"HealingLabel"
		{
			"ControlName"		"CExLabel"
			"fieldName"			"HealingLabel"
			"font"			"m0refont10"
			"fgcolor" 			"255 255 255 255"
			"labelText"			"#TF_ScoreBoard_HealingLabel"
			"textAlignment"		"east"
			"xpos"			"415"
			"xpos_minmode"		"129"
			"ypos"			"3"
			"ypos_minmode"		"30"
			"zpos"			"3"
			"wide"			"95"
			"tall"			"20"
			"autoResize"		"0"
			"pinCorner"			"0"
			"visible"			"1"
			"enabled"			"1"
		}						
		"Healing"
		{
			"ControlName"		"CExLabel"
			"fieldName"			"Healing"
			"font"			"m0refont10"
			"fgcolor" 			"255 255 255 255"
			"labelText"			"%healing%"
			"textAlignment"		"west"
			"xpos"			"515"
			"xpos_minmode"		"230"
			"ypos"			"3"
			"ypos_minmode"		"30"
			"zpos"			"3"
			"wide"			"35"
			"tall"			"20"
			"autoResize"		"0"
			"pinCorner"			"0"
			"visible"			"1"
			"enabled"			"1"
		}						
		"BackstabsLabel"
		{
			"ControlName"		"CExLabel"
			"fieldName"			"BackstabsLabel"
			"font"			"m0refont10"
			"fgcolor" 			"255 255 255 255"
			"labelText"			"#TF_ScoreBoard_BackstabsLabel"
			"textAlignment"		"east"
			"xpos"			"415"
			"xpos_minmode"		"129"
			"ypos"			"15"
			"ypos_minmode"		"40"
			"zpos"			"3"
			"wide"			"95"
			"tall"			"20"	
			"autoResize"		"0"
			"pinCorner"			"0"
			"visible"			"1"
			"enabled"			"1"
		}
		"Backstabs"
		{
			"ControlName"		"CExLabel"
			"fieldName"			"Backstabs"
			"font"			"m0refont10"
			"fgcolor" 			"255 255 255 255"
			"labelText"			"%backstabs%"
			"textAlignment"		"west"
			"xpos"			"515"
			"xpos_minmode"		"230"
			"ypos"			"15"
			"ypos_minmode"		"40"
			"zpos"			"3"
			"wide"			"35"
			"tall"			"20"
			"autoResize"		"0"
			"pinCorner"			"0"
			"visible"			"1"
			"enabled"			"1"
		}		
		"BonusLabel"
		{
			"ControlName"		"CExLabel"
			"fieldName"			"BonusLabel"
			"font"			"m0refont10"
			"fgcolor" 			"255 255 255 255"
			"labelText"			"#TF_ScoreBoard_BonusLabel"
			"textAlignment"		"east"
			"xpos"			"415"
			"xpos_minmode"		"129"
			"ypos"			"27"
			"ypos_minmode"		"50"
			"zpos"			"3"
			"zpos"			"3"
			"wide"			"95"
			"tall"			"20"
			"autoResize"		"0"
			"pinCorner"			"0"
			"visible"			"1"
			"enabled"			"1"
		}
		"Bonus"
		{
			"ControlName"		"CExLabel"
			"fieldName"			"Bonus"
			"font"			"m0refont10"
			"fgcolor" 			"255 255 255 255"
			"labelText"			"%bonus%"
			"textAlignment"		"west"
			"xpos"			"515"
			"xpos_minmode"		"230"
			"ypos"			"27"
			"ypos_minmode"		"50"
			"zpos"			"3"
			"wide"			"35"
			"tall"			"20"
			"autoResize"		"0"
			"pinCorner"			"0"
			"visible"			"1"
			"enabled"			"1"
		}
		"MapName"
		{
			"ControlName"		"CExLabel"
			"fieldName"			"mapname"
			"font"			"m0refont11"
			"font_minmode"		"m0refont12"
			"labelText"			"%mapname%"
			"textAlignment"		"center"
			"xpos"			"530"
			"xpos_minmode"		"5"
			"ypos"			"8"
			"ypos_minmode"		"40"
			"zpos"			"3"
			"wide"			"89"
			"wide_minmode"		"100"
			"tall"			"20"
			"autoResize"		"0"
			"pinCorner"			"0"
			"visible"			"1"
			"enabled"			"1"
			"fgcolor"			"255 255 255 255"
		}	
		"GameType"
		{
			"ControlName"		"CExLabel"
			"fieldName"			"gametype"
			"font"			"m0refont10"
			"labelText"			"%gametype%"
			"textAlignment"		"center"
			"textAlignment_minmode"	"east"
			"xpos"			"530"
			"xpos_minmode"		"400"
			"ypos"			"21"
			"ypos_minmode"		"372"
			"zpos"			"3"
			"wide"			"89"
			"wide_minmode"		"0"		//145
			"tall"			"20"
			"autoResize"		"0"
			"pinCorner"			"0"
			"visible"			"1"
			"visible_minmode"		"0"
			"enabled"			"1"
			"fgcolor"			"255 255 255 255"
		}
	}							
	"ButtonLegendBG"
	{
		"ControlName"		"ImagePanel"
		"fieldName"			"ButtonLegendBG"
		"xpos"			"10"
		"ypos"			"373"
		"zpos"			"0"
		"wide"			"539"
		"tall"			"0"		//38
		"autoResize"		"0"
		"pinCorner"			"0"
		"visible"			"1"
		"enabled"			"1"
		"tabPosition"		"0"	
		"fillcolor"			"0 0 0 153"
		"PaintBackgroundType"	"0"
	}
	
	"ButtonLegend"
	{
		"ControlName"		"EditablePanel"
		"fieldName"			"ButtonLegend"
		"xpos"			"10"
		"ypos"			"373"
		"zpos"			"1"
		"wide"			"539"
		"tall"			"0"		//150
		"visible"			"1"
										
		"SelectHintIcon"
		{
			"ControlName"		"CExLabel"
			"fieldName"			"SelectHintIcon"
			"font"			"GameUIButtons"
			"xpos"			"10"
			"ypos"			"0"
			"zpos"			"1"
			"wide"			"300"
			"tall"			"38"
			"autoResize"		"0"
			"pinCorner"			"0"
			"visible"			"1"
			"enabled"			"1"
			"labelText"			"C"
			"textAlignment"		"Left"
			"dulltext"			"0"
			"brighttext"		"0"
		}
		
		"SelectHintLabel"
		{
			"ControlName"		"CExLabel"
			"fieldName"			"SelectHintLabel"
			"font"			"ScoreboardMedium"
			"xpos"			"25"
			"ypos"			"2"
			"zpos"			"1"
			"wide"			"300"
			"tall"			"39"
			"autoResize"		"0"
			"pinCorner"			"0"
			"visible"			"1"
			"enabled"			"1"
			"labelText"			"#GameUI_Select"
			"textAlignment"		"Left"
			"dulltext"			"0"
			"brighttext"		"0"
		}
		
		"GamerCardIcon"
		{
			"ControlName"		"CExLabel"
			"fieldName"			"GamerCardIcon"
			"font"			"GameUIButtons"
			"xpos"			"150"
			"ypos"			"0"
			"zpos"			"1"
			"wide"			"300"
			"tall"			"38"
			"autoResize"		"0"
			"pinCorner"			"0"
			"visible"			"1"
			"enabled"			"1"
			"labelText"			"A"
			"textAlignment"		"Left"
			"dulltext"			"0"
			"brighttext"		"0"
		}
		
		"GamerCardLabel"
		{
			"ControlName"		"CExLabel"
			"fieldName"			"GamerCardLabel"
			"font"			"ScoreboardMedium"
			"xpos"			"170"
			"ypos"			"2"
			"zpos"			"1"
			"wide"			"300"
			"tall"			"39"
			"autoResize"		"0"
			"pinCorner"			"0"
			"visible"			"1"
			"enabled"			"1"
			"labelText"			"#TF_ViewGamercard"
			"textAlignment"		"Left"
			"dulltext"			"0"
			"brighttext"		"0"
		}
		
		"ReputationIcon"
		{
			"ControlName"		"CExLabel"
			"fieldName"			"ReputationIcon"
			"font"			"GameUIButtons"
			"xpos"			"350"
			"ypos"			"0"
			"zpos"			"1"
			"wide"			"300"
			"tall"			"38"
			"autoResize"		"0"
			"pinCorner"			"0"
			"visible"			"1"
			"enabled"			"1"
			"labelText"			"X"
			"textAlignment"		"Left"
			"dulltext"			"0"
			"brighttext"		"0"
		}
		
		"ReputationLabel"
		{
			"ControlName"		"CExLabel"
			"fieldName"			"ReputationLabel"
			"font"			"ScoreboardMedium"
			"xpos"			"403"
			"ypos"			"2"
			"zpos"			"1"
			"wide"			"300"
			"tall"			"39"
			"autoResize"		"0"
			"pinCorner"			"0"
			"visible"			"1"
			"enabled"			"1"
			"labelText"			"#GameUI_PlayerReview"
			"textAlignment"		"Left"
			"dulltext"			"0"
			"brighttext"		"0"
		}
	}
	"MvMScoreboard"
	{
		"ControlName"		"CTFHudMannVsMachineScoreboard"
		"fieldName"			"MvMScoreboard"
		"xpos"				"0"
		"ypos"				"0"
		"zpos"				"10"
		"wide"				"f0"
		"tall"				"480"
		"visible"			"0"
		"enabled"			"1"
		
		"verbose"			"1"
		
		if_mvm
		{
			"visible"		"1"
		}
	}			
}
