"Resource/UI/Spectator.res"
{
	"Spectator"
	{
		"ControlName"		"Frame"
		"fieldName"		"Spectator"
		"tall"			"480"
		"autoResize"		"0"
		"pinCorner"		"0"
		"visible"		"1"
		"enabled"		"1"
		"tabPosition"		"0"
	}
	"topbar"
	{
		"ControlName"		"Panel"
		"fieldName"		"TopBar"
		"xpos"			"0"
		"ypos"			"0"
		"tall"			"0"		
		"wide"			"f0"
		"autoResize"		"0"
		"pinCorner"		"0"
		"visible"		"1"
		"enabled"		"1"
		"tabPosition"		"0"
	}
	"BottomBar"
	{
		"ControlName"	"Frame"
		"fieldName"		"BottomBar"
		"xpos"			"0"
		"ypos"			"r20"		
		"tall"			"0"		
		"autoResize"	"0"
		"pinCorner"		"0"
		"visible"		"1"
		"enabled"		"0"
		"tabPosition"		"0"
	}
	"bottombarblank"
	{
		"ControlName"		"Panel"
		"fieldName"		"bottombarblank"
		"xpos"			"0"
		"ypos"			"r0"		
		"tall"			"0"		// this needs to match the size of BottomBar		
		"wide"			"f0"
		"autoResize"	"0"
		"pinCorner"		"0"
		"visible"		"1"
		"enabled"		"1"
		"tabPosition"		"0"
	}
	"ReinforcementsLabel"
	{
		"ControlName"		"CExLabel"
		"fieldName"		"ReinforcementsLabel"
		"xpos"			"c-150"
		"ypos"			"56"
		"wide"			"300"
		"tall"			"18"
		"autoResize"		"0"
		"pinCorner"		"0"
		"visible"		"1"
		"enabled"		"1"
		"labelText"		"#game_respawntime_in_secs"
		"textAlignment"		"center"
		"font"			"m0refont13"
		"fgcolor_override" "255 255 255 200"
	}
	"MapLabel"
	{
		"ControlName"		"CExLabel"
		"fieldName"		"MapLabel"
		"font"			"HudFontSmall"
		"font_hidef"		"HudFontMedium"
		"xpos"			"r260"
		"ypos"			"16"
		"wide"			"0"
		"tall"			"20"
		"tall_hidef"		"30"
		"autoResize"		"0"
		"pinCorner"		"0"
		"visible"		"0"
		"enabled"		"0"
		"labelText"		"map: cp_bridge"
		"textAlignment"		"east"
	}
	"ClassOrTeamLabel"
	{
		"ControlName"		"CExLabel"
		"fieldName"		"ClassOrTeamLabel"
		"xpos"			"c-85"
		"xpos_hidef"	"c-65"
		"xpos_lodef"	"40"
		"ypos"			"68"
		"ypos_hidef"	"90"
		"ypos_lodef"	"30"	
		"wide"			"0"
		"wide_hidef"	"130"
		"wide_lodef"	"220"
		"tall"			"0"
		"tall_lodef"	"25"
		"zpos"			"2"
		"autoResize"		"0"
		"pinCorner"		"0"
		"visible"		"1"
		"enabled"		"0"
		"labelText"		"#TF_Spectator_ChangeTeam"
		"textAlignment"		"center"
		"textAlignment_lodef"		"north-west"
		"font"			"SpectatorKeyHints"
		"font_hidef"	"HudFontSmallest"
		"font_lodef"	"HudFontSmall"
		"wrap_lodef"			"1"
	}
	"SwitchCamModeKeyLabel"
	{
		"ControlName"		"CExLabel"
		"fieldName"		"SwitchCamModeKeyLabel"
		"xpos"			"5"
		"ypos"			"10"
		"wide"			"0"
		"tall"			"0"
		"autoResize"		"0"
		"pinCorner"		"0"
		"visible"		"0"
		"enabled"		"0"
		"labelText"		"#TF_Spectator_ChangeTeam"
		"textAlignment"		"east"
		"font"			"SpectatorKeyHints"
		
	}
	"SwitchCamModeLabel"
	{
		"ControlName"		"CExLabel"
		"fieldName"		"SwitchCamModeLabel"
		"xpos"			"80"
		"ypos"			"10"		
		"wide"			"0"		
		"tall"			"0"
		"autoResize"		"0"
		"pinCorner"		"0"
		"visible"		"0"
		"enabled"		"0"
		"labelText"		"#TF_Spectator_SwitchCamMode"
		"textAlignment"		"west"
		"font"			"SpectatorKeyHints"
	}
	"CycleTargetFwdKeyLabel"
	{
		"ControlName"		"CExLabel"
		"fieldName"		"CycleTargetFwdKeyLabel"
		"xpos"			"5"
		"ypos"			"20"		
		"wide"			"0"
		"tall"			"0"
		"autoResize"		"0"
		"pinCorner"		"0"
		"visible"		"0"
		"enabled"		"0"
		"labelText"		"#TF_Spectator_ClassOrTeamKey"
		"textAlignment"		"east"
		"font"			"SpectatorKeyHints"
	}
	"CycleTargetFwdLabel"
	{
		"ControlName"		"CExLabel"
		"fieldName"		"CycleTargetFwdLabel"
		"xpos"			"80"
		"ypos"			"20"		
		"wide"			"125"	
		"tall"			"0"
		"autoResize"		"0"
		"pinCorner"		"0"
		"visible"		"0"
		"enabled"		"0"
		"labelText"		"#TF_Spectator_CycleTargetFwd"
		"textAlignment"		"west"
		"font"			"SpectatorKeyHints"
	}
	"CycleTargetRevKeyLabel"
	{
		"ControlName"		"CExLabel"
		"fieldName"		"CycleTargetRevKeyLabel"
		"xpos"			"5"
		"ypos"			"30"		
		"wide"			"0"		
		"tall"			"0"
		"autoResize"		"0"
		"pinCorner"		"0"
		"visible"		"1"
		"enabled"		"0"
		"labelText"		"#TF_Spectator_ClassOrTeamKey"
		"textAlignment"		"east"
		"font"			"SpectatorKeyHints"
	}
	"CycleTargetRevLabel"
	{
		"ControlName"		"CExLabel"
		"fieldName"		"CycleTargetRevLabel"
		"xpos"			"80"
		"ypos"			"30"		
		"wide"			"0"
		"tall"			"0"
		"autoResize"		"0"
		"pinCorner"		"0"
		"visible"		"0"
		"enabled"		"0"
		"labelText"		"#TF_Spectator_CycleTargetRev"
		"textAlignment"		"west"
		"font"			"SpectatorKeyHints"
	}
	"TipLabel"
	{
		"ControlName"		"CExLabel"
		"fieldName"		"TipLabel"
		"xpos"			"20"
		"xpos_hidef"	"60"
		"xpos_lodef"	"45"
		"ypos"			"r60"
		"ypos_lodef"		"28"
		"ypos_hidef"		"35"
		"wide"			"0"
		"wide_hidef"	"230"
		"wide_lodef"	"240"
		"tall"			"0"
		"tall_hidef"	"70"
		"tall_lodef"	"70"
		"autoResize"		"0"
		"pinCorner"		"0"
		"visible"		"0"
		"enabled"		"0"
		"labelText"		"%tip%"
		"textAlignment"		"center"
		"font"			"SpectatorKeyHints"
		"font_hidef"	"HudFontSmall"
		"font_lodef"	"DefaultVerySmall"
		"wrap"			"1"
	}
	"itempanel"
	{
		"ControlName"	"CItemModelPanel"
		"fieldName"		"itempanel"
		"xpos"			"r270"
		"ypos"			"r215"
		"zpos"			"1"
		"wide"			"270"
		"tall"			"100"
		"visible"		"0"
		"bgcolor_override"		"255 255 255 0"
		"PaintBackgroundType"	"0"
		
		"model_xpos"	"75"
		"model_ypos"	"15"
		"model_tall"	"55"
		"text_xpos"		"5"
		"text_wide"		"165"
		"text_center"	"1"
		"max_text_height"	"90"
		
		"itemmodelpanel"
		{
			"fieldName"		"itemmodelpanel"
			"use_item_rendertarget" "1"
			"useparentbg"		"1"
		}
		
		"ItemLabel"
		{	
			"ControlName"	"Label"
			"fieldName"		"ItemLabel"
			"font"			"DefaultSmall"
			"xpos"			"10"
			"ypos"			"3"
			"zpos"			"1"
			"wide"			"270"
			"tall"			"9"
			"autoResize"	"0"
			"pinCorner"		"0"
			"visible"		"1"
			"enabled"		"1"
			"labelText"		"#FreezePanel_Item"
			"textAlignment"	"Left"
			"dulltext"		"0"
			"brighttext"	"0"
		}
		
		"attriblabel"
		{
			"ControlName"	"CExLabel"
			"fieldName"		"attriblabel"
			"font"			"ItemFontAttribLarge"
			"xpos"			"0"
			"ypos"			"30"
			"zpos"			"2"
			"wide"			"140"
			"tall"			"60"
			"autoResize"	"0"
			"pinCorner"		"0"
			"visible"		"1"
			"enabled"		"1"
			"labelText"		"%attriblist%"
			"textAlignment"	"south"
			"fgcolor"		"235 226 202 255"
			"centerwrap"	"1"
		}
	}	
}
