"Resource/UI/SpectatorTournamentGUIHealth.res"
{
	"PlayerStatusHealthImage"
	{
		"ControlName"	"ImagePanel"
		"fieldName"		"PlayerStatusHealthImage"
		"xpos"			"9999"
		"ypos"			"9999"
		"zpos"			"4"
		"wide"			"14"
		"tall"			"14"
		"visible"		"0"
		"enabled"		"1"
		"scaleImage"	"1"	
	}		
	"PlayerStatusHealthImageBG"
	{
		"ControlName"	"ImagePanel"
		"fieldName"		"PlayerStatusHealthImageBG"
		"xpos"			"9999"
		"ypos"			"9999"
		"zpos"			"3"
		"wide"			"16"
		"tall"			"16"
		"visible"		"0"
		"enabled"		"1"
		"image"			"../hud/health_bg"
		"scaleImage"	"1"	
	}	
	"BuildingStatusHealthImageBG"
	{
		"ControlName"	"ImagePanel"
		"fieldName"		"BuildingStatusHealthImageBG"
		"xpos"	"9999"
		"ypos"	"9999"
		"zpos"			"2"
		"wide"	"22"
		"tall"	"22"
		"visible"		"0"
		"enabled"		"1"
		"image"			"../hud/health_equip_bg"
		"scaleImage"	"1"	
	}	
	"PlayerStatusHealthBonusImage"
	{
		"ControlName"	"ImagePanel"
		"fieldName"		"PlayerStatusHealthBonusImage"
		"xpos"	"12"
		"ypos"	"9"
		"zpos"			"3"
		"wide"	"12"
		"tall"	"12"
		"visible"		"0"
		"enabled"		"0"
		"image"			"../hud/health_over_bg"
		"scaleImage"	"1"	
	}
	"PlayerStatusHealthValueSpec"
	{
		"ControlName"	"CExLabel"
		"fieldName"		"PlayerStatusHealthValueSpec"
		"xpos"			"6"
		"ypos"			"8"
		"zpos"			"10"
		"wide"			"23"
		"tall"			"12"
		"visible"		"1"
		"enabled"		"1"
		"textAlignment"	"center"	
		"font"			"m0refont12shadow"
		"fgcolor"		"255 255 255 255"
		"labeltext"		"%Health%"
	}								
	"PlayerStatusHealthValueSpecShadow"
	{
		"ControlName"	"CExLabel"
		"fieldName"		"PlayerStatusHealthValueSpecShadow"
		"xpos"			"0"
		"ypos"			"2"
		"zpos"			"5"
		"wide"			"23"
		"tall"			"12"
		"visible"		"0"
		"enabled"		"1"
		"textAlignment"	"center"	
		"font"			"m0refont15"
		"fgcolor"		"OmpShadow"
		"labeltext"		"%Health%"
	}								
}
