"Resource/UI/TargetID.res"
{
	"TargetIDBG"
	{
		"ControlName"		"CTFImagePanel"
		"fieldName"		"TargetIDBG"
		"xpos"			"0"
		"ypos"			"35"
		"zpos"			"-1"
		"wide"			"252"
		"tall"	 		"50"
		"autoResize"		"0"
		"pinCorner"		"0"
		"visible"		"1"
		"enabled"		"1"
		"image"			"../hud/color_panel_brown"
		"scaleImage"		"1"
		"teambg_1"		"../hud/color_panel_brown"
		"teambg_2"		"../hud/objectives_timepanel_red_bg"
		"teambg_2_lodef"	"../hud/objectives_timepanel_red_bg"
		"teambg_3"		"../hud/objectives_timepanel_blue_bg"
		"teambg_3_lodef"	"../hud/objectives_timepanel_blue_bg"
		
		"src_corner_height"		"3"				// pixels inside the image
		"src_corner_width"		"3"
			
		"draw_corner_width"		"0"				// screen size of the corners ( and sides ), proportional
		"draw_corner_height" 	"0"	
	}
	"TargetIDBG_Spec_Blue"
	{
		"ControlName"		"ScalableImagePanel"
		"fieldName"		"TargetIDBG_Spec_Blue"
		"xpos"			"0"
		"ypos"			"35"
		"zpos"			"-1"
		"wide"			"252"
		"tall"	 		"30"
		"autoResize"		"0"
		"pinCorner"		"0"
		"visible"		"0"
		"enabled"		"1"
		"image"			"../hud/objectives_timepanel_blue_bg"
		"image_lodef"	"../hud/objectives_timepanel_blue_bg"
		
		"src_corner_height"		"3"				// pixels inside the image
		"src_corner_width"		"3"
			
		"draw_corner_width"		"0"				// screen size of the corners ( and sides ), proportional
		"draw_corner_height" 	"0"
	}
	"TargetIDBG_Spec_Red"
	{
		"ControlName"		"ScalableImagePanel"
		"fieldName"		"TargetIDBG_Spec_Red"
		"xpos"			"0"
		"ypos"			"35"
		"zpos"			"-1"
		"wide"			"252"
		"tall"	 		"30"
		"autoResize"		"0"
		"pinCorner"		"0"
		"visible"		"0"
		"enabled"		"1"
		"image"			"../hud/objectives_timepanel_red_bg"
		"image_lodef"	"../hud/objectives_timepanel_red_bg"
		
		"src_corner_height"		"3"				// pixels inside the image
		"src_corner_width"		"3"
			
		"draw_corner_width"		"0"				// screen size of the corners ( and sides ), proportional
		"draw_corner_height" 	"0"
	}
	 "m0reshade"
	{
		"ControlName"		"ImagePanel"
		"fieldName"			"TargetBGshade"
		"xpos"			"-1"
		"ypos"			"12"
		"zpos"			"-10"
		"wide"			"640"
		"tall"			"12"
		"autoResize"		"0"
		"pinCorner"			"0"
		"visible"			"1"
		"enabled"			"1"
		"fillcolor"			"0 0 0 95"
		"PaintBackgroundType"	"0"
	}
	"TargetNameLabel"
	{	
		"ControlName"		"Label"
		"fieldName"		"TargetNameLabel"
		"font"			"m0refont12"
		"xpos"			"65"
		"ypos"			"12"
		"zpos"			"1"
		"wide"			"640"
		"tall"			"24"
		"autoResize"		"0"
		"pinCorner"		"0"
		"visible"		"1"
		"enabled"		"1"
		"labelText"		"%targetname%"
		"textAlignment"		"North-West"
		"dulltext"		"0"
		"brighttext"		"0"
		"fgcolor_override" "255 255 255 255"
	}
	"TargetDataLabel"
	{	
		"ControlName"		"Label"
		"fieldName"		"TargetDataLabel"
		"font"			"m0refont10"
		"xpos"			"38"
		"ypos"			"22"
		"zpos"			"1"
		"wide"			"280"
		"tall"			"15"
		"autoResize"		"0"
		"pinCorner"		"0"
		"visible"		"1"
		"enabled"		"1"
		"labelText"		"%targetdata%"
		"textAlignment"		"Left"
		"dulltext"		"0"
		"brighttext"		"0"
		"fgcolor_override" "255 255 255 255"
	}

	"SpectatorGUIHealth"
	{
		"ControlName"		"EditablePanel"
		"fieldName"		"SpectatorGUIHealth"
		"xpos"			"3"
		"ypos"			"3"
		"wide"			"62"
		"tall"			"132"
		"visible"		"1"
		"enabled"		"1"	
		"HealthBonusPosAdj"	"10"
		"HealthDeathWarning"	"0.49"
		"TFFont"		"HudFontSmall"
		"HealthDeathWarningColor"	"HUDDeathWarning"
		"TextColor"		"HudOffWhite"
	}	
}
