"Resource/UI/TextWindow.res"
{
	"info"
	{
		"ControlName"			"CTFTextWindow"
		"fieldName"				"info"
		"xpos"					"0"
		"ypos"					"0"
		"wide"					"f0"
		"tall"					"480"
		"autoResize"			"0"
		"pinCorner"				"0"
		"visible"				"1"
		"enabled"				"1"
		"tabPosition"			"0"
		"settitlebarvisible"	"0"
	}
	
	"TFMessageTitle"
	{
		"ControlName"	"CExLabel"
		"fieldName"		"TFMessageTitle"
		"xpos"			"c-210"
		"ypos"			"90"
		"zpos"			"1"
		"wide"			"420"
		"tall"			"24"
		"autoResize"	"0"
		"pinCorner"		"0"
		"visible"		"1"
		"enabled"		"1"
		"labelText"		"#TF_WELCOME"
		"textAlignment"	"west"
		"dulltext"		"0"
		"brighttext"	"0"
		"font"			"HudFontMediumBold"
		"fgcolor"		"White"
	}	

	"TextMessage"
	{
		"ControlName"	"TextEntry"
		"fieldName"		"TextMessage"
		"visible"		"0"
		"enabled"		"0"
	}

	"TFTextMessage"
	{
		"ControlName"	"CExRichText"
		"fieldName"		"TFTextMessage"
		"font"			"HudFontsmallest"
		"xpos"			"c-209"
		"ypos"			"125"
		"zpos"			"1"
		"wide"			"418"
		"tall"			"240"
		"autoResize"	"3"
		"pinCorner"		"0"
		"visible"		"1"
		"enabled"		"1"
		"paintborder"	"0"
		"textAlignment"	"northwest"
		"fgcolor"		"white"
	}

	"HTMLMessage"
	{
		"ControlName"	"HTML"
		"fieldName"		"HTMLMessage"
		"xpos"			"c-215"
		"ypos"			"75"
		"zpos"			"1"
		"wide"			"430"
		"tall"			"290"
		"autoResize"	"1"
		"pinCorner"		"0"
		"visible"		"1"
		"enabled"		"1"
		"tabPosition"	"0"
		"paintborder"	"0"
	}
	
	"ok"
	{
		"ControlName"	"CExButton"
		"fieldName"		"ok"
		"xpos"			"c105"
		"ypos"			"r105"
		"zpos"			"6"
		"wide"			"100"
		"tall"			"20"
		"autoResize"	"0"
		"pinCorner"		"2"
		"visible"		"1"
		"enabled"		"1"
		"tabPosition"	"0"
		"labelText"		"#TF_Continue"
		"textAlignment"	"center"
		"dulltext"		"0"
		"brighttext"	"0"
		"wrap"			"0"
		"command"		"okay"
		"default"		"1"
		"font"			"HudFontSmallBold"		//"MenuSmallFont"
	}
	
	"MenuBG"
	{
		"ControlName"	"CTFImagePanel"
		"fieldName"		"MenuBG"
		"xpos"			"c-230"
		"ypos"			"60"
		"zpos"			"1"
		"wide"			"460"
		"tall"	 		"350"
		"visible"		"1"
		"enabled"		"1"
		"image"			"../hud/color_panel_brown"
		"scaleImage"	"1"
		
		"src_corner_height"		"60"
		"src_corner_width"		"60"
		
		"draw_corner_width"		"10"
		"draw_corner_height" 	"10"
	}
	
	"ShadedBG"
	{
		"ControlName"	"ImagePanel"
		"fieldName"		"ShadedBG"
		"xpos"			"0"
		"ypos"			"r500"
		"zpos"			"-5"
		"wide"			"f0"
		"tall"			"2000"
		"autoResize"	"0"
		"pinCorner"		"0"
		"visible"		"1"
		"enabled"		"1"
		"tabPosition"	"0"	
		"fillcolor"		"0 0 0 195"
		"tileImage"		"1"
		"PaintBackgroundType"	"0"
	}						
	
	"MessageTitle"
	{
		"ControlName"	"Label"
		"fieldName"		"MessageTitle"
		"visible"		"0"
		"enabled"		"0"
	}		
}
