"Resource/UI/winpanel.res"
{
	"TeamScoresPanel"
	{
		"ControlName"		"EditablePanel"
		"fieldName"		"TeamScoresPanel"
		"xpos"			"-45"
		"ypos"			"71"
		"wide"			"480"
		"tall"			"84"
		"visible"		"1"

		"BlueScoreBG"
		{
		"ControlName"		"ScalableImagePanel"
			"fieldName"		"BlueScoreBG"
			"xpos"			"105"
			"ypos"			"27"
			"wide"			"85"
			"tall"			"18"
			"autoResize"	"0"
			"pinCorner"		"0"
			"visible"		"1"
			"enabled"		"1"
		"image"			"../hud/color_panel_blu"
		"src_corner_height"	"23"
		"src_corner_width"	"23"
		"draw_corner_width"	"3"
		"draw_corner_height" 	"3"	
		}
		"RedScoreBG"
		{
			"ControlName"		"ScalableImagePanel"
			"fieldName"		"RedScoreBG"
			"xpos"			"190"
			"ypos"			"27"
			"wide"			"84"
			"tall"			"18"
			"autoResize"	"0"
			"pinCorner"		"0"
			"visible"		"1"
			"enabled"		"1"
		"image"			"../hud/color_panel_red"
		"src_corner_height"	"23"
		"src_corner_width"	"23"
		"draw_corner_width"	"3"
		"draw_corner_height" 	"3"	
		}
		"BlueTeamLabel"
		{
			"ControlName"		"CExLabel"
			"fieldName"		"BlueTeamLabel"
			"font"			"m0refont12"
			"fgcolor" "255 255 255 255"
			"labelText"		"%blueteamname%"
			"textAlignment"		"west"
			"xpos"			"110"
			"ypos"			"26"
			"wide"			"100"
			"tall"			"20"
			"tall_lodef"	"24"
			"tall_hidef"	"24"
			"autoResize"	"0"
			"pinCorner"		"0"
			"visible"		"1"
			"enabled"		"1"
		}							
		"BlueTeamScore"
		{
			"ControlName"		"CExLabel"
			"fieldName"		"BlueTeamScore"
			"font"			"m0refont46"
			"fgcolor" "255 255 255 255"
			"labelText"		"%blueteamscore%"
			"textAlignment"		"east"
			"xpos"			"102"
			"ypos"			"-3"
			"zpos"			"3"
			"wide"			"80"
			"tall"			"49"
			"tall_lodef"	"80"
			"tall_hidef"	"75"
			"autoResize"	"0"
			"pinCorner"		"0"
			"visible"		"1"
			"enabled"		"1"
		}
		"BlueTeamScoreDropshadow"
		{
			"ControlName"		"CExLabel"
			"fieldName"		"BlueTeamScoreDropshadow"
			"font"			"m0refont46"
			"fgcolor" "black"
			"labelText"		"%blueteamscore%"
			"textAlignment"		"east"
			"xpos"			"103"
			"ypos"			"-2"
			"zpos"			"3"
			"wide"			"80"
			"tall"			"49"
			"tall_lodef"	"80"
			"tall_hidef"	"75"
			"autoResize"	"0"
			"pinCorner"		"0"
			"visible"		"1"
			"enabled"		"1"
		}							
		"RedTeamLabel"
		{
			"ControlName"		"CExLabel"
			"fieldName"		"RedTeamLabel"
			"font"			"m0refont12"
			"fgcolor" "255 255 255 255"
			"labelText"		"%redteamname%"
			"textAlignment"		"east"
			"xpos"			"170"
			"ypos"			"26"
			"wide"			"100"
			"tall"			"20"
			"tall_lodef"	"24"
			"tall_hidef"	"24"
			"autoResize"	"0"
			"pinCorner"		"0"
			"visible"		"1"
			"enabled"		"1"
		}							
		"RedTeamScore"
		{
			"ControlName"		"CExLabel"
			"fieldName"		"RedTeamScore"
			"font"			"m0refont46"
			"fgcolor" "255 255 255 255"
			"labelText"		"%redteamscore%"
			"textAlignment"		"west"
			"xpos"			"197"
			"ypos"			"-3"
			"zpos"			"3"
			"wide"			"80"
			"tall"			"49"
			"tall_lodef"	"80"
			"tall_hidef"	"75"
			"autoResize"	"0"
			"pinCorner"		"0"
			"visible"		"1"
			"enabled"		"1"
		}
		"RedTeamScoreDropshadow"
		{
			"ControlName"		"CExLabel"
			"fieldName"		"RedTeamScoreDropshadow"
			"font"			"m0refont46"
			"fgcolor" "black"
			"labelText"		"%redteamscore%"
			"textAlignment"		"west"
			"xpos"			"198"
			"ypos"			"-2"
			"zpos"			"3"
			"wide"			"80"
			"tall"			"49"
			"tall_lodef"	"80"
			"tall_hidef"	"75"
			"autoResize"	"0"
			"pinCorner"		"0"
			"visible"		"1"
			"enabled"		"1"
		}
	}
	"WinPanelBG"
	{
		"ControlName"		"ImagePanel"
		"fieldName"		"WinPanelBG"
		"xpos"			"-102"
		"ypos"			"50"
		"zpos"			"0"
		"wide"			"496"
		"tall"			"174"
		"visible"		"0"
		"enabled"		"0"
		"scaleImage"		"1"	
	}
	"WinningTeamLabel"
	{	
		"ControlName"		"CExLabel"
		"fieldName"		"WinningTeamLabel"
			"font"			"m0refont12"
			"fgcolor" "255 255 255 255"
		"xpos"			"60"
		"ypos"			"112"
		"zpos"			"10"
		"wide"			"170"
		"tall"			"24"
		"autoResize"		"0"
		"pinCorner"		"0"
		"visible"		"1"
		"enabled"		"1"
		"labelText"		"%WinningTeamLabel%"
		"textAlignment"		"Center"
		"dulltext"		"0"
		"brighttext"		"0"
	}
	"AdvancingTeamLabel"
	{	
		"ControlName"		"CExLabel"
		"fieldName"		"AdvancingTeamLabel"
			"font"			"m0refont12"
			"fgcolor" "255 255 255 255"
		"xpos"			"60"
		"ypos"			"112"
		"zpos"			"11"
		"wide"			"170"
		"tall"			"24"
		"autoResize"		"0"
		"pinCorner"		"0"
		"visible"		"1"
		"enabled"		"1"
		"labelText"		"%AdvancingTeamLabel%"
		"textAlignment"		"Center"
		"dulltext"		"0"
		"brighttext"		"0"
	}
	"WinReasonLabel"
	{	
		"ControlName"		"CExLabel"
		"fieldName"		"WinReasonLabel"
		"font"			"ScoreboardVerySmall"
		"xpos"			"0"
		"ypos"			"89"
		"zpos"			"1"
		"wide"			"0"
		"tall"			"0"
		"autoResize"		"0"
		"pinCorner"		"0"
		"visible"		"0"
		"enabled"		"0"
		"labelText"		"%WinReasonLabel%"
		"textAlignment"		"Center"
		"dulltext"		"0"
		"brighttext"		"0"
	}
	"DetailsLabel"
	{	
		"ControlName"		"CExLabel"
		"fieldName"		"DetailsLabel"
		"font"			"ScoreboardVerySmall"
		"xpos"			"12"
		"ypos"			"101"
		"zpos"			"1"
		"wide"			"0"
		"tall"			"0"
		"autoResize"		"0"
		"pinCorner"		"0"
		"visible"		"0"
		"enabled"		"0"
		"labelText"		"%DetailsLabel%"
		"textAlignment"		"Center"
		"dulltext"		"0"
		"brighttext"		"0"
	}
	"ShadedBar"
	{
		"ControlName"		"ScalableImagePanel"
		"fieldName"		"ShadedBar"
		"xpos"			"60"
		"ypos"			"116"
		"zpos"			"2"
		"wide"			"170"
		"tall"			"48"
		"autoResize"	"0"
		"pinCorner"		"0"
		"visible"		"1"
		"enabled"		"1"
		"image"			"../hud/color_panel_brown"
		"src_corner_height"	"23"				// pixels inside the image
		"src_corner_width"	"23"
		"draw_corner_width"	"3"				// screen size of the corners ( and sides ), proportional
		"draw_corner_height" 	"3"	
	}
	"TopPlayersLabel"
	{	
		"ControlName"		"CExLabel"
		"fieldName"		"TopPlayerLabel"
		"font"			"ScoreboardVerySmall"
		"xpos"			"15"
		"ypos"			"114"
		"zpos"			"3"
		"wide"			"100"
		"tall"			"20"
		"autoResize"		"0"
		"pinCorner"		"0"
		"visible"		"0"
		"enabled"		"0"
		"labelText"		"%TopPlayersLabel%"
		"textAlignment"		"west"
		"dulltext"		"0"
		"brighttext"		"0"
	}
	"PointsThisRoundLabel"
	{	
		"ControlName"		"CExLabel"
		"fieldName"		"PointsThisRoundLabel"
		"font"			"ScoreboardVerySmall"
		"xpos"			"136"
		"ypos"			"114"
		"zpos"			"3"
		"wide"			"140"
		"tall"			"20"
		"autoResize"		"0"
		"pinCorner"		"0"
		"visible"		"0"
		"enabled"		"0"
		"labelText"		"#Winpanel_PointsThisRound"
		"textAlignment"		"east"
		"dulltext"		"0"
		"brighttext"		"0"
	}
	"HorizontalLine"
	{
		"ControlName"		"ImagePanel"
		"fieldName"		"HorizontalLine"
		"xpos"			"15"
		"ypos"			"129"
		"zpos"			"3"
		"wide"			"0"
		"tall"			"0"
		"autoResize"	"0"
		"pinCorner"		"0"
		"visible"		"0"
		"enabled"		"0"
		"tabPosition"	"0"	
		"fillcolor"		"250 234 201 255"
		"PaintBackgroundType"	"0"
	}
	"Player1Avatar"
	{
		"ControlName"		"CAvatarImagePanel"
		"fieldName"		"Player1Avatar"
		"xpos"			"22"
		"ypos"			"135"
		"zpos"			"3"
		"wide"			"0"
		"tall"			"0"
		"visible"		"0"
		"enabled"		"0"
		"image"			""
		"scaleImage"		"1"	
		"color_outline"		"52 48 45 255"
	}
	"Player1Name"
	{	
		"ControlName"		"CExLabel"
		"fieldName"		"Player1Name"
		"font"			"m0refont10"
		"xpos"			"65"
		"ypos"			"125"
		"zpos"			"3"
		"wide"			"100"
		"tall"			"20"
		"autoResize"		"0"
		"pinCorner"		"0"
		"visible"		"1"
		"enabled"		"1"
		"labelText"		""
		"textAlignment"		"west"
		"dulltext"		"0"
		"brighttext"		"0"
	}
	"Player1Class"
	{	
		"ControlName"		"CExLabel"
		"fieldName"		"Player1Class"
		"font"			"m0refont10"
		"xpos"			"170"
		"ypos"			"125"
		"zpos"			"3"
		"wide"			"40"
		"tall"			"20"
		"visible"		"1"
		"enabled"		"1"
		"labelText"		""
		"textAlignment"		"west"
		"dulltext"		"0"
		"brighttext"		"0"
	}
	"Player1Score"
	{	
		"ControlName"		"CExLabel"
		"fieldName"		"Player1Score"
		"font"			"m0refont11"
		"xpos"			"195"
		"ypos"			"125"
		"zpos"			"3"
		"wide"			"30"
		"tall"			"20"
		"autoResize"		"0"
		"pinCorner"		"0"
		"visible"		"1"
		"enabled"		"1"
		"labelText"		""
		"textAlignment"		"east"
		"dulltext"		"0"
		"brighttext"		"0"
	}
	"Player2Avatar"
	{
		"ControlName"		"CAvatarImagePanel"
		"fieldName"		"Player2Avatar"
		"xpos"			"22"
		"ypos"			"157"
		"zpos"			"3"
		"wide"			"0"
		"tall"			"0"
		"visible"		"0"
		"enabled"		"0"
		"image"			""
		"scaleImage"		"1"	
		"color_outline"		"52 48 45 255"
	}
	"Player2Name"
	{	
		"ControlName"		"CExLabel"
		"fieldName"		"Player2Name"
		"font"			"m0refont10"
		"xpos"			"65"
		"ypos"			"136"
		"zpos"			"3"
		"wide"			"100"
		"tall"			"20"
		"autoResize"		"0"
		"pinCorner"		"0"
		"visible"		"1"
		"enabled"		"1"
		"labelText"		""
		"textAlignment"		"west"
		"dulltext"		"0"
		"brighttext"		"0"
	}
	"Player2Class"
	{	
		"ControlName"		"CExLabel"
		"fieldName"		"Player2Class"
		"font"			"m0refont10"
		"xpos"			"170"
		"ypos"			"136"
		"zpos"			"3"
		"wide"			"40"
		"tall"			"20"
		"autoResize"		"0"
		"pinCorner"		"0"
		"visible"		"1"
		"enabled"		"1"
		"labelText"		""
		"textAlignment"		"west"
		"dulltext"		"0"
		"brighttext"		"0"
	}
	"Player2Score"
	{	
		"ControlName"		"CExLabel"
		"fieldName"		"Player2Score"
		"font"			"m0refont11"
		"xpos"			"195"
		"ypos"			"136"
		"zpos"			"3"
		"wide"			"30"
		"tall"			"20"
		"autoResize"		"0"
		"pinCorner"		"0"
		"visible"		"1"
		"enabled"		"1"
		"labelText"		""
		"textAlignment"		"east"
		"dulltext"		"0"
		"brighttext"		"0"
	}
	"Player3Avatar"
	{
		"ControlName"		"CAvatarImagePanel"
		"fieldName"		"Player3Avatar"
		"xpos"			"22"
		"ypos"			"179"
		"zpos"			"3"
		"wide"			"0"
		"tall"			"0"
		"visible"		"0"
		"enabled"		"0"
		"image"			""
		"scaleImage"		"1"	
		"color_outline"		"52 48 45 255"
	}
	"Player3Name"
	{	
		"ControlName"		"CExLabel"
		"fieldName"		"Player3Name"
		"font"			"m0refont10"
		"xpos"			"65"
		"ypos"			"147"
		"zpos"			"3"
		"wide"			"100"
		"tall"			"20"
		"autoResize"		"0"
		"pinCorner"		"0"
		"visible"		"1"
		"enabled"		"1"
		"labelText"		""
		"textAlignment"		"west"
		"dulltext"		"0"
		"brighttext"		"0"
	}
	"Player3Class"
	{	
		"ControlName"		"CExLabel"
		"fieldName"		"Player3Class"
		"font"			"m0refont10"
		"xpos"			"170"
		"ypos"			"147"
		"zpos"			"3"
		"wide"			"40"
		"tall"			"20"
		"autoResize"		"0"
		"pinCorner"		"0"
		"visible"		"1"
		"enabled"		"1"
		"labelText"		""
		"textAlignment"		"west"
		"dulltext"		"0"
		"brighttext"		"0"
	}
	"Player3Score"
	{	
		"ControlName"		"CExLabel"
		"fieldName"		"Player3Score"
		"font"			"m0refont11"
		"xpos"			"195"
		"ypos"			"147"
		"zpos"			"3"
		"wide"			"30"
		"tall"			"20"
		"autoResize"		"0"
		"pinCorner"		"0"
		"visible"		"1"
		"enabled"		"1"
		"labelText"		""
		"textAlignment"		"east"
		"dulltext"		"0"
		"brighttext"		"0"
	}
}
